Info [Main]: SoundSourceProxy - Loading SoundSource plugins "C:/Program Files/Mixxx/plugins/soundsource"
Info [Main]: SoundSourcePluginLibrary - Dynamically loaded plugin library "C:/Program Files/Mixxx/plugins/soundsource/soundsourcemediafoundation.dll"
Warning [Main]: SoundSourcePluginLibrary - Failed to dynamically load plugin library "C:/Program Files/Mixxx/plugins/soundsource/soundsourcemediafoundation.exp" : "Cannot load library C:\\Program Files\\Mixxx\\plugins\\soundsource\\soundsourcemediafoundation.exp: Unknown error 0x000000c1."
Warning [Main]: SoundSourceProxy - Failed to load SoundSource plugin "C:/Program Files/Mixxx/plugins/soundsource/soundsourcemediafoundation.exp"
Warning [Main]: SoundSourcePluginLibrary - Failed to dynamically load plugin library "C:/Program Files/Mixxx/plugins/soundsource/soundsourcemediafoundation.lib" : "Cannot load library C:\\Program Files\\Mixxx\\plugins\\soundsource\\soundsourcemediafoundation.lib: Unknown error 0x000000c1."
Warning [Main]: SoundSourceProxy - Failed to load SoundSource plugin "C:/Program Files/Mixxx/plugins/soundsource/soundsourcemediafoundation.lib"
Warning [Main]: SoundSourcePluginLibrary - Failed to dynamically load plugin library "C:/Program Files/Mixxx/plugins/soundsource/soundsourcemediafoundation.pdb" : "Cannot load library C:\\Program Files\\Mixxx\\plugins\\soundsource\\soundsourcemediafoundation.pdb: Unknown error 0x000000c1."
Warning [Main]: SoundSourceProxy - Failed to load SoundSource plugin "C:/Program Files/Mixxx/plugins/soundsource/soundsourcemediafoundation.pdb"
Debug [Main]: "Mixxx" "2.2.4" "(git 2.2 r6798; built on: Jun 25 2020 @ 17:03:13; flags: asan=0 asmlib=0 battery=1 buildtime=1 bulk=0 color=0 coreaudio=0 faad=0 ffmpeg=0 hid=1 hss1394=1 ipod=0 lilv=0 localecompare=1 macappstore=0 mad=1 mediafoundation=1 modplug=0 opengles=0 optimize=portable opus=1 perftools=0 perftools_profiler=0 profiling=0 qt_sqlite_plugin=0 qtkeychain=0 shoutcast=1 test=1 tsan=0 ubsan=0 vamp=1 verbose=0 vinylcontrol=1 wv=0)" is starting...
Debug [Main]: Compile time library versions:
Debug [Main]: Qt: 5.11.1
Debug [Main]: libshout: 2.4.1
Debug [Main]: PortAudio: 1246720 PortAudio V19.6.0-devel, revision 396fe4b6699ae929d3a685b3ef8a7e97396139a4
Debug [Main]: RubberBand: 1.8.1
Debug [Main]: SoundTouch: 2.0.0
Debug [Main]: TagLib: 1.11.1
Debug [Main]: ChromaPrint: 1.3.1
Debug [Main]: Vorbis: Xiph.Org libVorbis 1.3.5
Debug [Main]: libsndfile: libsndfile-1.0.26
Debug [Main]: FLAC: 1.3.1
Debug [Main]: QDesktopServices::storageLocation(HomeLocation): "C:/Users/marc"
Debug [Main]: QDesktopServices::storageLocation(DataLocation): "C:/Users/marc/AppData/Local/Mixxx"
Debug [Main]: QCoreApplication::applicationDirPath() "C:/Program Files/Mixxx"
Debug [Main]: Loading resources from  "C:/Program Files/Mixxx/"
Debug [Main]: Configuration file is at the current version 2.2.4
Info [Main]: BroadcastSettings - Found 1 profile(s)
Debug [Main]: Loading resources from  "C:/Program Files/Mixxx/"
Debug [Main]: Loading resources from  "C:/Program Files/Mixxx/"
Debug [Main]: Loading translations for locale "de_CH" from translations folder "C:/Program Files/Mixxx/translations/" : success
Debug [Main]: "Error: Unable to import console: no such extension"
Debug [Main]: "Error: Unable to import svg: no such extension"
Debug [Main]: Loading resources from  "C:/Program Files/Mixxx/"
Debug [Main]: Compressor attack per frame:  0.000408163 decay per frame:  4.08163e-05
Debug [Main]: EngineNetworkStream - addWorker: worker added
Debug [Main]: EngineNetworkStream - worker slots used: "1 out of 16"
Debug [Main]: BroadcastManager - addConnection: created connection for profile "Connection 1"
Debug [Main]: WARNING: AudioInput already registered!
Debug [Main]: WARNING: AudioInput already registered!
Debug [Main]: WARNING: AudioInput already registered!
Debug [Main]: WARNING: AudioInput already registered!
Info [Main]: DbConnection - Available drivers for database connections: ("QSQLITE")
Info [Main]: DbConnectionPool - Cloned thread-local database connection "MIXXX-1" QSqlDatabase(driver="QSQLITE", database="C:/Users/marc/AppData/Local/Mixxx/mixxxdb.sqlite", host="localhost", port=-1, user="mixxx", open=true)
Info [Main]: MixxxMainWindow - Connecting to database
Info [Main]: MixxxMainWindow - Initializing or upgrading database schema
Info [Main]: SchemaManager - Database schema is up-to-date at version 28
Debug [Main]: LibraryScanner - Starting thread
Info [Main]: Library - Connecting database
Debug [LibraryScanner 1]: LibraryScanner - Entering thread
Info [LibraryScanner 1]: DbConnectionPool - Cloned thread-local database connection "MIXXX-2" QSqlDatabase(driver="QSQLITE", database="C:/Users/marc/AppData/Local/Mixxx/mixxxdb.sqlite", host="localhost", port=-1, user="mixxx", open=true)
Info [LibraryScanner 1]: LibraryScanner - Cleaning up database...
Debug [Main]: Committing transaction on "MIXXX-1" result: true
Info [LibraryScanner 1]: LibraryScanner - Finished database cleanup: 98 ms
Debug [LibraryScanner 1]: LibraryScanner - Event loop starting
Debug [Main]: CrateFeature::rebuildChildModel() -1
Debug [Main]: Default quick links: ("D:/Music.noDupes/", "C:/Users/marc/Music/", "C:/Users/marc/Downloads/", "C:/Users/marc/Desktop/", "C:/Users/marc/Documents/")
Debug [Main]: Appending Quick Link:  "Music.noDupes" --- "D:/Music.noDupes/"
Debug [Main]: Appending Quick Link:  "Music" --- "C:/Users/marc/Music/"
Debug [Main]: Appending Quick Link:  "Downloads" --- "C:/Users/marc/Downloads/"
Debug [Main]: Appending Quick Link:  "Desktop" --- "C:/Users/marc/Desktop/"
Debug [Main]: Appending Quick Link:  "Documents" --- "C:/Users/marc/Documents/"
Debug [Main]: Committing transaction on "MIXXX-1" result: true
Debug [Main]: Traktor Library Location=[ "C:/Users/marc/collection.nml" ]
Debug [Main]: Checking for access to user's library directories:
Debug [Main]: Checking for access to "D:/Music.noDupes" : true
Debug [AnalyzerQueue 1]: AnalyzerQueue - Entering thread
Info [AnalyzerQueue 1]: DbConnectionPool - Cloned thread-local database connection "MIXXX-3" QSqlDatabase(driver="QSQLITE", database="C:/Users/marc/AppData/Local/Mixxx/mixxxdb.sqlite", host="localhost", port=-1, user="mixxx", open=true)
Debug [Main]: Creating ControllerManager
Debug [Controller]: ControllerManager:slotInitialize
Debug [Main]: Set root GL Context widget valid: QGLWidget(0x1b2b628af20) true
Debug [Main]: Created root GL Context valid: 0x1b2b73aef90 true
Debug [Main]: Root GL Context format:
Debug [Main]: Double Buffering: true
Debug [Main]: Swap interval: 1
Debug [Main]: Depth buffer: true
Debug [Main]: Direct rendering: true
Debug [Main]: Has overlay: false
Debug [Main]: RGBA: true
Debug [Main]: Sample buffers: false
Debug [Main]: Samples: -1
Debug [Main]: Stencil buffers: true
Debug [Main]: Stereo: false
Debug [Main]: "openGLVersionFlags 0xff07f" "4.6.0 NVIDIA 456.71" "NVIDIA Corporation" "GeForce GTX 1060 6GB/PCIe/SSE2"
Debug [Main]: screensaver inhibited
Debug [Main]: ControllerManager::getControllerList
Info [Main]: VampPluginAdapter - Current VAMP_PATH is: ""
Info [Main]: VampPluginAdapter - Setting VAMP_PATH to: "C:\\Program Files\\Mixxx\\plugins\\vamp"
Debug [Main]: VampPluginLoader::listPlugins() returned 4 plugins
Debug [Main]: Plugin output displayname: "mixxxbpmdetection:0" "SoundTouch BPM Detector (Legacy)"
Debug [Main]: Plugin output displayname: "qm-barbeattracker:0" "Bar and Beat Tracker"
Debug [Main]: Plugin output displayname: "qm-barbeattracker:1" "Bar and Beat Tracker"
Debug [Main]: Plugin output displayname: "qm-barbeattracker:2" "Bar and Beat Tracker"
Debug [Main]: Plugin output displayname: "qm-barbeattracker:3" "Bar and Beat Tracker"
Debug [Main]: Plugin output displayname: "qm-keydetector:0" "Key Detector"
Debug [Main]: Plugin output displayname: "qm-keydetector:1" "Key Detector"
Debug [Main]: Plugin output displayname: "qm-keydetector:2" "Key Detector"
Debug [Main]: Plugin output displayname: "qm-keydetector:3" "Key Detector"
Debug [Main]: Plugin output displayname: "qm-tempotracker:0" "Tempo and Beat Tracker"
Debug [Main]: Plugin output displayname: "qm-tempotracker:1" "Tempo and Beat Tracker"
Debug [Main]: Plugin output displayname: "qm-tempotracker:2" "Tempo and Beat Tracker"
Debug [Main]: VampPluginLoader::listPlugins() returned 4 plugins
Debug [Main]: Plugin output displayname: "mixxxbpmdetection:0" "SoundTouch BPM Detector (Legacy)"
Debug [Main]: Plugin output displayname: "qm-barbeattracker:0" "Bar and Beat Tracker"
Debug [Main]: Plugin output displayname: "qm-barbeattracker:1" "Bar and Beat Tracker"
Debug [Main]: Plugin output displayname: "qm-barbeattracker:2" "Bar and Beat Tracker"
Debug [Main]: Plugin output displayname: "qm-barbeattracker:3" "Bar and Beat Tracker"
Debug [Main]: Plugin output displayname: "qm-keydetector:0" "Key Detector"
Debug [Main]: Plugin output displayname: "qm-keydetector:1" "Key Detector"
Debug [Main]: Plugin output displayname: "qm-keydetector:2" "Key Detector"
Debug [Main]: Plugin output displayname: "qm-keydetector:3" "Key Detector"
Debug [Main]: Plugin output displayname: "qm-tempotracker:0" "Tempo and Beat Tracker"
Debug [Main]: Plugin output displayname: "qm-tempotracker:1" "Tempo and Beat Tracker"
Debug [Main]: Plugin output displayname: "qm-tempotracker:2" "Tempo and Beat Tracker"
Debug [Main]: DlgPrefKey::loadSettings
Debug [Main]: Key plugin ID: "qm-keydetector:2"
Debug [Main]: LegacySkinParser loading skin: "C:/Program Files/Mixxx/skins/Deere"
Debug [Main]: "Error: Unable to import console: no such extension"
Debug [Main]: "Error: Unable to import svg: no such extension"
Debug [Main]: Skin is a >=1.12.0 style skin.
Debug [Main]: WSpinny(): Created QGLWidget, Context Valid: true Sharing: true
Debug [Main]: WSpinny(): Created QGLWidget, Context Valid: true Sharing: true
Debug [Main]: Created QGLWidget. Context Valid: true Sharing: true
Debug [Main]: GLWaveformRendererSignalShader::loadShaders
Debug [Main]: WaveformWidgetFactory::setWaveformWidget - waveform widget added in factory, index 0
Debug [Main]: WSpinny(): Created QGLWidget, Context Valid: true Sharing: true
Debug [Main]: WSpinny(): Created QGLWidget, Context Valid: true Sharing: true
Debug [Main]: Created QGLWidget. Context Valid: true Sharing: true
Debug [Main]: GLWaveformRendererSignalShader::loadShaders
Debug [Main]: WaveformWidgetFactory::setWaveformWidget - waveform widget added in factory, index 1
Debug [Main]: WSpinny(): Created QGLWidget, Context Valid: true Sharing: true
Debug [Main]: WSpinny(): Created QGLWidget, Context Valid: true Sharing: true
Debug [Main]: Created QGLWidget. Context Valid: true Sharing: true
Debug [Main]: GLWaveformRendererSignalShader::loadShaders
Debug [Main]: WaveformWidgetFactory::setWaveformWidget - waveform widget added in factory, index 2
Debug [Main]: WSpinny(): Created QGLWidget, Context Valid: true Sharing: true
Debug [Main]: WSpinny(): Created QGLWidget, Context Valid: true Sharing: true
Debug [Main]: Created QGLWidget. Context Valid: true Sharing: true
Debug [Main]: GLWaveformRendererSignalShader::loadShaders
Debug [Main]: WaveformWidgetFactory::setWaveformWidget - waveform widget added in factory, index 3
Debug [Controller]: Extension .midi.xml total 120 presets
Debug [Controller]: Extension .hid.xml total 32 presets
Debug [Controller]: Extension .bulk.xml total 1 presets
Debug [Main]: WSearchLineEdit - Background color: QColor(ARGB 1, 1, 1, 1)
Debug [Main]: WSearchLineEdit - Foreground color: QColor(ARGB 1, 0, 0, 0)
Debug [Main]: WTrackTableView::loadTrackModel() HiddenTableModel(0x1b2a93eccf0)
Debug [Main]: WTrackTableView::loadTrackModel() MissingTableModel(0x1b2a93ec970)
Debug [Main]: WTrackTableView::loadTrackModel() PlaylistTableModel(0x1b2b681e3d0)
Debug [Main]: Recordings folder set to "C:/Program Files/Mixxx"
Debug [Main]: WTrackTableView::loadTrackModel() QSortFilterProxyModel(0x1b2cd292628)
Debug [BrowseThread]: Append last  0
Debug [Main]: WTrackTableView::loadTrackModel() AnalysisLibraryTableModel(0x1b2a93ec5f0)
Debug [Main]: BaseTrackCache(0x1b2b3b67480) updateIndexWithQuery took 65 ms
Debug [Main]: AnalysisLibraryTableModel(0x1b2a93ec5f0) select() took 136 ms 0
Debug [Main]: AnalysisLibraryTableModel(0x1b2a93ec5f0) select() took 34 ms 0
Debug [Main]: DlgAnalysis(0x1b2cd02e650, name="DlgAnalysis") analysisActive false
Warning [Main]: src\skin\legacyskinparser.cpp:2110 SKIN ERROR at skin:tool_bar.xml:344 <Connection>: LegacySkinParser::setupConnections(): EmitOnPressAndRelease must not set false
Warning [Main]: src\skin\legacyskinparser.cpp:2110 SKIN ERROR at skin:skin_settings.xml:40 <Connection>: LegacySkinParser::setupConnections(): EmitOnPressAndRelease must not set false
Debug [Main]: MixxxLibraryFeature::activate()
Debug [Main]: WTrackTableView::loadTrackModel() LibraryTableModel(0x1b2b3bac720)
Debug [Main]: LibraryTableModel(0x1b2b3bac720) select() took 58 ms 10574
Debug [Main]: trying to restore position
Debug [Controller]: ControllerManager: Setting up devices
Debug [Controller]: Scanning PortMIDI devices:
Debug [Controller]:  Found output device # 0 Microsoft MIDI Mapper
Debug [Controller]:  Found output device # 6 Microsoft GS Wavetable Synth
Debug [Controller]:  Found output device # 7 APC MINI
Debug [Controller]:  Found output device # 8 Arturia BeatStep
Debug [Controller]:  Found output device # 9 USB Device
Debug [Controller]:  Found output device # 10 APC MINI
Debug [Controller]:  Found output device # 11 APC Key 25
Debug [Controller]:  Found input device # 1 APC MINI
Debug [Controller]:     Linking to output device # 7 "APC MINI"
Debug [Controller]:  Found input device # 2 Arturia BeatStep
Debug [Controller]:     Linking to output device # 8 "Arturia BeatStep"
Debug [Controller]:  Found input device # 3 USB Device
Debug [Controller]:     Linking to output device # 9 "USB Device"
Debug [Controller]:  Found input device # 4 APC MINI
Debug [Controller]:     Linking to output device # 10 "APC MINI"
Debug [Controller]:  Found input device # 5 APC Key 25
Debug [Controller]:     Linking to output device # 11 "APC Key 25"
Debug [Controller]: Scanning HSS1394 devices:
Debug [Controller]:    Nodes detected: 0
Debug [Controller]: Scanning HID devices:
Debug [Main]: BaseTrackPlayerImpl::slotLoadTrack "[Sampler1]"
Debug [Main]: BaseTrackPlayerImpl::slotLoadTrack "[Sampler2]"
Debug [Main]: BaseTrackPlayerImpl::slotLoadTrack "[Sampler3]"
Debug [Main]: BaseTrackPlayerImpl::slotLoadTrack "[Sampler4]"
Debug [Main]: BaseTrackPlayerImpl::slotLoadTrack "[Sampler5]"
Debug [Main]: BaseTrackPlayerImpl::slotLoadTrack "[Sampler6]"
Debug [Main]: BaseTrackPlayerImpl::slotLoadTrack "[Sampler7]"
Debug [Main]: BaseTrackPlayerImpl::slotLoadTrack "[Sampler8]"
Debug [Main]: BaseTrackPlayerImpl::slotLoadTrack "[Sampler9]"
Debug [Main]: BaseTrackPlayerImpl::slotLoadTrack "[Sampler10]"
Debug [Main]: BaseTrackPlayerImpl::slotLoadTrack "[Sampler11]"
Debug [Main]: BaseTrackPlayerImpl::slotLoadTrack "[Sampler12]"
Debug [Main]: BaseTrackPlayerImpl::slotLoadTrack "[Sampler13]"
Debug [Main]: BaseTrackPlayerImpl::slotLoadTrack "[Sampler14]"
Debug [Main]: BaseTrackPlayerImpl::slotLoadTrack "[Sampler15]"
Debug [Main]: BaseTrackPlayerImpl::slotLoadTrack "[Sampler16]"
Debug [Main]: BaseTrackPlayerImpl::slotLoadTrack "[Sampler17]"
Debug [Main]: BaseTrackPlayerImpl::slotLoadTrack "[Sampler18]"
Debug [Controller]: Found "RODE Microphones" "ROD" "r256" S/N "" "Interface 3"
Debug [Controller]: Found "Logitech" "USB Receiver" "r4617" S/N "" "Interface 1"
Debug [Controller]: Found "Logitech" "USB Receiver" "r4617" S/N "" "Interface 1"
Debug [Controller]: Found "Logitech" "USB Receiver" "r4617" S/N "" "Interface 2"
Debug [Controller]: Found "Logitech" "USB Receiver" "r4617" S/N "" "Interface 1"
Debug [Controller]: Found "Logitech" "USB Receiver" "r4617" S/N "" "Interface 1"
Debug [Controller]: Found "Logitech" "USB Receiver" "r4625" S/N "" "Interface 1"
Debug [Controller]: Found "Logitech" "USB Optical Mouse" "r29184" S/N "" "Usage Page 1 Usage 2"
Debug [Controller]: Found "" "USB PnP Audio Device" "r256" S/N "" "Interface 3"
Debug [Controller]: Found "Logitech" "USB Receiver" "r4625" S/N "" "Interface 1"
Debug [Controller]: Found "Wacom Co.,Ltd." "Intuos BT M" "r273" S/N "8CH00U2016855" "Usage Page 65293 Usage 1"
Debug [Controller]: Found "Logitech" "USB Receiver" "r4625" S/N "" "Interface 1"
Debug [Controller]: Found "Logitech" "USB Receiver" "r4625" S/N "" "Interface 2"
Debug [Controller]: Found "Logitech" "USB Receiver" "r4625" S/N "" "Interface 2"
Debug [Controller]: Found "Logitech" "USB Receiver" "r4625" S/N "" "Interface 2"
Debug [Controller]: Found "Logitech" "USB Receiver" "r4617" S/N "" "Interface 0"
Debug [Controller]: Found "Logitech" "USB Receiver" "r4617" S/N "" "Interface 2"
Debug [Controller]: Found "Logitech" "USB Receiver" "r4625" S/N "" "Interface 0"
Debug [Controller]: Found "RODE Microphones" "RODE NT-USB" "r256" S/N "" "Interface 3"
Debug [Controller]: Found "Logitech" "USB Receiver" "r4625" S/N "" "Interface 1"
Debug [Controller]: Found "Logitech" "USB Receiver" "r4617" S/N "" "Interface 2"
Debug [Controller]: ControllerManager::getControllerList
Debug [Controller]: Searching for controller preset "APC_MINI.midi.xml" in paths: "C:/Users/marc/AppData/Local/Mixxx/controllers/,C:/Program Files/Mixxx/controllers/"
Debug [Controller]: Loading controller preset from "C:/Users/marc/AppData/Local/Mixxx/controllers/APC_MINI.midi.xml"
Debug [Controller]: MidiControllerPresetFileHandler: Input mapping parsing complete.
Debug [Controller]: MidiPresetFileHandler: Output mapping parsing complete.
Debug [Controller]: Searching for controller preset "Arturia_BeatStep.midi.xml" in paths: "C:/Users/marc/AppData/Local/Mixxx/controllers/,C:/Program Files/Mixxx/controllers/"
Debug [Controller]: Loading controller preset from "C:/Users/marc/AppData/Local/Mixxx/controllers/Arturia_BeatStep.midi.xml"
Debug [Controller]: MidiControllerPresetFileHandler: Input mapping parsing complete.
Debug [Controller]: MidiPresetFileHandler: Output mapping parsing complete.
Debug [Controller]: Searching for controller preset "USB_Device.midi.xml" in paths: "C:/Users/marc/AppData/Local/Mixxx/controllers/,C:/Program Files/Mixxx/controllers/"
Debug [Controller]: Loading controller preset from "C:/Users/marc/AppData/Local/Mixxx/controllers/USB_Device.midi.xml"
Debug [Controller]: MidiControllerPresetFileHandler: Input mapping parsing complete.
Debug [Controller]: MidiPresetFileHandler: Output mapping parsing complete.
Debug [Controller]: Searching for controller preset "APC_MINI--2.midi.xml" in paths: "C:/Users/marc/AppData/Local/Mixxx/controllers/,C:/Program Files/Mixxx/controllers/"
Debug [Controller]: Loading controller preset from "C:/Users/marc/AppData/Local/Mixxx/controllers/APC_MINI--2.midi.xml"
Debug [Controller]: MidiControllerPresetFileHandler: Input mapping parsing complete.
Debug [Controller]: MidiPresetFileHandler: Output mapping parsing complete.
Debug [Controller]: Searching for controller preset "APC_Key_25.midi.xml" in paths: "C:/Users/marc/AppData/Local/Mixxx/controllers/,C:/Program Files/Mixxx/controllers/"
Debug [Controller]: Loading controller preset from "C:/Users/marc/AppData/Local/Mixxx/controllers/APC_Key_25.midi.xml"
Debug [Controller]: MidiControllerPresetFileHandler: Input mapping parsing complete.
Debug [Controller]: MidiPresetFileHandler: Output mapping parsing complete.
Debug [Controller]: Searching for controller preset "ROD__3.hid.xml" in paths: "C:/Users/marc/AppData/Local/Mixxx/controllers/,C:/Program Files/Mixxx/controllers/"
Debug [Controller]: Could not find "ROD__3.hid.xml" in any preset path.
Debug [Controller]: Searching for controller preset "USB_Receiver__1.hid.xml" in paths: "C:/Users/marc/AppData/Local/Mixxx/controllers/,C:/Program Files/Mixxx/controllers/"
Debug [Controller]: Loading controller preset from "C:/Users/marc/AppData/Local/Mixxx/controllers/USB_Receiver__1.hid.xml"
Debug [Controller]: Searching for controller preset "USB_Receiver__1--2.hid.xml" in paths: "C:/Users/marc/AppData/Local/Mixxx/controllers/,C:/Program Files/Mixxx/controllers/"
Debug [Controller]: Loading controller preset from "C:/Users/marc/AppData/Local/Mixxx/controllers/USB_Receiver__1--2.hid.xml"
Debug [Controller]: Searching for controller preset "USB_Receiver__2.hid.xml" in paths: "C:/Users/marc/AppData/Local/Mixxx/controllers/,C:/Program Files/Mixxx/controllers/"
Debug [Controller]: Loading controller preset from "C:/Users/marc/AppData/Local/Mixxx/controllers/USB_Receiver__2.hid.xml"
Debug [Controller]: Searching for controller preset "USB_Receiver__1--3.hid.xml" in paths: "C:/Users/marc/AppData/Local/Mixxx/controllers/,C:/Program Files/Mixxx/controllers/"
Debug [Controller]: Loading controller preset from "C:/Users/marc/AppData/Local/Mixxx/controllers/USB_Receiver__1--3.hid.xml"
Debug [Controller]: Searching for controller preset "USB_Receiver__1--4.hid.xml" in paths: "C:/Users/marc/AppData/Local/Mixxx/controllers/,C:/Program Files/Mixxx/controllers/"
Debug [Controller]: Loading controller preset from "C:/Users/marc/AppData/Local/Mixxx/controllers/USB_Receiver__1--4.hid.xml"
Debug [Controller]: Searching for controller preset "USB_Receiver__1--5.hid.xml" in paths: "C:/Users/marc/AppData/Local/Mixxx/controllers/,C:/Program Files/Mixxx/controllers/"
Debug [Controller]: Loading controller preset from "C:/Users/marc/AppData/Local/Mixxx/controllers/USB_Receiver__1--5.hid.xml"
Debug [Main]: BaseTrackPlayerImpl::slotLoadTrack "[Sampler19]"
Debug [Controller]: Searching for controller preset "USB_Optical_Mouse_.hid.xml" in paths: "C:/Users/marc/AppData/Local/Mixxx/controllers/,C:/Program Files/Mixxx/controllers/"
Debug [Controller]: Loading controller preset from "C:/Users/marc/AppData/Local/Mixxx/controllers/USB_Optical_Mouse_.hid.xml"
Debug [Controller]: Searching for controller preset "USB_PnP_Audio_Device__3.hid.xml" in paths: "C:/Users/marc/AppData/Local/Mixxx/controllers/,C:/Program Files/Mixxx/controllers/"
Debug [Controller]: Loading controller preset from "C:/Users/marc/AppData/Local/Mixxx/controllers/USB_PnP_Audio_Device__3.hid.xml"
Debug [Controller]: Searching for controller preset "USB_Receiver__1--6.hid.xml" in paths: "C:/Users/marc/AppData/Local/Mixxx/controllers/,C:/Program Files/Mixxx/controllers/"
Debug [Controller]: Loading controller preset from "C:/Users/marc/AppData/Local/Mixxx/controllers/USB_Receiver__1--6.hid.xml"
Debug [Controller]: Searching for controller preset "Intuos_BT_M_6855.hid.xml" in paths: "C:/Users/marc/AppData/Local/Mixxx/controllers/,C:/Program Files/Mixxx/controllers/"
Debug [Controller]: Loading controller preset from "C:/Users/marc/AppData/Local/Mixxx/controllers/Intuos_BT_M_6855.hid.xml"
Debug [Controller]: Searching for controller preset "USB_Receiver__1--7.hid.xml" in paths: "C:/Users/marc/AppData/Local/Mixxx/controllers/,C:/Program Files/Mixxx/controllers/"
Debug [Controller]: Loading controller preset from "C:/Users/marc/AppData/Local/Mixxx/controllers/USB_Receiver__1--7.hid.xml"
Debug [Controller]: Searching for controller preset "USB_Receiver__2--2.hid.xml" in paths: "C:/Users/marc/AppData/Local/Mixxx/controllers/,C:/Program Files/Mixxx/controllers/"
Debug [Controller]: Loading controller preset from "C:/Users/marc/AppData/Local/Mixxx/controllers/USB_Receiver__2--2.hid.xml"
Debug [Controller]: Searching for controller preset "USB_Receiver__2--3.hid.xml" in paths: "C:/Users/marc/AppData/Local/Mixxx/controllers/,C:/Program Files/Mixxx/controllers/"
Debug [Controller]: Loading controller preset from "C:/Users/marc/AppData/Local/Mixxx/controllers/USB_Receiver__2--3.hid.xml"
Debug [Controller]: Searching for controller preset "USB_Receiver__2--4.hid.xml" in paths: "C:/Users/marc/AppData/Local/Mixxx/controllers/,C:/Program Files/Mixxx/controllers/"
Debug [Controller]: Loading controller preset from "C:/Users/marc/AppData/Local/Mixxx/controllers/USB_Receiver__2--4.hid.xml"
Debug [Controller]: Searching for controller preset "USB_Receiver__0.hid.xml" in paths: "C:/Users/marc/AppData/Local/Mixxx/controllers/,C:/Program Files/Mixxx/controllers/"
Debug [Controller]: Loading controller preset from "C:/Users/marc/AppData/Local/Mixxx/controllers/USB_Receiver__0.hid.xml"
Debug [Controller]: Searching for controller preset "USB_Receiver__2--5.hid.xml" in paths: "C:/Users/marc/AppData/Local/Mixxx/controllers/,C:/Program Files/Mixxx/controllers/"
Debug [Controller]: Loading controller preset from "C:/Users/marc/AppData/Local/Mixxx/controllers/USB_Receiver__2--5.hid.xml"
Debug [Controller]: Searching for controller preset "USB_Receiver__0--2.hid.xml" in paths: "C:/Users/marc/AppData/Local/Mixxx/controllers/,C:/Program Files/Mixxx/controllers/"
Debug [Controller]: Loading controller preset from "C:/Users/marc/AppData/Local/Mixxx/controllers/USB_Receiver__0--2.hid.xml"
Debug [Controller]: Searching for controller preset "RODE_NT-USB__3.hid.xml" in paths: "C:/Users/marc/AppData/Local/Mixxx/controllers/,C:/Program Files/Mixxx/controllers/"
Debug [Controller]: Loading controller preset from "C:/Users/marc/AppData/Local/Mixxx/controllers/RODE_NT-USB__3.hid.xml"
Debug [Controller]: Searching for controller preset "USB_Receiver__1--8.hid.xml" in paths: "C:/Users/marc/AppData/Local/Mixxx/controllers/,C:/Program Files/Mixxx/controllers/"
Debug [Controller]: Loading controller preset from "C:/Users/marc/AppData/Local/Mixxx/controllers/USB_Receiver__1--8.hid.xml"
Debug [Controller]: Searching for controller preset "USB_Receiver__2--6.hid.xml" in paths: "C:/Users/marc/AppData/Local/Mixxx/controllers/,C:/Program Files/Mixxx/controllers/"
Debug [Controller]: Loading controller preset from "C:/Users/marc/AppData/Local/Mixxx/controllers/USB_Receiver__2--6.hid.xml"
Debug [Controller]: Controller polling stopped.
Debug [Main]: BaseTrackPlayerImpl::slotLoadTrack "[Sampler20]"
Debug [Main]: BaseTrackPlayerImpl::slotLoadTrack "[Sampler21]"
Debug [Main]: BaseTrackPlayerImpl::slotLoadTrack "[Sampler22]"
Debug [Main]: BaseTrackPlayerImpl::slotLoadTrack "[Sampler23]"
Debug [Main]: BaseTrackPlayerImpl::slotLoadTrack "[Sampler24]"
Debug [Main]: BaseTrackPlayerImpl::slotLoadTrack "[Sampler25]"
Debug [Main]: BaseTrackPlayerImpl::slotLoadTrack "[Sampler26]"
Debug [Main]: BaseTrackPlayerImpl::slotLoadTrack "[Sampler27]"
Debug [Main]: BaseTrackPlayerImpl::slotLoadTrack "[Sampler28]"
Debug [Main]: BaseTrackPlayerImpl::slotLoadTrack "[Sampler29]"
Debug [Main]: BaseTrackPlayerImpl::slotLoadTrack "[Sampler30]"
Debug [Main]: BaseTrackPlayerImpl::slotLoadTrack "[Sampler31]"
Debug [Main]: BaseTrackPlayerImpl::slotLoadTrack "[Sampler32]"
Debug [Main]: BaseTrackPlayerImpl::slotLoadTrack "[Sampler33]"
Debug [Main]: BaseTrackPlayerImpl::slotLoadTrack "[Sampler34]"
Debug [Main]: BaseTrackPlayerImpl::slotLoadTrack "[Sampler35]"
Debug [Main]: BaseTrackPlayerImpl::slotLoadTrack "[Sampler36]"
Debug [Main]: BaseTrackPlayerImpl::slotLoadTrack "[Sampler37]"
Debug [Main]: BaseTrackPlayerImpl::slotLoadTrack "[Sampler38]"
Debug [Main]: BaseTrackPlayerImpl::slotLoadTrack "[Sampler39]"
Debug [Main]: BaseTrackPlayerImpl::slotLoadTrack "[Sampler40]"
Debug [Main]: BaseTrackPlayerImpl::slotLoadTrack "[Sampler41]"
Debug [Main]: BaseTrackPlayerImpl::slotLoadTrack "[Sampler42]"
Debug [Main]: BaseTrackPlayerImpl::slotLoadTrack "[Sampler43]"
Debug [Main]: BaseTrackPlayerImpl::slotLoadTrack "[Sampler44]"
Debug [Main]: BaseTrackPlayerImpl::slotLoadTrack "[Sampler45]"
Debug [Main]: BaseTrackPlayerImpl::slotLoadTrack "[Sampler46]"
Debug [Main]: BaseTrackPlayerImpl::slotLoadTrack "[Sampler47]"
Debug [Main]: BaseTrackPlayerImpl::slotLoadTrack "[Sampler48]"
Debug [Main]: BaseTrackPlayerImpl::slotLoadTrack "[Sampler49]"
Debug [Main]: BaseTrackPlayerImpl::slotLoadTrack "[Sampler50]"
Debug [Main]: BaseTrackPlayerImpl::slotLoadTrack "[Sampler51]"
Debug [Main]: BaseTrackPlayerImpl::slotLoadTrack "[Sampler52]"
Debug [Main]: BaseTrackPlayerImpl::slotLoadTrack "[Sampler53]"
Debug [Main]: BaseTrackPlayerImpl::slotLoadTrack "[Sampler54]"
Debug [Main]: BaseTrackPlayerImpl::slotLoadTrack "[Sampler55]"
Debug [Main]: BaseTrackPlayerImpl::slotLoadTrack "[Sampler56]"
Debug [Main]: BaseTrackPlayerImpl::slotLoadTrack "[Sampler57]"
Debug [Main]: BaseTrackPlayerImpl::slotLoadTrack "[Sampler58]"
Debug [Main]: BaseTrackPlayerImpl::slotLoadTrack "[Sampler59]"
Debug [Main]: BaseTrackPlayerImpl::slotLoadTrack "[Sampler60]"
Debug [Main]: BaseTrackPlayerImpl::slotLoadTrack "[Sampler61]"
Debug [Main]: BaseTrackPlayerImpl::slotLoadTrack "[Sampler62]"
Debug [Main]: BaseTrackPlayerImpl::slotLoadTrack "[Sampler63]"
Debug [Main]: BaseTrackPlayerImpl::slotLoadTrack "[Sampler64]"
Debug [Main]: SoundManager::setupDevices()
Debug [Main]: SoundDevicePortAudio::open() "SoundDeviceId(CABLE-B Input (VB-Audio Cable B, \u001B)"
Debug [Main]: framesPerBuffer: 2048
Debug [Main]: Requested sample rate:  48000 Hz, latency: 42.6667 ms
Debug [Main]: Output channels: 2 | Input channels: 0
Debug [Main]: Opening stream with id 27
Debug [Main]: Opened PortAudio stream successfully... starting
Debug [Main]: PortAudio: Started stream successfully
Debug [Main]:    Actual sample rate:  48000 Hz, latency: 42.6667 ms
Debug [Main]: Compressor attack per frame:  0.000375 decay per frame:  3.75e-05
Debug [Main]: SoundDeviceNetwork - open: "Network stream"
Debug [Main]: framesPerBuffer: 2048
Debug [Main]: Requested sample rate:  48000 Hz, latency: 42666666 ns
Debug [Main]: Using "CABLE-B Input (VB-Audio Cable B" as output sound device clock reference
Debug [Main]: 2 output sound devices opened
Debug [Main]: 0 input sound devices opened
Debug [Main]: Displaying main window
Debug [Main]: Running Mixxx
Debug [Main]: ControllerManager::getControllerList
Debug [Main]: Setting input delegate for column 0 QStyledItemDelegate(0x1b2f6e42d30)
Debug [Main]: Setting input delegate for column 1 QStyledItemDelegate(0x1b2f6e43010)
Debug [Main]: Setting input delegate for column 2 QStyledItemDelegate(0x1b2f6e42e30)
Debug [Main]: Setting input delegate for column 3 MidiOptionsDelegate(0x1b2f6e42f10)
Debug []: SSE: Enabling denormals to zero mode
Debug []: SSE: Enabling flush to zero mode
Debug []: Denormals to zero mode is working
Debug [Main]: Setting input delegate for column 4 ControlDelegate(0x1b2f67245b0)
Debug [Main]: Setting output delegate for column 0 QStyledItemDelegate(0x1b2fa352880)
Debug [Main]: Setting output delegate for column 1 QStyledItemDelegate(0x1b2fa3524e0)
Debug [Main]: Setting output delegate for column 2 QStyledItemDelegate(0x1b2fa352180)
Debug [Main]: Setting output delegate for column 3 QStyledItemDelegate(0x1b2fa3528a0)
Debug [Main]: Setting output delegate for column 4 QStyledItemDelegate(0x1b2fa3522e0)
Debug [Main]: Setting output delegate for column 5 ControlDelegate(0x1b2fa3bda60)
Debug [Main]: Setting input delegate for column 0 QStyledItemDelegate(0x1b2fce0aa70)
Debug [Main]: Setting input delegate for column 1 QStyledItemDelegate(0x1b2fce0a9d0)
Debug [Main]: Setting input delegate for column 2 QStyledItemDelegate(0x1b2fce0ae50)
Debug [Main]: Setting input delegate for column 3 MidiOptionsDelegate(0x1b2fce0b070)
Debug [Main]: Setting input delegate for column 4 ControlDelegate(0x1b2fce1d140)
Debug [Main]: Setting output delegate for column 0 QStyledItemDelegate(0x1b2ff6d49c0)
Debug [Main]: Setting output delegate for column 1 QStyledItemDelegate(0x1b2ff6d49e0)
Debug [Main]: Setting output delegate for column 2 QStyledItemDelegate(0x1b2ff6d4b40)
Debug [Main]: Setting output delegate for column 3 QStyledItemDelegate(0x1b2ff6d4c20)
Debug [Main]: Setting output delegate for column 4 QStyledItemDelegate(0x1b2ff6d4d60)
Debug [Main]: Setting output delegate for column 5 ControlDelegate(0x1b2ff6ea070)
Debug [Main]: Setting input delegate for column 0 QStyledItemDelegate(0x1b2828c8720)
Debug [Main]: Setting input delegate for column 1 QStyledItemDelegate(0x1b2828c8320)
Debug [Main]: Setting input delegate for column 2 QStyledItemDelegate(0x1b2828c88c0)
Debug [Main]: Setting input delegate for column 3 MidiOptionsDelegate(0x1b2828c83c0)
Debug [Main]: Setting input delegate for column 4 ControlDelegate(0x1b282957800)
Debug [Main]: Setting output delegate for column 0 QStyledItemDelegate(0x1b2852ad3f0)
Debug [Main]: Setting output delegate for column 1 QStyledItemDelegate(0x1b2852ad890)
Debug [Main]: Setting output delegate for column 2 QStyledItemDelegate(0x1b2852ad8f0)
Debug [Main]: Setting output delegate for column 3 QStyledItemDelegate(0x1b2852ad170)
Debug [Main]: Setting output delegate for column 4 QStyledItemDelegate(0x1b2852ad1f0)
Debug [Main]: Setting output delegate for column 5 ControlDelegate(0x1b285263e30)
Debug [Main]: Setting input delegate for column 0 QStyledItemDelegate(0x1b287baee50)
Debug [Main]: Setting input delegate for column 1 QStyledItemDelegate(0x1b287baf870)
Debug [Main]: Setting input delegate for column 2 QStyledItemDelegate(0x1b287baf370)
Debug [Main]: Setting input delegate for column 3 MidiOptionsDelegate(0x1b287baf6b0)
Debug [Main]: Setting input delegate for column 4 ControlDelegate(0x1b287c77170)
Debug [Main]: Setting output delegate for column 0 QStyledItemDelegate(0x1b28a5b7c00)
Debug [Main]: Setting output delegate for column 1 QStyledItemDelegate(0x1b28a5b7e20)
Debug [Main]: Setting output delegate for column 2 QStyledItemDelegate(0x1b28a5b7da0)
Debug [Main]: Setting output delegate for column 3 QStyledItemDelegate(0x1b28a5b7d80)
Debug [Main]: Setting output delegate for column 4 QStyledItemDelegate(0x1b28a5b7c80)
Debug [Main]: Setting output delegate for column 5 ControlDelegate(0x1b28a5cb510)
Debug [Main]: Setting input delegate for column 0 QStyledItemDelegate(0x1b281f84c50)
Debug [Main]: Setting input delegate for column 1 QStyledItemDelegate(0x1b281f84d90)
Debug [Main]: Setting input delegate for column 2 QStyledItemDelegate(0x1b281f84f10)
Debug [Main]: Setting input delegate for column 3 MidiOptionsDelegate(0x1b281f84b30)
Debug [Main]: Setting input delegate for column 4 ControlDelegate(0x1b28d0884f0)
Debug [Main]: Setting output delegate for column 0 QStyledItemDelegate(0x1b28f9defb0)
Debug [Main]: Setting output delegate for column 1 QStyledItemDelegate(0x1b28f9deff0)
Debug [Main]: Setting output delegate for column 2 QStyledItemDelegate(0x1b28f9de990)
Debug [Main]: Setting output delegate for column 3 QStyledItemDelegate(0x1b28f9decd0)
Debug [Main]: Setting output delegate for column 4 QStyledItemDelegate(0x1b28f9dead0)
Debug [Main]: Setting output delegate for column 5 ControlDelegate(0x1b28f995d10)
Debug [Main]: QGLFramebufferObject: Framebuffer incomplete attachment.
Debug [Main]: QGLFramebufferObject: Framebuffer incomplete attachment.
Warning [Main]: GLSLWaveformRendererSignal::createFrameBuffer - frame buffer not valid
Debug [Main]: screensaver uninhibited
Debug [Main]: Destroying MixxxMainWindow
Debug [Main]: 0 ms saving configuration
Debug [Main]: 14 ms deleting skin
Debug [Main]: ~DlgAutoDJ()
Debug [Main]: 508 ms deleting menubar
Debug [Main]: 510 ms deleting SoundManager
Debug [Main]: 568 ms deleting ControllerManager
Debug [Controller]: Controller polling stopped.
Debug [Controller]: Deleting PortMIDI devices...
Debug [Controller]: Deleting HSS1394 devices...
Debug [Controller]: Deleting HID devices...
Debug [Main]: 638 ms deleting VinylControlManager
Debug [Main]: ~CoverArtCache()
Debug [Main]: 639 ms deleting PlayerManager
Debug [AnalyzerQueue 1]: AnalyzerQueue - Exiting thread
Debug [Main]: AnalyzerWaveform - ~AnalyzerWaveform():
Debug [Main]: 686169100 ns deactivating GlobalTrackCache
Debug [Main]: 686 ms deleting Library
Debug [Main]: Wait to finish browser background thread
Debug [Main]: Browser background thread terminated!
Debug [Main]: Committing transaction on "MIXXX-1" result: true
Debug [Main]: PlaylistDAO::getHiddenType returns PLHT_UNKNOWN for playlistId  38
Info [Main]: Library - Disconnecting database
Debug [Main]: TrackDAO::finish()
Debug [Main]: Clearing played information for this session
Debug [Main]: Cleaning LibraryHashes/track_locations tables.
Debug [Main]: ~TrackDAO()
Debug [LibraryScanner 1]: LibraryScanner - Event loop stopped
Warning [LibraryScanner 1]: QSqlDatabasePrivate::removeDatabase: connection 'MIXXX-2' is still in use, all queries will cease to work.
Debug [LibraryScanner 1]: LibraryScanner - Exiting thread
Debug [Main]: ~TrackDAO()
Debug [Main]: 772 ms closing database connection(s)
Debug [Main]: 774 ms deleting RecordingManager
Debug [Main]: Delete RecordingManager
Debug [Main]: 774 ms deleting BroadcastManager
Debug [Main]: DlgPrefBroadcast - broadcastEnabledChanged() 0
Debug [Main]: 774 ms deleting EngineMaster
Debug [Main]: in ~EngineMaster()
Debug [Main]: 1021 ms deleting DlgPreferences
Debug [Main]: 1064 ms deleting EffectsManager
Debug [Main]: 1129 ms deleting SettingsManager
Debug [Main]: Mixxx shutdown complete with code 0
