Info [Main]: SoundSourceProxy - Loading SoundSource plugins "C:/Program Files/Mixxx/plugins/soundsource"
Info [Main]: SoundSourcePluginLibrary - Dynamically loaded plugin library "C:/Program Files/Mixxx/plugins/soundsource/soundsourcemediafoundation.dll"
Warning [Main]: SoundSourcePluginLibrary - Failed to dynamically load plugin library "C:/Program Files/Mixxx/plugins/soundsource/soundsourcemediafoundation.exp" : "Cannot load library C:\\Program Files\\Mixxx\\plugins\\soundsource\\soundsourcemediafoundation.exp: Unknown error 0x000000c1."
Warning [Main]: SoundSourceProxy - Failed to load SoundSource plugin "C:/Program Files/Mixxx/plugins/soundsource/soundsourcemediafoundation.exp"
Warning [Main]: SoundSourcePluginLibrary - Failed to dynamically load plugin library "C:/Program Files/Mixxx/plugins/soundsource/soundsourcemediafoundation.lib" : "Cannot load library C:\\Program Files\\Mixxx\\plugins\\soundsource\\soundsourcemediafoundation.lib: Unknown error 0x000000c1."
Warning [Main]: SoundSourceProxy - Failed to load SoundSource plugin "C:/Program Files/Mixxx/plugins/soundsource/soundsourcemediafoundation.lib"
Warning [Main]: SoundSourcePluginLibrary - Failed to dynamically load plugin library "C:/Program Files/Mixxx/plugins/soundsource/soundsourcemediafoundation.pdb" : "Cannot load library C:\\Program Files\\Mixxx\\plugins\\soundsource\\soundsourcemediafoundation.pdb: Unknown error 0x000000c1."
Warning [Main]: SoundSourceProxy - Failed to load SoundSource plugin "C:/Program Files/Mixxx/plugins/soundsource/soundsourcemediafoundation.pdb"
Debug [Main]: "Mixxx" "2.2.4" "(git 2.2 r6798; built on: Jun 25 2020 @ 17:03:13; flags: asan=0 asmlib=0 battery=1 buildtime=1 bulk=0 color=0 coreaudio=0 faad=0 ffmpeg=0 hid=1 hss1394=1 ipod=0 lilv=0 localecompare=1 macappstore=0 mad=1 mediafoundation=1 modplug=0 opengles=0 optimize=portable opus=1 perftools=0 perftools_profiler=0 profiling=0 qt_sqlite_plugin=0 qtkeychain=0 shoutcast=1 test=1 tsan=0 ubsan=0 vamp=1 verbose=0 vinylcontrol=1 wv=0)" is starting...
Debug [Main]: Compile time library versions:
Debug [Main]: Qt: 5.11.1
Debug [Main]: libshout: 2.4.1
Debug [Main]: PortAudio: 1246720 PortAudio V19.6.0-devel, revision 396fe4b6699ae929d3a685b3ef8a7e97396139a4
Debug [Main]: RubberBand: 1.8.1
Debug [Main]: SoundTouch: 2.0.0
Debug [Main]: TagLib: 1.11.1
Debug [Main]: ChromaPrint: 1.3.1
Debug [Main]: Vorbis: Xiph.Org libVorbis 1.3.5
Debug [Main]: libsndfile: libsndfile-1.0.26
Debug [Main]: FLAC: 1.3.1
Debug [Main]: QDesktopServices::storageLocation(HomeLocation): "C:/Users/marc"
Debug [Main]: QDesktopServices::storageLocation(DataLocation): "C:/Users/marc/AppData/Local/Mixxx"
Debug [Main]: QCoreApplication::applicationDirPath() "C:/Program Files/Mixxx"
Debug [Main]: Loading resources from  "C:/Program Files/Mixxx/"
Debug [Main]: Configuration file is at the current version 2.2.4
Info [Main]: BroadcastSettings - Found 1 profile(s)
Debug [Main]: Loading resources from  "C:/Program Files/Mixxx/"
Debug [Main]: Loading resources from  "C:/Program Files/Mixxx/"
Debug [Main]: Loading translations for locale "de_CH" from translations folder "C:/Program Files/Mixxx/translations/" : success
Debug [Main]: "Error: Unable to import console: no such extension"
Debug [Main]: "Error: Unable to import svg: no such extension"
Debug [Main]: Loading resources from  "C:/Program Files/Mixxx/"
Debug [Main]: Compressor attack per frame:  0.000408163 decay per frame:  4.08163e-05
Debug [Main]: EngineNetworkStream - addWorker: worker added
Debug [Main]: EngineNetworkStream - worker slots used: "1 out of 16"
Debug [Main]: BroadcastManager - addConnection: created connection for profile "Connection 1"
Debug [Main]: WARNING: AudioInput already registered!
Debug [Main]: WARNING: AudioInput already registered!
Debug [Main]: WARNING: AudioInput already registered!
Debug [Main]: WARNING: AudioInput already registered!
Info [Main]: DbConnection - Available drivers for database connections: ("QSQLITE")
Info [Main]: DbConnectionPool - Cloned thread-local database connection "MIXXX-1" QSqlDatabase(driver="QSQLITE", database="C:/Users/marc/AppData/Local/Mixxx/mixxxdb.sqlite", host="localhost", port=-1, user="mixxx", open=true)
Info [Main]: MixxxMainWindow - Connecting to database
Info [Main]: MixxxMainWindow - Initializing or upgrading database schema
Info [Main]: SchemaManager - Database schema is up-to-date at version 28
Debug [Main]: LibraryScanner - Starting thread
Info [Main]: Library - Connecting database
Debug [LibraryScanner 1]: LibraryScanner - Entering thread
Info [LibraryScanner 1]: DbConnectionPool - Cloned thread-local database connection "MIXXX-2" QSqlDatabase(driver="QSQLITE", database="C:/Users/marc/AppData/Local/Mixxx/mixxxdb.sqlite", host="localhost", port=-1, user="mixxx", open=true)
Info [LibraryScanner 1]: LibraryScanner - Cleaning up database...
Debug [Main]: Committing transaction on "MIXXX-1" result: true
Info [LibraryScanner 1]: LibraryScanner - Finished database cleanup: 103 ms
Debug [LibraryScanner 1]: LibraryScanner - Event loop starting
Debug [Main]: CrateFeature::rebuildChildModel() -1
Debug [Main]: Default quick links: ("D:/Music.noDupes/", "C:/Users/marc/Music/", "C:/Users/marc/Downloads/", "C:/Users/marc/Desktop/", "C:/Users/marc/Documents/")
Debug [Main]: Appending Quick Link:  "Music.noDupes" --- "D:/Music.noDupes/"
Debug [Main]: Appending Quick Link:  "Music" --- "C:/Users/marc/Music/"
Debug [Main]: Appending Quick Link:  "Downloads" --- "C:/Users/marc/Downloads/"
Debug [Main]: Appending Quick Link:  "Desktop" --- "C:/Users/marc/Desktop/"
Debug [Main]: Appending Quick Link:  "Documents" --- "C:/Users/marc/Documents/"
Debug [Main]: Committing transaction on "MIXXX-1" result: true
Debug [Main]: Traktor Library Location=[ "C:/Users/marc/collection.nml" ]
Debug [Main]: Checking for access to user's library directories:
Debug [Main]: Checking for access to "D:/Music.noDupes" : true
Debug [AnalyzerQueue 1]: AnalyzerQueue - Entering thread
Info [AnalyzerQueue 1]: DbConnectionPool - Cloned thread-local database connection "MIXXX-3" QSqlDatabase(driver="QSQLITE", database="C:/Users/marc/AppData/Local/Mixxx/mixxxdb.sqlite", host="localhost", port=-1, user="mixxx", open=true)
Debug [Main]: Creating ControllerManager
Debug [Controller]: ControllerManager:slotInitialize
Debug [Main]: Set root GL Context widget valid: QGLWidget(0x1e711f85a50) true
Debug [Main]: Created root GL Context valid: 0x1e711f79920 true
Debug [Main]: Root GL Context format:
Debug [Main]: Double Buffering: true
Debug [Main]: Swap interval: 1
Debug [Main]: Depth buffer: true
Debug [Main]: Direct rendering: true
Debug [Main]: Has overlay: false
Debug [Main]: RGBA: true
Debug [Main]: Sample buffers: false
Debug [Main]: Samples: -1
Debug [Main]: Stencil buffers: true
Debug [Main]: Stereo: false
Debug [Main]: "openGLVersionFlags 0xff07f" "4.6.0 NVIDIA 456.71" "NVIDIA Corporation" "GeForce GTX 1060 6GB/PCIe/SSE2"
Debug [Main]: screensaver inhibited
Debug [Main]: ControllerManager::getControllerList
Info [Main]: VampPluginAdapter - Current VAMP_PATH is: ""
Info [Main]: VampPluginAdapter - Setting VAMP_PATH to: "C:\\Program Files\\Mixxx\\plugins\\vamp"
Debug [Main]: VampPluginLoader::listPlugins() returned 4 plugins
Debug [Main]: Plugin output displayname: "mixxxbpmdetection:0" "SoundTouch BPM Detector (Legacy)"
Debug [Main]: Plugin output displayname: "qm-barbeattracker:0" "Bar and Beat Tracker"
Debug [Main]: Plugin output displayname: "qm-barbeattracker:1" "Bar and Beat Tracker"
Debug [Main]: Plugin output displayname: "qm-barbeattracker:2" "Bar and Beat Tracker"
Debug [Main]: Plugin output displayname: "qm-barbeattracker:3" "Bar and Beat Tracker"
Debug [Main]: Plugin output displayname: "qm-keydetector:0" "Key Detector"
Debug [Main]: Plugin output displayname: "qm-keydetector:1" "Key Detector"
Debug [Main]: Plugin output displayname: "qm-keydetector:2" "Key Detector"
Debug [Main]: Plugin output displayname: "qm-keydetector:3" "Key Detector"
Debug [Main]: Plugin output displayname: "qm-tempotracker:0" "Tempo and Beat Tracker"
Debug [Main]: Plugin output displayname: "qm-tempotracker:1" "Tempo and Beat Tracker"
Debug [Main]: Plugin output displayname: "qm-tempotracker:2" "Tempo and Beat Tracker"
Debug [Main]: VampPluginLoader::listPlugins() returned 4 plugins
Debug [Main]: Plugin output displayname: "mixxxbpmdetection:0" "SoundTouch BPM Detector (Legacy)"
Debug [Main]: Plugin output displayname: "qm-barbeattracker:0" "Bar and Beat Tracker"
Debug [Main]: Plugin output displayname: "qm-barbeattracker:1" "Bar and Beat Tracker"
Debug [Main]: Plugin output displayname: "qm-barbeattracker:2" "Bar and Beat Tracker"
Debug [Main]: Plugin output displayname: "qm-barbeattracker:3" "Bar and Beat Tracker"
Debug [Main]: Plugin output displayname: "qm-keydetector:0" "Key Detector"
Debug [Main]: Plugin output displayname: "qm-keydetector:1" "Key Detector"
Debug [Main]: Plugin output displayname: "qm-keydetector:2" "Key Detector"
Debug [Main]: Plugin output displayname: "qm-keydetector:3" "Key Detector"
Debug [Main]: Plugin output displayname: "qm-tempotracker:0" "Tempo and Beat Tracker"
Debug [Main]: Plugin output displayname: "qm-tempotracker:1" "Tempo and Beat Tracker"
Debug [Main]: Plugin output displayname: "qm-tempotracker:2" "Tempo and Beat Tracker"
Debug [Main]: DlgPrefKey::loadSettings
Debug [Main]: Key plugin ID: "qm-keydetector:2"
Debug [Main]: LegacySkinParser loading skin: "C:/Program Files/Mixxx/skins/Deere"
Debug [Main]: "Error: Unable to import console: no such extension"
Debug [Main]: "Error: Unable to import svg: no such extension"
Debug [Main]: Skin is a >=1.12.0 style skin.
Debug [Main]: WSpinny(): Created QGLWidget, Context Valid: true Sharing: true
Debug [Main]: WSpinny(): Created QGLWidget, Context Valid: true Sharing: true
Debug [Main]: Created QGLWidget. Context Valid: true Sharing: true
Debug [Main]: GLWaveformRendererSignalShader::loadShaders
Debug [Main]: WaveformWidgetFactory::setWaveformWidget - waveform widget added in factory, index 0
Debug [Main]: WSpinny(): Created QGLWidget, Context Valid: true Sharing: true
Debug [Main]: WSpinny(): Created QGLWidget, Context Valid: true Sharing: true
Debug [Main]: Created QGLWidget. Context Valid: true Sharing: true
Debug [Main]: GLWaveformRendererSignalShader::loadShaders
Debug [Main]: WaveformWidgetFactory::setWaveformWidget - waveform widget added in factory, index 1
Debug [Main]: WSpinny(): Created QGLWidget, Context Valid: true Sharing: true
Debug [Main]: WSpinny(): Created QGLWidget, Context Valid: true Sharing: true
Debug [Main]: Created QGLWidget. Context Valid: true Sharing: true
Debug [Main]: GLWaveformRendererSignalShader::loadShaders
Debug [Main]: WaveformWidgetFactory::setWaveformWidget - waveform widget added in factory, index 2
Debug [Main]: WSpinny(): Created QGLWidget, Context Valid: true Sharing: true
Debug [Main]: WSpinny(): Created QGLWidget, Context Valid: true Sharing: true
Debug [Main]: Created QGLWidget. Context Valid: true Sharing: true
Debug [Main]: GLWaveformRendererSignalShader::loadShaders
Debug [Main]: WaveformWidgetFactory::setWaveformWidget - waveform widget added in factory, index 3
Debug [Main]: WSearchLineEdit - Background color: QColor(ARGB 1, 1, 1, 1)
Debug [Main]: WSearchLineEdit - Foreground color: QColor(ARGB 1, 0, 0, 0)
Debug [Main]: WTrackTableView::loadTrackModel() HiddenTableModel(0x1e720297640)
Debug [Main]: WTrackTableView::loadTrackModel() MissingTableModel(0x1e720297800)
Debug [Main]: WTrackTableView::loadTrackModel() PlaylistTableModel(0x1e70aeaede0)
Debug [Main]: Recordings folder set to "C:/Program Files/Mixxx"
Debug [Main]: WTrackTableView::loadTrackModel() QSortFilterProxyModel(0x1e728d35f48)
Debug [BrowseThread]: Append last  0
Debug [Main]: WTrackTableView::loadTrackModel() AnalysisLibraryTableModel(0x1e720298280)
Debug [Controller]: Extension .midi.xml total 120 presets
Debug [Controller]: Extension .hid.xml total 32 presets
Debug [Controller]: Extension .bulk.xml total 1 presets
Debug [Main]: BaseTrackCache(0x1e70dd66660) updateIndexWithQuery took 64 ms
Debug [Main]: AnalysisLibraryTableModel(0x1e720298280) select() took 146 ms 0
Debug [Main]: AnalysisLibraryTableModel(0x1e720298280) select() took 33 ms 0
Debug [Main]: DlgAnalysis(0x1e72b57f810, name="DlgAnalysis") analysisActive false
Warning [Main]: src\skin\legacyskinparser.cpp:2110 SKIN ERROR at skin:tool_bar.xml:344 <Connection>: LegacySkinParser::setupConnections(): EmitOnPressAndRelease must not set false
Warning [Main]: src\skin\legacyskinparser.cpp:2110 SKIN ERROR at skin:skin_settings.xml:40 <Connection>: LegacySkinParser::setupConnections(): EmitOnPressAndRelease must not set false
Debug [Main]: MixxxLibraryFeature::activate()
Debug [Main]: WTrackTableView::loadTrackModel() LibraryTableModel(0x1e70a36ae20)
Debug [Main]: LibraryTableModel(0x1e70a36ae20) select() took 53 ms 10574
Debug [Main]: trying to restore position
Debug [Controller]: ControllerManager: Setting up devices
Debug [Controller]: Scanning PortMIDI devices:
Debug [Controller]:  Found output device # 0 Microsoft MIDI Mapper
Debug [Controller]:  Found output device # 6 Microsoft GS Wavetable Synth
Debug [Controller]:  Found output device # 7 APC MINI
Debug [Controller]:  Found output device # 8 APC MINI
Debug [Controller]:  Found output device # 9 X-TOUCH MINI
Debug [Controller]:  Found output device # 10 Arturia BeatStep
Debug [Controller]:  Found output device # 11 APC Key 25
Debug [Controller]:  Found input device # 1 APC MINI
Debug [Controller]:     Linking to output device # 7 "APC MINI"
Debug [Controller]:  Found input device # 2 APC MINI
Debug [Controller]:     Linking to output device # 8 "APC MINI"
Debug [Controller]:  Found input device # 3 X-TOUCH MINI
Debug [Controller]:     Linking to output device # 9 "X-TOUCH MINI"
Debug [Controller]:  Found input device # 4 Arturia BeatStep
Debug [Controller]:     Linking to output device # 10 "Arturia BeatStep"
Debug [Controller]:  Found input device # 5 APC Key 25
Debug [Controller]:     Linking to output device # 11 "APC Key 25"
Debug [Controller]: Scanning HSS1394 devices:
Debug [Controller]:    Nodes detected: 0
Debug [Controller]: Scanning HID devices:
Debug [Main]: BaseTrackPlayerImpl::slotLoadTrack "[Sampler1]"
Debug [Main]: BaseTrackPlayerImpl::slotLoadTrack "[Sampler2]"
Debug [Main]: BaseTrackPlayerImpl::slotLoadTrack "[Sampler3]"
Debug [Main]: BaseTrackPlayerImpl::slotLoadTrack "[Sampler4]"
Debug [Main]: BaseTrackPlayerImpl::slotLoadTrack "[Sampler5]"
Debug [Main]: BaseTrackPlayerImpl::slotLoadTrack "[Sampler6]"
Debug [Main]: BaseTrackPlayerImpl::slotLoadTrack "[Sampler7]"
Debug [Main]: BaseTrackPlayerImpl::slotLoadTrack "[Sampler8]"
Debug [Main]: BaseTrackPlayerImpl::slotLoadTrack "[Sampler9]"
Debug [Main]: BaseTrackPlayerImpl::slotLoadTrack "[Sampler10]"
Debug [Main]: BaseTrackPlayerImpl::slotLoadTrack "[Sampler11]"
Debug [Main]: BaseTrackPlayerImpl::slotLoadTrack "[Sampler12]"
Debug [Main]: BaseTrackPlayerImpl::slotLoadTrack "[Sampler13]"
Debug [Main]: BaseTrackPlayerImpl::slotLoadTrack "[Sampler14]"
Debug [Main]: BaseTrackPlayerImpl::slotLoadTrack "[Sampler15]"
Debug [Main]: BaseTrackPlayerImpl::slotLoadTrack "[Sampler16]"
Debug [Main]: BaseTrackPlayerImpl::slotLoadTrack "[Sampler17]"
Debug [Main]: BaseTrackPlayerImpl::slotLoadTrack "[Sampler18]"
Debug [Controller]: Found "RODE Microphones" "RODE NT-USB" "r256" S/N "" "Interface 3"
Debug [Controller]: Found "Logitech" "USB Receiver" "r4617" S/N "" "Interface 1"
Debug [Controller]: Found "Logitech" "USB Receiver" "r4617" S/N "" "Interface 1"
Debug [Controller]: Found "Logitech" "USB Receiver" "r4617" S/N "" "Interface 2"
Debug [Controller]: Found "Logitech" "USB Receiver" "r4617" S/N "" "Interface 1"
Debug [Controller]: Found "Logitech" "USB Receiver" "r4617" S/N "" "Interface 1"
Debug [Controller]: Found "Logitech" "USB Receiver" "r4625" S/N "" "Interface 1"
Debug [Controller]: Found "Logitech" "USB Optical Mouse" "r29184" S/N "" "Usage Page 1 Usage 2"
Debug [Controller]: Found "" "USB PnP Audio Device" "r256" S/N "" "Interface 3"
Debug [Controller]: Found "Logitech" "USB Receiver" "r4625" S/N "" "Interface 1"
Debug [Controller]: Found "Wacom Co.,Ltd." "Intuos BT M" "r273" S/N "8CH00U2016855" "Usage Page 65293 Usage 1"
Debug [Controller]: Found "Logitech" "USB Receiver" "r4625" S/N "" "Interface 1"
Debug [Controller]: Found "Logitech" "USB Receiver" "r4625" S/N "" "Interface 2"
Debug [Controller]: Found "Logitech" "USB Receiver" "r4625" S/N "" "Interface 2"
Debug [Controller]: Found "Logitech" "USB Receiver" "r4625" S/N "" "Interface 2"
Debug [Controller]: Found "Logitech" "USB Receiver" "r4617" S/N "" "Interface 0"
Debug [Controller]: Found "Logitech" "USB Receiver" "r4617" S/N "" "Interface 2"
Debug [Controller]: Found "Logitech" "USB Receiver" "r4625" S/N "" "Interface 0"
Debug [Controller]: Found "RODE Mic" "RODE NT-USB" "r256" S/N "" "Interface 3"
Debug [Controller]: Found "Logitech" "USB Receiver" "r4625" S/N "" "Interface 1"
Debug [Controller]: Found "Logitech" "USB Receiver" "r4617" S/N "" "Interface 2"
Debug [Controller]: ControllerManager::getControllerList
Debug [Controller]: Searching for controller preset "APC_MINI.midi.xml" in paths: "C:/Users/marc/AppData/Local/Mixxx/controllers/,C:/Program Files/Mixxx/controllers/"
Debug [Controller]: Loading controller preset from "C:/Users/marc/AppData/Local/Mixxx/controllers/APC_MINI.midi.xml"
Debug [Controller]: MidiControllerPresetFileHandler: Input mapping parsing complete.
Debug [Controller]: MidiPresetFileHandler: Output mapping parsing complete.
Debug [Controller]: Searching for controller preset "APC_MINI--2.midi.xml" in paths: "C:/Users/marc/AppData/Local/Mixxx/controllers/,C:/Program Files/Mixxx/controllers/"
Debug [Controller]: Loading controller preset from "C:/Users/marc/AppData/Local/Mixxx/controllers/APC_MINI--2.midi.xml"
Debug [Controller]: MidiControllerPresetFileHandler: Input mapping parsing complete.
Debug [Controller]: MidiPresetFileHandler: Output mapping parsing complete.
Debug [Controller]: Searching for controller preset "X-TOUCH_MINI.midi.xml" in paths: "C:/Users/marc/AppData/Local/Mixxx/controllers/,C:/Program Files/Mixxx/controllers/"
Debug [Main]: BaseTrackPlayerImpl::slotLoadTrack "[Sampler19]"
Debug [Controller]: Loading controller preset from "C:/Users/marc/AppData/Local/Mixxx/controllers/X-TOUCH_MINI.midi.xml"
Debug [Controller]: MidiControllerPresetFileHandler: Input mapping parsing complete.
Debug [Controller]: MidiPresetFileHandler: Output mapping parsing complete.
Debug [Controller]: Opening controller: "X-TOUCH MINI"
Debug [Controller]: Controller in script engine is: "X-TOUCH MINI"
Debug [Controller]: Applying controller preset...
Debug [Controller]: ControllerEngine: Watching JS File: "C:/Program Files/Mixxx/controllers/common-controller-scripts.js"
Debug [Controller]: ControllerEngine: Loading "C:/Program Files/Mixxx/controllers/common-controller-scripts.js"
Debug [Main]: BaseTrackPlayerImpl::slotLoadTrack "[Sampler20]"
Debug [Main]: BaseTrackPlayerImpl::slotLoadTrack "[Sampler21]"
Debug [Main]: BaseTrackPlayerImpl::slotLoadTrack "[Sampler22]"
Debug [Controller]: Searching for controller preset "Arturia_BeatStep.midi.xml" in paths: "C:/Users/marc/AppData/Local/Mixxx/controllers/,C:/Program Files/Mixxx/controllers/"
Debug [Controller]: Loading controller preset from "C:/Users/marc/AppData/Local/Mixxx/controllers/Arturia_BeatStep.midi.xml"
Debug [Controller]: MidiControllerPresetFileHandler: Input mapping parsing complete.
Debug [Controller]: MidiPresetFileHandler: Output mapping parsing complete.
Debug [Controller]: Searching for controller preset "APC_Key_25.midi.xml" in paths: "C:/Users/marc/AppData/Local/Mixxx/controllers/,C:/Program Files/Mixxx/controllers/"
Debug [Controller]: Loading controller preset from "C:/Users/marc/AppData/Local/Mixxx/controllers/APC_Key_25.midi.xml"
Debug [Controller]: MidiControllerPresetFileHandler: Input mapping parsing complete.
Debug [Controller]: MidiPresetFileHandler: Output mapping parsing complete.
Debug [Controller]: Searching for controller preset "RODE_NT-USB__3.hid.xml" in paths: "C:/Users/marc/AppData/Local/Mixxx/controllers/,C:/Program Files/Mixxx/controllers/"
Debug [Controller]: Loading controller preset from "C:/Users/marc/AppData/Local/Mixxx/controllers/RODE_NT-USB__3.hid.xml"
Debug [Controller]: Searching for controller preset "USB_Receiver__1.hid.xml" in paths: "C:/Users/marc/AppData/Local/Mixxx/controllers/,C:/Program Files/Mixxx/controllers/"
Debug [Controller]: Loading controller preset from "C:/Users/marc/AppData/Local/Mixxx/controllers/USB_Receiver__1.hid.xml"
Debug [Controller]: Searching for controller preset "USB_Receiver__1--2.hid.xml" in paths: "C:/Users/marc/AppData/Local/Mixxx/controllers/,C:/Program Files/Mixxx/controllers/"
Debug [Controller]: Loading controller preset from "C:/Users/marc/AppData/Local/Mixxx/controllers/USB_Receiver__1--2.hid.xml"
Debug [Controller]: Searching for controller preset "USB_Receiver__2.hid.xml" in paths: "C:/Users/marc/AppData/Local/Mixxx/controllers/,C:/Program Files/Mixxx/controllers/"
Debug [Controller]: Loading controller preset from "C:/Users/marc/AppData/Local/Mixxx/controllers/USB_Receiver__2.hid.xml"
Debug [Controller]: Searching for controller preset "USB_Receiver__1--3.hid.xml" in paths: "C:/Users/marc/AppData/Local/Mixxx/controllers/,C:/Program Files/Mixxx/controllers/"
Debug [Controller]: Loading controller preset from "C:/Users/marc/AppData/Local/Mixxx/controllers/USB_Receiver__1--3.hid.xml"
Debug [Controller]: Searching for controller preset "USB_Receiver__1--4.hid.xml" in paths: "C:/Users/marc/AppData/Local/Mixxx/controllers/,C:/Program Files/Mixxx/controllers/"
Debug [Controller]: Loading controller preset from "C:/Users/marc/AppData/Local/Mixxx/controllers/USB_Receiver__1--4.hid.xml"
Debug [Controller]: Searching for controller preset "USB_Receiver__1--5.hid.xml" in paths: "C:/Users/marc/AppData/Local/Mixxx/controllers/,C:/Program Files/Mixxx/controllers/"
Debug [Controller]: Loading controller preset from "C:/Users/marc/AppData/Local/Mixxx/controllers/USB_Receiver__1--5.hid.xml"
Debug [Controller]: Searching for controller preset "USB_Optical_Mouse_.hid.xml" in paths: "C:/Users/marc/AppData/Local/Mixxx/controllers/,C:/Program Files/Mixxx/controllers/"
Debug [Controller]: Loading controller preset from "C:/Users/marc/AppData/Local/Mixxx/controllers/USB_Optical_Mouse_.hid.xml"
Debug [Controller]: Searching for controller preset "USB_PnP_Audio_Device__3.hid.xml" in paths: "C:/Users/marc/AppData/Local/Mixxx/controllers/,C:/Program Files/Mixxx/controllers/"
Debug [Controller]: Loading controller preset from "C:/Users/marc/AppData/Local/Mixxx/controllers/USB_PnP_Audio_Device__3.hid.xml"
Debug [Controller]: Searching for controller preset "USB_Receiver__1--6.hid.xml" in paths: "C:/Users/marc/AppData/Local/Mixxx/controllers/,C:/Program Files/Mixxx/controllers/"
Debug [Controller]: Loading controller preset from "C:/Users/marc/AppData/Local/Mixxx/controllers/USB_Receiver__1--6.hid.xml"
Debug [Controller]: Searching for controller preset "Intuos_BT_M_6855.hid.xml" in paths: "C:/Users/marc/AppData/Local/Mixxx/controllers/,C:/Program Files/Mixxx/controllers/"
Debug [Controller]: Loading controller preset from "C:/Users/marc/AppData/Local/Mixxx/controllers/Intuos_BT_M_6855.hid.xml"
Debug [Controller]: Searching for controller preset "USB_Receiver__1--7.hid.xml" in paths: "C:/Users/marc/AppData/Local/Mixxx/controllers/,C:/Program Files/Mixxx/controllers/"
Debug [Controller]: Loading controller preset from "C:/Users/marc/AppData/Local/Mixxx/controllers/USB_Receiver__1--7.hid.xml"
Debug [Controller]: Searching for controller preset "USB_Receiver__2--2.hid.xml" in paths: "C:/Users/marc/AppData/Local/Mixxx/controllers/,C:/Program Files/Mixxx/controllers/"
Debug [Controller]: Loading controller preset from "C:/Users/marc/AppData/Local/Mixxx/controllers/USB_Receiver__2--2.hid.xml"
Debug [Controller]: Searching for controller preset "USB_Receiver__2--3.hid.xml" in paths: "C:/Users/marc/AppData/Local/Mixxx/controllers/,C:/Program Files/Mixxx/controllers/"
Debug [Controller]: Loading controller preset from "C:/Users/marc/AppData/Local/Mixxx/controllers/USB_Receiver__2--3.hid.xml"
Debug [Controller]: Searching for controller preset "USB_Receiver__2--4.hid.xml" in paths: "C:/Users/marc/AppData/Local/Mixxx/controllers/,C:/Program Files/Mixxx/controllers/"
Debug [Controller]: Loading controller preset from "C:/Users/marc/AppData/Local/Mixxx/controllers/USB_Receiver__2--4.hid.xml"
Debug [Main]: BaseTrackPlayerImpl::slotLoadTrack "[Sampler23]"
Debug [Controller]: Searching for controller preset "USB_Receiver__0.hid.xml" in paths: "C:/Users/marc/AppData/Local/Mixxx/controllers/,C:/Program Files/Mixxx/controllers/"
Debug [Controller]: Loading controller preset from "C:/Users/marc/AppData/Local/Mixxx/controllers/USB_Receiver__0.hid.xml"
Debug [Controller]: Searching for controller preset "USB_Receiver__2--5.hid.xml" in paths: "C:/Users/marc/AppData/Local/Mixxx/controllers/,C:/Program Files/Mixxx/controllers/"
Debug [Controller]: Loading controller preset from "C:/Users/marc/AppData/Local/Mixxx/controllers/USB_Receiver__2--5.hid.xml"
Debug [Controller]: Searching for controller preset "USB_Receiver__0--2.hid.xml" in paths: "C:/Users/marc/AppData/Local/Mixxx/controllers/,C:/Program Files/Mixxx/controllers/"
Debug [Controller]: Loading controller preset from "C:/Users/marc/AppData/Local/Mixxx/controllers/USB_Receiver__0--2.hid.xml"
Debug [Controller]: Searching for controller preset "RODE_NT-USB__3--2.hid.xml" in paths: "C:/Users/marc/AppData/Local/Mixxx/controllers/,C:/Program Files/Mixxx/controllers/"
Debug [Controller]: Loading controller preset from "C:/Users/marc/AppData/Local/Mixxx/controllers/RODE_NT-USB__3--2.hid.xml"
Debug [Controller]: Searching for controller preset "USB_Receiver__1--8.hid.xml" in paths: "C:/Users/marc/AppData/Local/Mixxx/controllers/,C:/Program Files/Mixxx/controllers/"
Debug [Controller]: Loading controller preset from "C:/Users/marc/AppData/Local/Mixxx/controllers/USB_Receiver__1--8.hid.xml"
Debug [Controller]: Searching for controller preset "USB_Receiver__2--6.hid.xml" in paths: "C:/Users/marc/AppData/Local/Mixxx/controllers/,C:/Program Files/Mixxx/controllers/"
Debug [Controller]: Loading controller preset from "C:/Users/marc/AppData/Local/Mixxx/controllers/USB_Receiver__2--6.hid.xml"
Debug [Controller]: Controller polling started.
Debug [Main]: BaseTrackPlayerImpl::slotLoadTrack "[Sampler24]"
Debug [Main]: BaseTrackPlayerImpl::slotLoadTrack "[Sampler25]"
Debug [Main]: BaseTrackPlayerImpl::slotLoadTrack "[Sampler26]"
Debug [Main]: BaseTrackPlayerImpl::slotLoadTrack "[Sampler27]"
Debug [Main]: BaseTrackPlayerImpl::slotLoadTrack "[Sampler28]"
Debug [Main]: BaseTrackPlayerImpl::slotLoadTrack "[Sampler29]"
Debug [Main]: BaseTrackPlayerImpl::slotLoadTrack "[Sampler30]"
Debug [Main]: BaseTrackPlayerImpl::slotLoadTrack "[Sampler31]"
Debug [Main]: BaseTrackPlayerImpl::slotLoadTrack "[Sampler32]"
Debug [Main]: BaseTrackPlayerImpl::slotLoadTrack "[Sampler33]"
Debug [Main]: BaseTrackPlayerImpl::slotLoadTrack "[Sampler34]"
Debug [Main]: BaseTrackPlayerImpl::slotLoadTrack "[Sampler35]"
Debug [Main]: BaseTrackPlayerImpl::slotLoadTrack "[Sampler36]"
Debug [Main]: BaseTrackPlayerImpl::slotLoadTrack "[Sampler37]"
Debug [Main]: BaseTrackPlayerImpl::slotLoadTrack "[Sampler38]"
Debug [Main]: BaseTrackPlayerImpl::slotLoadTrack "[Sampler39]"
Debug [Main]: BaseTrackPlayerImpl::slotLoadTrack "[Sampler40]"
Debug [Main]: BaseTrackPlayerImpl::slotLoadTrack "[Sampler41]"
Debug [Main]: BaseTrackPlayerImpl::slotLoadTrack "[Sampler42]"
Debug [Main]: BaseTrackPlayerImpl::slotLoadTrack "[Sampler43]"
Debug [Main]: BaseTrackPlayerImpl::slotLoadTrack "[Sampler44]"
Debug [Main]: BaseTrackPlayerImpl::slotLoadTrack "[Sampler45]"
Debug [Main]: BaseTrackPlayerImpl::slotLoadTrack "[Sampler46]"
Debug [Main]: BaseTrackPlayerImpl::slotLoadTrack "[Sampler47]"
Debug [Main]: BaseTrackPlayerImpl::slotLoadTrack "[Sampler48]"
Debug [Main]: BaseTrackPlayerImpl::slotLoadTrack "[Sampler49]"
Debug [Main]: BaseTrackPlayerImpl::slotLoadTrack "[Sampler50]"
Debug [Main]: BaseTrackPlayerImpl::slotLoadTrack "[Sampler51]"
Debug [Main]: BaseTrackPlayerImpl::slotLoadTrack "[Sampler52]"
Debug [Main]: BaseTrackPlayerImpl::slotLoadTrack "[Sampler53]"
Debug [Main]: BaseTrackPlayerImpl::slotLoadTrack "[Sampler54]"
Debug [Main]: BaseTrackPlayerImpl::slotLoadTrack "[Sampler55]"
Debug [Main]: BaseTrackPlayerImpl::slotLoadTrack "[Sampler56]"
Debug [Main]: BaseTrackPlayerImpl::slotLoadTrack "[Sampler57]"
Debug [Main]: BaseTrackPlayerImpl::slotLoadTrack "[Sampler58]"
Debug [Main]: BaseTrackPlayerImpl::slotLoadTrack "[Sampler59]"
Debug [Main]: BaseTrackPlayerImpl::slotLoadTrack "[Sampler60]"
Debug [Main]: BaseTrackPlayerImpl::slotLoadTrack "[Sampler61]"
Debug [Main]: BaseTrackPlayerImpl::slotLoadTrack "[Sampler62]"
Debug [Main]: BaseTrackPlayerImpl::slotLoadTrack "[Sampler63]"
Debug [Main]: BaseTrackPlayerImpl::slotLoadTrack "[Sampler64]"
Debug [Main]: SoundManager::setupDevices()
Debug [Main]: SoundDevicePortAudio::open() "SoundDeviceId(CABLE-B Input (VB-Audio Cable B, \u0018)"
Debug [Main]: framesPerBuffer: 2048
Debug [Main]: Requested sample rate:  48000 Hz, latency: 42.6667 ms
Debug [Main]: Output channels: 2 | Input channels: 0
Debug [Main]: Opening stream with id 24
Debug [Main]: Opened PortAudio stream successfully... starting
Debug [Main]: PortAudio: Started stream successfully
Debug [Main]:    Actual sample rate:  48000 Hz, latency: 42.6667 ms
Debug [Main]: Compressor attack per frame:  0.000375 decay per frame:  3.75e-05
Debug [Main]: SoundDeviceNetwork - open: "Network stream"
Debug [Main]: framesPerBuffer: 2048
Debug [Main]: Requested sample rate:  48000 Hz, latency: 42666666 ns
Debug [Main]: Using "CABLE-B Input (VB-Audio Cable B" as output sound device clock reference
Debug [Main]: 2 output sound devices opened
Debug [Main]: 0 input sound devices opened
Debug [Main]: Displaying main window
Debug [Main]: Running Mixxx
Debug [Main]: ControllerManager::getControllerList
Debug [Main]: Setting input delegate for column 0 QStyledItemDelegate(0x1e75281d5f0)
Debug [Main]: Setting input delegate for column 1 QStyledItemDelegate(0x1e75281d210)
Debug [Main]: Setting input delegate for column 2 QStyledItemDelegate(0x1e75281d6f0)
Debug [Main]: Setting input delegate for column 3 MidiOptionsDelegate(0x1e75281d190)
Debug []: SSE: Enabling denormals to zero mode
Debug []: SSE: Enabling flush to zero mode
Debug []: Denormals to zero mode is working
Debug [Main]: Setting input delegate for column 4 ControlDelegate(0x1e72ff8dba0)
Debug [Main]: Setting output delegate for column 0 QStyledItemDelegate(0x1e756379ab0)
Debug [Main]: Setting output delegate for column 1 QStyledItemDelegate(0x1e75637a0b0)
Debug [Main]: Setting output delegate for column 2 QStyledItemDelegate(0x1e75637a050)
Debug [Main]: Setting output delegate for column 3 QStyledItemDelegate(0x1e756379d70)
Debug [Main]: Setting output delegate for column 4 QStyledItemDelegate(0x1e756379a50)
Debug [Main]: Setting output delegate for column 5 ControlDelegate(0x1e75636ed40)
Debug [Main]: Setting input delegate for column 0 QStyledItemDelegate(0x1e758caffd0)
Debug [Main]: Setting input delegate for column 1 QStyledItemDelegate(0x1e758cafd70)
Debug [Main]: Setting input delegate for column 2 QStyledItemDelegate(0x1e758cafdd0)
Debug [Main]: Setting input delegate for column 3 MidiOptionsDelegate(0x1e758caff10)
Debug [Main]: Setting input delegate for column 4 ControlDelegate(0x1e758d64540)
Debug [Main]: Setting output delegate for column 0 QStyledItemDelegate(0x1e75b63e530)
Debug [Main]: Setting output delegate for column 1 QStyledItemDelegate(0x1e75b63e270)
Debug [Main]: Setting output delegate for column 2 QStyledItemDelegate(0x1e75b63e290)
Debug [Main]: Setting output delegate for column 3 QStyledItemDelegate(0x1e75b63e2b0)
Debug [Main]: Setting output delegate for column 4 QStyledItemDelegate(0x1e75b63e650)
Debug [Main]: Setting output delegate for column 5 ControlDelegate(0x1e75b1bd060)
Debug [Main]: Setting input delegate for column 0 QStyledItemDelegate(0x1e75e01c050)
Debug [Main]: Setting input delegate for column 1 QStyledItemDelegate(0x1e75e01bb90)
Debug [Main]: Setting input delegate for column 2 QStyledItemDelegate(0x1e75e01c870)
Debug [Main]: Setting input delegate for column 3 MidiOptionsDelegate(0x1e75e01c3b0)
Debug [Main]: Setting input delegate for column 4 ControlDelegate(0x1e75e0529a0)
Debug [Main]: Setting output delegate for column 0 QStyledItemDelegate(0x1e7609cf720)
Debug [Main]: Setting output delegate for column 1 QStyledItemDelegate(0x1e7609cf220)
Debug [Main]: Setting output delegate for column 2 QStyledItemDelegate(0x1e7609cf480)
Debug [Main]: Setting output delegate for column 3 QStyledItemDelegate(0x1e7609cf240)
Debug [Main]: Setting output delegate for column 4 QStyledItemDelegate(0x1e7609cf440)
Debug [Main]: Setting output delegate for column 5 ControlDelegate(0x1e7609c2a10)
Debug [Main]: Setting input delegate for column 0 QStyledItemDelegate(0x1e7633934e0)
Debug [Main]: Setting input delegate for column 1 QStyledItemDelegate(0x1e763393320)
Debug [Main]: Setting input delegate for column 2 QStyledItemDelegate(0x1e7633932c0)
Debug [Main]: Setting input delegate for column 3 MidiOptionsDelegate(0x1e7633931a0)
Debug [Main]: Setting input delegate for column 4 ControlDelegate(0x1e7634137b0)
Debug [Main]: Setting output delegate for column 0 QStyledItemDelegate(0x1e765c2c480)
Debug [Main]: Setting output delegate for column 1 QStyledItemDelegate(0x1e765c2c760)
Debug [Main]: Setting output delegate for column 2 QStyledItemDelegate(0x1e765c2c440)
Debug [Main]: Setting output delegate for column 3 QStyledItemDelegate(0x1e765c2c460)
Debug [Main]: Setting output delegate for column 4 QStyledItemDelegate(0x1e765c2c8e0)
Debug [Main]: Setting output delegate for column 5 ControlDelegate(0x1e765cd2920)
Debug [Main]: Setting input delegate for column 0 QStyledItemDelegate(0x1e72e346910)
Debug [Main]: Setting input delegate for column 1 QStyledItemDelegate(0x1e72e346170)
Debug [Main]: Setting input delegate for column 2 QStyledItemDelegate(0x1e72e346810)
Debug [Main]: Setting input delegate for column 3 MidiOptionsDelegate(0x1e72e346f50)
Debug [Main]: Setting input delegate for column 4 ControlDelegate(0x1e768bd7a60)
Debug [Main]: Setting output delegate for column 0 QStyledItemDelegate(0x1e76b4bfd20)
Debug [Main]: Setting output delegate for column 1 QStyledItemDelegate(0x1e76b4bfda0)
Debug [Main]: Setting output delegate for column 2 QStyledItemDelegate(0x1e76b4bfe60)
Debug [Main]: Setting output delegate for column 3 QStyledItemDelegate(0x1e76b4bfec0)
Debug [Main]: Setting output delegate for column 4 QStyledItemDelegate(0x1e76b4bffa0)
Debug [Main]: Setting output delegate for column 5 ControlDelegate(0x1e76b52a430)
Debug [Main]: QGLFramebufferObject: Framebuffer incomplete attachment.
Debug [Main]: QGLFramebufferObject: Framebuffer incomplete attachment.
Warning [Main]: GLSLWaveformRendererSignal::createFrameBuffer - frame buffer not valid
Debug [Main]: PlaylistTableModel(0x1e70aeaede0) select() took 0 ms 79
Debug [Main]: Successfully deserialized BeatGrid
Debug [Main]: Successfully deserialized KeyMap
Debug [Main]: BaseTrackCache(0x1e70dd66660) updateIndexWithQuery took 0 ms
Debug [Main]: Auto DJ enabled
Debug [Main]: BaseTrackPlayerImpl::slotLoadTrack "[Channel1]"
Debug [CachingReaderWorker 1]: SoundSourceProxy - Opening file "file:///D:/Music.noDupes/Carl Cox/F.A.C.T. [Disc 2]/2-03 Psychotrip (Richie's Remix).mp3" with provider "MAD: MPEG Audio Decoder" using mode Strict
Debug [CachingReaderWorker 1]: SoundSourceMP3 - MP3 frame header | layer: 0 mode: 0 #channels: 1 #samples: 36 bitrate: 0 samplerate: 0 flags: "0x0000"
Debug [Main]: BaseTrackPlayerImpl::slotTrackLoaded
Warning [Main]: QPixmap::scaled: Pixmap is a null pixmap
Debug [AnalyzerQueue 1]: AnalyzerQueue - Analyzing "Psychotrip (Richie's Remix)" "D:/Music.noDupes/Carl Cox/F.A.C.T. [Disc 2]/2-03 Psychotrip (Richie's Remix).mp3"
Debug [Main]: WSpinny::slotCoverFound WSpinny(0x1e708177fe0, name = "SpinnySingletonWithCover[Channel1]")  "CoverInfoRelative(NONE,GUESSED,,0x0)" QSize(0, 0)
Warning [Main]: QPixmap::scaled: Pixmap is a null pixmap
Debug [Main]: WSpinny::slotCoverFound WSpinny(0x1e708179ac0, name = "SpinnySingletonNoCover[Channel1]")  "CoverInfoRelative(NONE,GUESSED,,0x0)" QSize(0, 0)
Debug [AnalyzerQueue 1]: SoundSourceProxy - Opening file "file:///D:/Music.noDupes/Carl Cox/F.A.C.T. [Disc 2]/2-03 Psychotrip (Richie's Remix).mp3" with provider "MAD: MPEG Audio Decoder" using mode Strict
Debug [AnalyzerQueue 1]: SoundSourceMP3 - MP3 frame header | layer: 0 mode: 0 #channels: 1 #samples: 36 bitrate: 0 samplerate: 0 flags: "0x0000"
Warning [Main]: QPixmap::scaled: Pixmap is a null pixmap
Debug [Main]: WCoverArt::slotCoverFound WCoverArt(0x1e72c5791b0, name = "DeckCoverArt")  "CoverInfoRelative(NONE,GUESSED,,0x0)" QSize(0, 0)
Debug [AnalyzerQueue 1]: AnalysisDAO fetched 2 analyses, 4778889 bytes for track 2641 in 81 ms
Debug [AnalyzerQueue 1]: Reading waveform from byte array: allSignalSize 577706 visualSampleRate 441 audioVisualRatio 100
Debug [AnalyzerQueue 1]: Reading waveform from byte array: allSignalSize 3842 visualSampleRate 2.93132 audioVisualRatio 15044.4
Debug [AnalyzerQueue 1]: AnalyzerWaveform - loadStored - Stored waveform loaded
Debug [AnalyzerQueue 1]: Beat calculation will not start
Debug [AnalyzerQueue 1]: Keys version/sub-version unchanged since previous analysis. Not analyzing.
Debug [AnalyzerQueue 1]: Key calculation will not start.
Debug [AnalyzerQueue 1]: AnalyzerQueue - Skipping track analysis because no analyzer initialized.
Debug [Main]: Committing transaction on "MIXXX-1" result: true
Debug [Main]: PlaylistTableModel(0x1e70aeaede0) select() took 0 ms 78
Debug [Main]: Successfully deserialized BeatGrid
Debug [Main]: Successfully deserialized KeyMap
Debug [Main]: BaseTrackCache(0x1e70dd66660) updateIndexWithQuery took 0 ms
Debug [Main]: BaseTrackPlayerImpl::slotLoadTrack "[Channel2]"
Debug [Main]: "D:/Music.noDupes/Carl Cox/F.A.C.T. [Disc 2]/2-03 Psychotrip (Richie's Remix).mp3" fromTrackDuration = 654.994
Debug [Main]: "D:/Music.noDupes/Carl Cox/F.A.C.T. [Disc 1]/1-05 Fuzz.mp3" toTrackDuration =  203.024
Debug [Main]: m_fadeDuration "[Channel1]" = 0
Debug [CachingReaderWorker 2]: SoundSourceProxy - Opening file "file:///D:/Music.noDupes/Carl Cox/F.A.C.T. [Disc 1]/1-05 Fuzz.mp3" with provider "MAD: MPEG Audio Decoder" using mode Strict
Debug [CachingReaderWorker 2]: SoundSourceMP3 - MP3 frame header | layer: 0 mode: 0 #channels: 1 #samples: 36 bitrate: 0 samplerate: 0 flags: "0x0000"
Debug [Main]: BaseTrackPlayerImpl::slotTrackLoaded
Debug [Main]: "D:/Music.noDupes/Carl Cox/F.A.C.T. [Disc 2]/2-03 Psychotrip (Richie's Remix).mp3" fromTrackDuration = 654.994
Debug [Main]: "D:/Music.noDupes/Carl Cox/F.A.C.T. [Disc 1]/1-05 Fuzz.mp3" toTrackDuration =  203.024
Debug [Main]: m_fadeDuration "[Channel1]" = 0
Warning [Main]: QPixmap::scaled: Pixmap is a null pixmap
Debug [AnalyzerQueue 1]: AnalyzerQueue - Analyzing "Fuzz" "D:/Music.noDupes/Carl Cox/F.A.C.T. [Disc 1]/1-05 Fuzz.mp3"
Debug [Main]: WSpinny::slotCoverFound WSpinny(0x1e708176d10, name = "SpinnySingletonWithCover[Channel2]")  "CoverInfoRelative(NONE,GUESSED,,0x0)" QSize(0, 0)
Warning [Main]: QPixmap::scaled: Pixmap is a null pixmap
Debug [AnalyzerQueue 1]: SoundSourceProxy - Opening file "file:///D:/Music.noDupes/Carl Cox/F.A.C.T. [Disc 1]/1-05 Fuzz.mp3" with provider "MAD: MPEG Audio Decoder" using mode Strict
Debug [Main]: WSpinny::slotCoverFound WSpinny(0x1e708177a80, name = "SpinnySingletonNoCover[Channel2]")  "CoverInfoRelative(NONE,GUESSED,,0x0)" QSize(0, 0)
Warning [Main]: QPixmap::scaled: Pixmap is a null pixmap
Debug [AnalyzerQueue 1]: SoundSourceMP3 - MP3 frame header | layer: 0 mode: 0 #channels: 1 #samples: 36 bitrate: 0 samplerate: 0 flags: "0x0000"
Debug [Main]: WCoverArt::slotCoverFound WCoverArt(0x1e72b758c50, name = "DeckCoverArt")  "CoverInfoRelative(NONE,GUESSED,,0x0)" QSize(0, 0)
Debug [AnalyzerQueue 1]: AnalysisDAO fetched 2 analyses, 1501154 bytes for track 2630 in 37 ms
Debug [AnalyzerQueue 1]: Reading waveform from byte array: allSignalSize 179068 visualSampleRate 441 audioVisualRatio 100
Debug [AnalyzerQueue 1]: Reading waveform from byte array: allSignalSize 3842 visualSampleRate 9.45703 audioVisualRatio 4663.2
Debug [AnalyzerQueue 1]: AnalyzerWaveform - loadStored - Stored waveform loaded
Debug [AnalyzerQueue 1]: Beat calculation will not start
Debug [AnalyzerQueue 1]: Keys version/sub-version unchanged since previous analysis. Not analyzing.
Debug [AnalyzerQueue 1]: Key calculation will not start.
Debug [AnalyzerQueue 1]: AnalyzerQueue - Skipping track analysis because no analyzer initialized.
Debug [Main]: Committing transaction on "MIXXX-1" result: true
Debug [Main]: "D:/Music.noDupes/Carl Cox/F.A.C.T. [Disc 1]/1-05 Fuzz.mp3" fromTrackDuration = 203.024
Debug [Main]: "D:/Music.noDupes/Carl Cox/F.A.C.T. [Disc 2]/2-03 Psychotrip (Richie's Remix).mp3" toTrackDuration =  654.994
Debug [Main]: m_fadeDuration "[Channel2]" = 0
Debug [Main]: "D:/Music.noDupes/Carl Cox/F.A.C.T. [Disc 1]/1-05 Fuzz.mp3" fromTrackDuration = 203.024
Debug [Main]: "D:/Music.noDupes/Carl Cox/F.A.C.T. [Disc 2]/2-03 Psychotrip (Richie's Remix).mp3" toTrackDuration =  654.994
Debug [Main]: m_fadeDuration "[Channel2]" = 0
Debug [Main]: Committing transaction on "MIXXX-1" result: true
Debug [Main]: PlaylistTableModel(0x1e70aeaede0) select() took 0 ms 77
Debug [Main]: BeatFactory::loadBeatsFromByteArray could not parse serialized beats.
Debug [Main]: BaseTrackCache(0x1e70dd66660) updateIndexWithQuery took 0 ms
Debug [Main]: BaseTrackPlayerImpl::slotLoadTrack "[Channel1]"
Debug [CachingReaderWorker 1]: SoundSourceProxy - Opening file "file:///D:/Music.noDupes/Carl Cox - F.A.C.T. (CD2)/Carl Cox - F.A.C.T. (CD2)/03 Robert Gorl _ Psychotrip (Richie's Remix).mp3" with provider "MAD: MPEG Audio Decoder" using mode Strict
Debug [Main]: Committing transaction on "MIXXX-1" result: true
Debug [CachingReaderWorker 1]: SoundSourceMP3 - MP3 frame header | layer: 0 mode: 0 #channels: 1 #samples: 36 bitrate: 0 samplerate: 0 flags: "0x0000"
Debug [Main]: BaseTrackPlayerImpl::slotTrackLoaded
Debug [Main]: "D:/Music.noDupes/Carl Cox/F.A.C.T. [Disc 1]/1-05 Fuzz.mp3" fromTrackDuration = 203.024
Debug [Main]: "D:/Music.noDupes/Carl Cox - F.A.C.T. (CD2)/Carl Cox - F.A.C.T. (CD2)/03 Robert Gorl _ Psychotrip (Richie's Remix).mp3" toTrackDuration =  655.02
Debug [Main]: m_fadeDuration "[Channel2]" = 0
Warning [Main]: QPixmap::scaled: Pixmap is a null pixmap
Debug [AnalyzerQueue 1]: AnalyzerQueue - Analyzing "Robert Gorl / Psychotrip (Richie's Remix)" "D:/Music.noDupes/Carl Cox - F.A.C.T. (CD2)/Carl Cox - F.A.C.T. (CD2)/03 Robert Gorl _ Psychotrip (Richie's Remix).mp3"
Debug [Main]: WSpinny::slotCoverFound WSpinny(0x1e708177fe0, name = "SpinnySingletonWithCover[Channel1]")  "CoverInfoRelative(NONE,GUESSED,,0x0)" QSize(0, 0)
Warning [Main]: QPixmap::scaled: Pixmap is a null pixmap
Debug [Main]: WSpinny::slotCoverFound WSpinny(0x1e708179ac0, name = "SpinnySingletonNoCover[Channel1]")  "CoverInfoRelative(NONE,GUESSED,,0x0)" QSize(0, 0)
Debug [AnalyzerQueue 1]: SoundSourceProxy - Opening file "file:///D:/Music.noDupes/Carl Cox - F.A.C.T. (CD2)/Carl Cox - F.A.C.T. (CD2)/03 Robert Gorl _ Psychotrip (Richie's Remix).mp3" with provider "MAD: MPEG Audio Decoder" using mode Strict
Warning [Main]: QPixmap::scaled: Pixmap is a null pixmap
Debug [Main]: WCoverArt::slotCoverFound WCoverArt(0x1e72c5791b0, name = "DeckCoverArt")  "CoverInfoRelative(NONE,GUESSED,,0x0)" QSize(0, 0)
Debug [AnalyzerQueue 1]: SoundSourceMP3 - MP3 frame header | layer: 0 mode: 0 #channels: 1 #samples: 36 bitrate: 0 samplerate: 0 flags: "0x0000"
Debug [Main]: TrackDAO: Saving track 2641 "D:/Music.noDupes/Carl Cox/F.A.C.T. [Disc 2]/2-03 Psychotrip (Richie's Remix).mp3"
Debug [Main]: TrackDAO: Updating track in database 2641 "D:/Music.noDupes/Carl Cox/F.A.C.T. [Disc 2]/2-03 Psychotrip (Richie's Remix).mp3"
Debug [Main]: BaseTrackCache(0x1e70dd66660) updateIndexWithQuery took 0 ms
Debug [AnalyzerQueue 1]: AnalysisDAO fetched 0 analyses, 0 bytes for track 2677 in 9 ms
Debug [AnalyzerQueue 1]: VampAnalyzer BlockSize:  1024
Debug [AnalyzerQueue 1]: VampAnalyzer StepSize:  512
Debug [AnalyzerQueue 1]: Beat calculation started with plugin "qm-tempotracker:0"
Debug [AnalyzerQueue 1]: VampAnalyzer BlockSize:  32768
Debug [AnalyzerQueue 1]: VampAnalyzer StepSize:  32768
Debug [AnalyzerQueue 1]: Key calculation started with plugin "qm-keydetector:2"
Debug [AnalyzerQueue 1]: Writing waveform from byte array: dataSize 577730 allSignalSize 577730 visualSampleRate 441 audioVisualRatio 100
Debug [AnalyzerQueue 1]: AnalysisDAO saved analysis 745 "4751594 (2263588 compressed)" bytes for track 2677 in 410 ms
Debug [AnalyzerQueue 1]: Saved waveform analysis for trackId 2677 analysisId 745
Debug [AnalyzerQueue 1]: Writing waveform from byte array: dataSize 3842 allSignalSize 3842 visualSampleRate 2.93121 audioVisualRatio 15045
Debug [AnalyzerQueue 1]: AnalysisDAO saved analysis 746 "31008 (14094 compressed)" bytes for track 2677 in 24 ms
Debug [AnalyzerQueue 1]: Saved waveform summary analysis for trackId 2677 analysisId 746
Debug [AnalyzerQueue 1]: AnalyzerWaveform - Waveform generation for track 2677 done 7 s
Debug [AnalyzerQueue 1]: ReplayGain 2.0 (libebur128) result is -3.02177 dB for "D:/Music.noDupes/Carl Cox - F.A.C.T. (CD2)/Carl Cox - F.A.C.T. (CD2)/03 Robert Gorl _ Psychotrip (Richie's Remix).mp3"
Debug [AnalyzerQueue 1]: Beat Calculation complete
Debug [AnalyzerQueue 1]: Key Detection complete
Debug [AnalyzerQueue 1]: Key Histogram
Debug [AnalyzerQueue 1]: 1 : "C" 294912
Debug [AnalyzerQueue 1]: 2 : "D?" 8.71629e+06
Debug [AnalyzerQueue 1]: 3 : "D" 2.26099e+06
Debug [AnalyzerQueue 1]: 9 : "A?" 1.47456e+06
Debug [AnalyzerQueue 1]: 10 : "A" 5.6361e+06
Debug [AnalyzerQueue 1]: 11 : "B?" 655360
Debug [AnalyzerQueue 1]: 13 : "Cm" 2.29376e+06
Debug [AnalyzerQueue 1]: 14 : "C?m" 5.49005e+06
Debug [AnalyzerQueue 1]: 18 : "Fm" 1.40902e+06
Debug [AnalyzerQueue 1]: 19 : "F?m" 655360
Debug [Main]: "D:/Music.noDupes/Carl Cox - F.A.C.T. (CD2)/Carl Cox - F.A.C.T. (CD2)/03 Robert Gorl _ Psychotrip (Richie's Remix).mp3" fromTrackDuration = 655.02
Debug [Main]: "D:/Music.noDupes/Carl Cox/F.A.C.T. [Disc 1]/1-05 Fuzz.mp3" toTrackDuration =  203.024
Debug [Main]: m_fadeDuration "[Channel1]" = 0
Debug [Main]: "D:/Music.noDupes/Carl Cox - F.A.C.T. (CD2)/Carl Cox - F.A.C.T. (CD2)/03 Robert Gorl _ Psychotrip (Richie's Remix).mp3" fromTrackDuration = 655.02
Debug [Main]: "D:/Music.noDupes/Carl Cox/F.A.C.T. [Disc 1]/1-05 Fuzz.mp3" toTrackDuration =  203.024
Debug [Main]: m_fadeDuration "[Channel1]" = 0
Debug [Main]: Committing transaction on "MIXXX-1" result: true
Debug [Main]: PlaylistTableModel(0x1e70aeaede0) select() took 0 ms 76
Debug [Main]: Successfully deserialized BeatGrid
Debug [Main]: Successfully deserialized KeyMap
Debug [Main]: BaseTrackCache(0x1e70dd66660) updateIndexWithQuery took 0 ms
Debug [Main]: BaseTrackPlayerImpl::slotLoadTrack "[Channel2]"
Debug [Main]: Committing transaction on "MIXXX-1" result: true
Debug [CachingReaderWorker 2]: SoundSourceProxy - Opening file "file:///D:/Music.noDupes/sort/chaos2/Carl Cox/F.A.C.T. [Disc 2]/2-04 Elektra.mp3" with provider "MAD: MPEG Audio Decoder" using mode Strict
Debug [CachingReaderWorker 2]: SoundSourceMP3 - MP3 frame header | layer: 0 mode: 0 #channels: 1 #samples: 36 bitrate: 0 samplerate: 0 flags: "0x0000"
Debug [Main]: BaseTrackPlayerImpl::slotTrackLoaded
Debug [Main]: "D:/Music.noDupes/Carl Cox - F.A.C.T. (CD2)/Carl Cox - F.A.C.T. (CD2)/03 Robert Gorl _ Psychotrip (Richie's Remix).mp3" fromTrackDuration = 655.02
Debug [Main]: "D:/Music.noDupes/sort/chaos2/Carl Cox/F.A.C.T. [Disc 2]/2-04 Elektra.mp3" toTrackDuration =  349.048
Debug [Main]: m_fadeDuration "[Channel1]" = 0
Warning [Main]: QPixmap::scaled: Pixmap is a null pixmap
Debug [AnalyzerQueue 1]: AnalyzerQueue - Analyzing "Elektra" "D:/Music.noDupes/sort/chaos2/Carl Cox/F.A.C.T. [Disc 2]/2-04 Elektra.mp3"
Debug [Main]: WSpinny::slotCoverFound WSpinny(0x1e708176d10, name = "SpinnySingletonWithCover[Channel2]")  "CoverInfoRelative(NONE,GUESSED,,0x0)" QSize(0, 0)
Warning [Main]: QPixmap::scaled: Pixmap is a null pixmap
Debug [Main]: WSpinny::slotCoverFound WSpinny(0x1e708177a80, name = "SpinnySingletonNoCover[Channel2]")  "CoverInfoRelative(NONE,GUESSED,,0x0)" QSize(0, 0)
Debug [AnalyzerQueue 1]: SoundSourceProxy - Opening file "file:///D:/Music.noDupes/sort/chaos2/Carl Cox/F.A.C.T. [Disc 2]/2-04 Elektra.mp3" with provider "MAD: MPEG Audio Decoder" using mode Strict
Warning [Main]: QPixmap::scaled: Pixmap is a null pixmap
Debug [Main]: WCoverArt::slotCoverFound WCoverArt(0x1e72b758c50, name = "DeckCoverArt")  "CoverInfoRelative(NONE,GUESSED,,0x0)" QSize(0, 0)
Debug [AnalyzerQueue 1]: SoundSourceMP3 - MP3 frame header | layer: 0 mode: 0 #channels: 1 #samples: 36 bitrate: 0 samplerate: 0 flags: "0x0000"
Debug [Main]: TrackDAO: Saving track 2630 "D:/Music.noDupes/Carl Cox/F.A.C.T. [Disc 1]/1-05 Fuzz.mp3"
Debug [Main]: TrackDAO: Updating track in database 2630 "D:/Music.noDupes/Carl Cox/F.A.C.T. [Disc 1]/1-05 Fuzz.mp3"
Debug [Main]: BaseTrackCache(0x1e70dd66660) updateIndexWithQuery took 0 ms
Debug [AnalyzerQueue 1]: AnalysisDAO fetched 2 analyses, 2590903 bytes for track 9926 in 58 ms
Debug [AnalyzerQueue 1]: Reading waveform from byte array: allSignalSize 307862 visualSampleRate 441 audioVisualRatio 100
Debug [AnalyzerQueue 1]: Reading waveform from byte array: allSignalSize 3842 visualSampleRate 5.50067 audioVisualRatio 8017.2
Debug [AnalyzerQueue 1]: AnalyzerWaveform - loadStored - Stored waveform loaded
Debug [AnalyzerQueue 1]: Beat calculation will not start
Debug [AnalyzerQueue 1]: Keys version/sub-version unchanged since previous analysis. Not analyzing.
Debug [AnalyzerQueue 1]: Key calculation will not start.
Debug [AnalyzerQueue 1]: AnalyzerQueue - Skipping track analysis because no analyzer initialized.
Debug [Main]: "D:/Music.noDupes/sort/chaos2/Carl Cox/F.A.C.T. [Disc 2]/2-04 Elektra.mp3" fromTrackDuration = 349.048
Debug [Main]: "D:/Music.noDupes/Carl Cox - F.A.C.T. (CD2)/Carl Cox - F.A.C.T. (CD2)/03 Robert Gorl _ Psychotrip (Richie's Remix).mp3" toTrackDuration =  655.02
Debug [Main]: m_fadeDuration "[Channel2]" = 0
Debug [Main]: "D:/Music.noDupes/sort/chaos2/Carl Cox/F.A.C.T. [Disc 2]/2-04 Elektra.mp3" fromTrackDuration = 349.048
Debug [Main]: "D:/Music.noDupes/Carl Cox - F.A.C.T. (CD2)/Carl Cox - F.A.C.T. (CD2)/03 Robert Gorl _ Psychotrip (Richie's Remix).mp3" toTrackDuration =  655.02
Debug [Main]: m_fadeDuration "[Channel2]" = 0
Debug [Main]: Committing transaction on "MIXXX-1" result: true
Debug [Main]: PlaylistTableModel(0x1e70aeaede0) select() took 0 ms 75
Debug [Main]: Successfully deserialized BeatGrid
Debug [Main]: Successfully deserialized KeyMap
Debug [Main]: BaseTrackCache(0x1e70dd66660) updateIndexWithQuery took 0 ms
Debug [Main]: BaseTrackPlayerImpl::slotLoadTrack "[Channel1]"
Debug [CachingReaderWorker 1]: SoundSourceProxy - Opening file "file:///D:/Music.noDupes/sort/chaos2/Carl Cox/F.A.C.T. [Disc 2]/2-02 Amphetamine.mp3" with provider "MAD: MPEG Audio Decoder" using mode Strict
Debug [Main]: Committing transaction on "MIXXX-1" result: true
Debug [CachingReaderWorker 1]: SoundSourceMP3 - MP3 frame header | layer: 0 mode: 0 #channels: 1 #samples: 36 bitrate: 0 samplerate: 0 flags: "0x0000"
Debug [Main]: BaseTrackPlayerImpl::slotTrackLoaded
Debug [Main]: "D:/Music.noDupes/sort/chaos2/Carl Cox/F.A.C.T. [Disc 2]/2-04 Elektra.mp3" fromTrackDuration = 349.048
Debug [Main]: "D:/Music.noDupes/sort/chaos2/Carl Cox/F.A.C.T. [Disc 2]/2-02 Amphetamine.mp3" toTrackDuration =  261.851
Debug [Main]: m_fadeDuration "[Channel2]" = 0
Warning [Main]: QPixmap::scaled: Pixmap is a null pixmap
Debug [Main]: WSpinny::slotCoverFound WSpinny(0x1e708177fe0, name = "SpinnySingletonWithCover[Channel1]")  "CoverInfoRelative(NONE,GUESSED,,0x0)" QSize(0, 0)
Warning [Main]: QPixmap::scaled: Pixmap is a null pixmap
Debug [Main]: WSpinny::slotCoverFound WSpinny(0x1e708179ac0, name = "SpinnySingletonNoCover[Channel1]")  "CoverInfoRelative(NONE,GUESSED,,0x0)" QSize(0, 0)
Debug [AnalyzerQueue 1]: AnalyzerQueue - Analyzing "Amphetamine" "D:/Music.noDupes/sort/chaos2/Carl Cox/F.A.C.T. [Disc 2]/2-02 Amphetamine.mp3"
Debug [AnalyzerQueue 1]: SoundSourceProxy - Opening file "file:///D:/Music.noDupes/sort/chaos2/Carl Cox/F.A.C.T. [Disc 2]/2-02 Amphetamine.mp3" with provider "MAD: MPEG Audio Decoder" using mode Strict
Warning [Main]: QPixmap::scaled: Pixmap is a null pixmap
Debug [Main]: WCoverArt::slotCoverFound WCoverArt(0x1e72c5791b0, name = "DeckCoverArt")  "CoverInfoRelative(NONE,GUESSED,,0x0)" QSize(0, 0)
Debug [AnalyzerQueue 1]: SoundSourceMP3 - MP3 frame header | layer: 0 mode: 0 #channels: 1 #samples: 36 bitrate: 0 samplerate: 0 flags: "0x0000"
Debug [Main]: TrackDAO: Saving track 2677 "D:/Music.noDupes/Carl Cox - F.A.C.T. (CD2)/Carl Cox - F.A.C.T. (CD2)/03 Robert Gorl _ Psychotrip (Richie's Remix).mp3"
Debug [Main]: TrackDAO: Updating track in database 2677 "D:/Music.noDupes/Carl Cox - F.A.C.T. (CD2)/Carl Cox - F.A.C.T. (CD2)/03 Robert Gorl _ Psychotrip (Richie's Remix).mp3"
Debug [Main]: BaseTrackCache(0x1e70dd66660) updateIndexWithQuery took 0 ms
Debug [AnalyzerQueue 1]: AnalysisDAO fetched 2 analyses, 1895826 bytes for track 9924 in 67 ms
Debug [AnalyzerQueue 1]: Reading waveform from byte array: allSignalSize 230954 visualSampleRate 441 audioVisualRatio 100
Debug [AnalyzerQueue 1]: Reading waveform from byte array: allSignalSize 3842 visualSampleRate 7.3324 audioVisualRatio 6014.4
Debug [AnalyzerQueue 1]: AnalyzerWaveform - loadStored - Stored waveform loaded
Debug [AnalyzerQueue 1]: Beat calculation will not start
Debug [AnalyzerQueue 1]: Keys version/sub-version unchanged since previous analysis. Not analyzing.
Debug [AnalyzerQueue 1]: Key calculation will not start.
Debug [AnalyzerQueue 1]: AnalyzerQueue - Skipping track analysis because no analyzer initialized.
Debug [Main]: "D:/Music.noDupes/sort/chaos2/Carl Cox/F.A.C.T. [Disc 2]/2-02 Amphetamine.mp3" fromTrackDuration = 261.851
Debug [Main]: "D:/Music.noDupes/sort/chaos2/Carl Cox/F.A.C.T. [Disc 2]/2-04 Elektra.mp3" toTrackDuration =  349.048
Debug [Main]: m_fadeDuration "[Channel1]" = 0
Debug [Main]: "D:/Music.noDupes/sort/chaos2/Carl Cox/F.A.C.T. [Disc 2]/2-02 Amphetamine.mp3" fromTrackDuration = 261.851
Debug [Main]: "D:/Music.noDupes/sort/chaos2/Carl Cox/F.A.C.T. [Disc 2]/2-04 Elektra.mp3" toTrackDuration =  349.048
Debug [Main]: m_fadeDuration "[Channel1]" = 0
Debug [Main]: Committing transaction on "MIXXX-1" result: true
Debug [Main]: PlaylistTableModel(0x1e70aeaede0) select() took 0 ms 74
Debug [Main]: BeatFactory::loadBeatsFromByteArray could not parse serialized beats.
Debug [Main]: BaseTrackCache(0x1e70dd66660) updateIndexWithQuery took 0 ms
Debug [Main]: BaseTrackPlayerImpl::slotLoadTrack "[Channel2]"
Debug [Main]: Committing transaction on "MIXXX-1" result: true
Debug [CachingReaderWorker 2]: SoundSourceProxy - Opening file "file:///D:/Music.noDupes/sort/chaos2/Carl Cox/F.A.C.T. [Disc 1]/1-02 Late Night (Mills Mix).mp3" with provider "MAD: MPEG Audio Decoder" using mode Strict
Debug [CachingReaderWorker 2]: SoundSourceMP3 - MP3 frame header | layer: 0 mode: 0 #channels: 1 #samples: 36 bitrate: 0 samplerate: 0 flags: "0x0000"
Debug [Main]: BaseTrackPlayerImpl::slotTrackLoaded
Debug [Main]: "D:/Music.noDupes/sort/chaos2/Carl Cox/F.A.C.T. [Disc 2]/2-02 Amphetamine.mp3" fromTrackDuration = 261.851
Debug [Main]: "D:/Music.noDupes/sort/chaos2/Carl Cox/F.A.C.T. [Disc 1]/1-02 Late Night (Mills Mix).mp3" toTrackDuration =  121.861
Debug [Main]: m_fadeDuration "[Channel1]" = 0
Warning [Main]: QPixmap::scaled: Pixmap is a null pixmap
Debug [Main]: WSpinny::slotCoverFound WSpinny(0x1e708176d10, name = "SpinnySingletonWithCover[Channel2]")  "CoverInfoRelative(NONE,GUESSED,,0x0)" QSize(0, 0)
Warning [Main]: QPixmap::scaled: Pixmap is a null pixmap
Debug [Main]: WSpinny::slotCoverFound WSpinny(0x1e708177a80, name = "SpinnySingletonNoCover[Channel2]")  "CoverInfoRelative(NONE,GUESSED,,0x0)" QSize(0, 0)
Debug [AnalyzerQueue 1]: AnalyzerQueue - Analyzing "Late Night (Mills Mix)" "D:/Music.noDupes/sort/chaos2/Carl Cox/F.A.C.T. [Disc 1]/1-02 Late Night (Mills Mix).mp3"
Debug [AnalyzerQueue 1]: SoundSourceProxy - Opening file "file:///D:/Music.noDupes/sort/chaos2/Carl Cox/F.A.C.T. [Disc 1]/1-02 Late Night (Mills Mix).mp3" with provider "MAD: MPEG Audio Decoder" using mode Strict
Warning [Main]: QPixmap::scaled: Pixmap is a null pixmap
Debug [Main]: WCoverArt::slotCoverFound WCoverArt(0x1e72b758c50, name = "DeckCoverArt")  "CoverInfoRelative(NONE,GUESSED,,0x0)" QSize(0, 0)
Debug [AnalyzerQueue 1]: SoundSourceMP3 - MP3 frame header | layer: 0 mode: 0 #channels: 1 #samples: 36 bitrate: 0 samplerate: 0 flags: "0x0000"
Debug [Main]: TrackDAO: Saving track 9926 "D:/Music.noDupes/sort/chaos2/Carl Cox/F.A.C.T. [Disc 2]/2-04 Elektra.mp3"
Debug [Main]: TrackDAO: Updating track in database 9926 "D:/Music.noDupes/sort/chaos2/Carl Cox/F.A.C.T. [Disc 2]/2-04 Elektra.mp3"
Debug [AnalyzerQueue 1]: AnalysisDAO fetched 0 analyses, 0 bytes for track 9911 in 0 ms
Debug [AnalyzerQueue 1]: VampAnalyzer BlockSize:  1024
Debug [AnalyzerQueue 1]: VampAnalyzer StepSize:  512
Debug [AnalyzerQueue 1]: Beat calculation started with plugin "qm-tempotracker:0"
Debug [AnalyzerQueue 1]: VampAnalyzer BlockSize:  32768
Debug [AnalyzerQueue 1]: VampAnalyzer StepSize:  32768
Debug [AnalyzerQueue 1]: Key calculation started with plugin "qm-keydetector:2"
Debug [Main]: BaseTrackCache(0x1e70dd66660) updateIndexWithQuery took 0 ms
Debug [AnalyzerQueue 1]: Writing waveform from byte array: dataSize 107482 allSignalSize 107482 visualSampleRate 441 audioVisualRatio 100
Debug [AnalyzerQueue 1]: AnalysisDAO saved analysis 747 "892599 (396956 compressed)" bytes for track 9911 in 85 ms
Debug [AnalyzerQueue 1]: Saved waveform analysis for trackId 9911 analysisId 747
Debug [AnalyzerQueue 1]: Writing waveform from byte array: dataSize 3842 allSignalSize 3842 visualSampleRate 15.7556 audioVisualRatio 2799
Debug [AnalyzerQueue 1]: AnalysisDAO saved analysis 748 "31774 (15169 compressed)" bytes for track 9911 in 20 ms
Debug [AnalyzerQueue 1]: Saved waveform summary analysis for trackId 9911 analysisId 748
Debug [AnalyzerQueue 1]: AnalyzerWaveform - Waveform generation for track 9911 done 1 s
Debug [AnalyzerQueue 1]: ReplayGain 2.0 (libebur128) result is -3.87522 dB for "D:/Music.noDupes/sort/chaos2/Carl Cox/F.A.C.T. [Disc 1]/1-02 Late Night (Mills Mix).mp3"
Debug [AnalyzerQueue 1]: Beat Calculation complete
Debug [AnalyzerQueue 1]: Key Detection complete
Debug [AnalyzerQueue 1]: Key Histogram
Debug [AnalyzerQueue 1]: 1 : "C" 491520
Debug [AnalyzerQueue 1]: 2 : "D?" 2.03162e+06
Debug [AnalyzerQueue 1]: 3 : "D" 327808
Debug [AnalyzerQueue 1]: 9 : "A?" 163840
Debug [AnalyzerQueue 1]: 10 : "A" 131072
Debug [AnalyzerQueue 1]: 13 : "Cm" 1.5401e+06
Debug [AnalyzerQueue 1]: 14 : "C?m" 327680
Debug [AnalyzerQueue 1]: 15 : "Dm" 360448
Debug [Main]: "D:/Music.noDupes/sort/chaos2/Carl Cox/F.A.C.T. [Disc 1]/1-02 Late Night (Mills Mix).mp3" fromTrackDuration = 121.861
Debug [Main]: "D:/Music.noDupes/sort/chaos2/Carl Cox/F.A.C.T. [Disc 2]/2-02 Amphetamine.mp3" toTrackDuration =  261.851
Debug [Main]: m_fadeDuration "[Channel2]" = 0
Debug [Main]: "D:/Music.noDupes/sort/chaos2/Carl Cox/F.A.C.T. [Disc 1]/1-02 Late Night (Mills Mix).mp3" fromTrackDuration = 121.861
Debug [Main]: "D:/Music.noDupes/sort/chaos2/Carl Cox/F.A.C.T. [Disc 2]/2-02 Amphetamine.mp3" toTrackDuration =  261.851
Debug [Main]: m_fadeDuration "[Channel2]" = 0
Debug [Main]: Committing transaction on "MIXXX-1" result: true
Debug [Main]: PlaylistTableModel(0x1e70aeaede0) select() took 0 ms 73
Debug [Main]: BeatFactory::loadBeatsFromByteArray could not parse serialized beats.
Debug [Main]: BaseTrackCache(0x1e70dd66660) updateIndexWithQuery took 0 ms
Debug [Main]: BaseTrackPlayerImpl::slotLoadTrack "[Channel1]"
Debug [CachingReaderWorker 1]: SoundSourceProxy - Opening file "file:///D:/Music.noDupes/Carl Cox - F.A.C.T. (CD1)/Carl Cox - F.A.C.T. (CD1)/10 Stone Circle _ Deep In You.mp3" with provider "MAD: MPEG Audio Decoder" using mode Strict
Debug [Main]: Committing transaction on "MIXXX-1" result: true
Debug [CachingReaderWorker 1]: SoundSourceMP3 - MP3 frame header | layer: 0 mode: 0 #channels: 1 #samples: 36 bitrate: 0 samplerate: 0 flags: "0x0000"
Debug [Main]: BaseTrackPlayerImpl::slotTrackLoaded
Debug [Main]: "D:/Music.noDupes/sort/chaos2/Carl Cox/F.A.C.T. [Disc 1]/1-02 Late Night (Mills Mix).mp3" fromTrackDuration = 121.861
Debug [Main]: "D:/Music.noDupes/Carl Cox - F.A.C.T. (CD1)/Carl Cox - F.A.C.T. (CD1)/10 Stone Circle _ Deep In You.mp3" toTrackDuration =  233.273
Debug [Main]: m_fadeDuration "[Channel2]" = 0
Warning [Main]: QPixmap::scaled: Pixmap is a null pixmap
Debug [Main]: WSpinny::slotCoverFound WSpinny(0x1e708177fe0, name = "SpinnySingletonWithCover[Channel1]")  "CoverInfoRelative(NONE,GUESSED,,0x0)" QSize(0, 0)
Warning [Main]: QPixmap::scaled: Pixmap is a null pixmap
Debug [Main]: WSpinny::slotCoverFound WSpinny(0x1e708179ac0, name = "SpinnySingletonNoCover[Channel1]")  "CoverInfoRelative(NONE,GUESSED,,0x0)" QSize(0, 0)
Debug [AnalyzerQueue 1]: AnalyzerQueue - Analyzing "Stone Circle / Deep In You" "D:/Music.noDupes/Carl Cox - F.A.C.T. (CD1)/Carl Cox - F.A.C.T. (CD1)/10 Stone Circle _ Deep In You.mp3"
Debug [AnalyzerQueue 1]: SoundSourceProxy - Opening file "file:///D:/Music.noDupes/Carl Cox - F.A.C.T. (CD1)/Carl Cox - F.A.C.T. (CD1)/10 Stone Circle _ Deep In You.mp3" with provider "MAD: MPEG Audio Decoder" using mode Strict
Warning [Main]: QPixmap::scaled: Pixmap is a null pixmap
Debug [Main]: WCoverArt::slotCoverFound WCoverArt(0x1e72c5791b0, name = "DeckCoverArt")  "CoverInfoRelative(NONE,GUESSED,,0x0)" QSize(0, 0)
Debug [AnalyzerQueue 1]: SoundSourceMP3 - MP3 frame header | layer: 0 mode: 0 #channels: 1 #samples: 36 bitrate: 0 samplerate: 0 flags: "0x0000"
Debug [Main]: TrackDAO: Saving track 9924 "D:/Music.noDupes/sort/chaos2/Carl Cox/F.A.C.T. [Disc 2]/2-02 Amphetamine.mp3"
Debug [Main]: TrackDAO: Updating track in database 9924 "D:/Music.noDupes/sort/chaos2/Carl Cox/F.A.C.T. [Disc 2]/2-02 Amphetamine.mp3"
Debug [Main]: BaseTrackCache(0x1e70dd66660) updateIndexWithQuery took 0 ms
Debug [AnalyzerQueue 1]: AnalysisDAO fetched 0 analyses, 0 bytes for track 2670 in 11 ms
Debug [AnalyzerQueue 1]: VampAnalyzer BlockSize:  1024
Debug [AnalyzerQueue 1]: VampAnalyzer StepSize:  512
Debug [AnalyzerQueue 1]: Beat calculation started with plugin "qm-tempotracker:0"
Debug [AnalyzerQueue 1]: VampAnalyzer BlockSize:  32768
Debug [AnalyzerQueue 1]: VampAnalyzer StepSize:  32768
Debug [AnalyzerQueue 1]: Key calculation started with plugin "qm-keydetector:2"
Debug [AnalyzerQueue 1]: Writing waveform from byte array: dataSize 205748 allSignalSize 205748 visualSampleRate 441 audioVisualRatio 100
Debug [AnalyzerQueue 1]: AnalysisDAO saved analysis 749 "1715131 (815173 compressed)" bytes for track 2670 in 163 ms
Debug [AnalyzerQueue 1]: Saved waveform analysis for trackId 2670 analysisId 749
Debug [AnalyzerQueue 1]: Writing waveform from byte array: dataSize 3842 allSignalSize 3842 visualSampleRate 8.23068 audioVisualRatio 5358
Debug [AnalyzerQueue 1]: AnalysisDAO saved analysis 750 "31955 (15553 compressed)" bytes for track 2670 in 20 ms
Debug [AnalyzerQueue 1]: Saved waveform summary analysis for trackId 2670 analysisId 750
Debug [AnalyzerQueue 1]: AnalyzerWaveform - Waveform generation for track 2670 done 2 s
Debug [AnalyzerQueue 1]: ReplayGain 2.0 (libebur128) result is -3.66687 dB for "D:/Music.noDupes/Carl Cox - F.A.C.T. (CD1)/Carl Cox - F.A.C.T. (CD1)/10 Stone Circle _ Deep In You.mp3"
Debug [AnalyzerQueue 1]: Beat Calculation complete
Debug [AnalyzerQueue 1]: Key Detection complete
Debug [AnalyzerQueue 1]: Key Histogram
Debug [AnalyzerQueue 1]: 3 : "D" 2.19546e+06
Debug [AnalyzerQueue 1]: 6 : "F" 458752
Debug [AnalyzerQueue 1]: 8 : "G" 720896
Debug [AnalyzerQueue 1]: 10 : "A" 294912
Debug [AnalyzerQueue 1]: 11 : "B?" 131072
Debug [AnalyzerQueue 1]: 13 : "Cm" 360448
Debug [AnalyzerQueue 1]: 14 : "C?m" 819200
Debug [AnalyzerQueue 1]: 15 : "Dm" 3.11117e+06
Debug [AnalyzerQueue 1]: 20 : "Gm" 2.19546e+06
Debug [Main]: WTrackTableView::loadTrackModel() CrateTableModel(0x1e70a748d98)
Debug [Main]: CrateTableModel(0x1e70a748d98) select() took 0 ms 7
Debug [Main]: trying to restore position
Debug [Main]: Successfully deserialized BeatGrid
Debug [Main]: Successfully deserialized KeyMap
Debug [Main]: BaseTrackCache(0x1e70dd66660) updateIndexWithQuery took 0 ms
Debug [Main]: WCoverArt::slotCoverFound WCoverArt(0x1e729397830, name = "LibraryCoverArt")  "CoverInfoRelative(NONE,GUESSED,,0x0)" QSize(0, 0)
Debug [Main]: dropEventFiles() true (QUrl("file:///D:/Music.noDupes/demoscene/landev/Achievement unlocked - Genocide2600-10225329753497779.mp3"))
Debug [Main]: mimeData.hasText() true "library"
Debug [Main]: dropEventFiles() true (QUrl("file:///D:/Music.noDupes/demoscene/landev/Achievement unlocked - Genocide2600-10225329753497779.mp3"))
Debug [Main]: mimeData.hasText() true "library"
Debug [Main]: BaseTrackPlayerImpl::slotLoadTrack "[Channel3]"
Debug [CachingReaderWorker 3]: SoundSourceProxy - Opening file "file:///D:/Music.noDupes/demoscene/landev/Achievement unlocked - Genocide2600-10225329753497779.mp3" with provider "MAD: MPEG Audio Decoder" using mode Strict
Debug [CachingReaderWorker 3]: SoundSourceMP3 - MP3 frame header | layer: 0 mode: 0 #channels: 1 #samples: 36 bitrate: 0 samplerate: 0 flags: "0x0000"
Debug [Main]: BaseTrackPlayerImpl::slotTrackLoaded
Warning [Main]: QPixmap::scaled: Pixmap is a null pixmap
Debug [AnalyzerQueue 1]: AnalyzerQueue - Analyzing "Achievement unlocked - Genocide2600-10225329753497779" "D:/Music.noDupes/demoscene/landev/Achievement unlocked - Genocide2600-10225329753497779.mp3"
Debug [Main]: WSpinny::slotCoverFound WSpinny(0x1e708178290, name = "SpinnySingletonWithCover[Channel3]")  "CoverInfoRelative(NONE,GUESSED,,0x0)" QSize(0, 0)
Warning [Main]: QPixmap::scaled: Pixmap is a null pixmap
Debug [AnalyzerQueue 1]: SoundSourceProxy - Opening file "file:///D:/Music.noDupes/demoscene/landev/Achievement unlocked - Genocide2600-10225329753497779.mp3" with provider "MAD: MPEG Audio Decoder" using mode Strict
Debug [Main]: WSpinny::slotCoverFound WSpinny(0x1e708178540, name = "SpinnySingletonNoCover[Channel3]")  "CoverInfoRelative(NONE,GUESSED,,0x0)" QSize(0, 0)
Debug [AnalyzerQueue 1]: SoundSourceMP3 - MP3 frame header | layer: 0 mode: 0 #channels: 1 #samples: 36 bitrate: 0 samplerate: 0 flags: "0x0000"
Warning [Main]: QPixmap::scaled: Pixmap is a null pixmap
Debug [Main]: WCoverArt::slotCoverFound WCoverArt(0x1e72c579d30, name = "DeckCoverArt")  "CoverInfoRelative(NONE,GUESSED,,0x0)" QSize(0, 0)
Debug [AnalyzerQueue 1]: AnalysisDAO fetched 2 analyses, 2614786 bytes for track 10572 in 41 ms
Debug [AnalyzerQueue 1]: Reading waveform from byte array: allSignalSize 322580 visualSampleRate 441 audioVisualRatio 108.844
Debug [AnalyzerQueue 1]: Reading waveform from byte array: allSignalSize 3842 visualSampleRate 5.24969 audioVisualRatio 9143.4
Debug [AnalyzerQueue 1]: AnalyzerWaveform - loadStored - Stored waveform loaded
Debug [AnalyzerQueue 1]: Beat calculation will not start
Debug [AnalyzerQueue 1]: Keys version/sub-version unchanged since previous analysis. Not analyzing.
Debug [AnalyzerQueue 1]: Key calculation will not start.
Debug [AnalyzerQueue 1]: AnalyzerQueue - Skipping track analysis because no analyzer initialized.
Debug [Main]: Committing transaction on "MIXXX-1" result: true
Debug [Main]: "D:/Music.noDupes/Carl Cox - F.A.C.T. (CD1)/Carl Cox - F.A.C.T. (CD1)/10 Stone Circle _ Deep In You.mp3" fromTrackDuration = 233.273
Debug [Main]: "D:/Music.noDupes/sort/chaos2/Carl Cox/F.A.C.T. [Disc 1]/1-02 Late Night (Mills Mix).mp3" toTrackDuration =  121.861
Debug [Main]: m_fadeDuration "[Channel1]" = 0
Debug [Main]: "D:/Music.noDupes/Carl Cox - F.A.C.T. (CD1)/Carl Cox - F.A.C.T. (CD1)/10 Stone Circle _ Deep In You.mp3" fromTrackDuration = 233.273
Debug [Main]: "D:/Music.noDupes/sort/chaos2/Carl Cox/F.A.C.T. [Disc 1]/1-02 Late Night (Mills Mix).mp3" toTrackDuration =  121.861
Debug [Main]: m_fadeDuration "[Channel1]" = 0
Debug [Main]: Committing transaction on "MIXXX-1" result: true
Debug [Main]: PlaylistTableModel(0x1e70aeaede0) select() took 1 ms 72
Debug [Main]: Successfully deserialized BeatGrid
Debug [Main]: Successfully deserialized KeyMap
Debug [Main]: BaseTrackCache(0x1e70dd66660) updateIndexWithQuery took 0 ms
Debug [Main]: BaseTrackPlayerImpl::slotLoadTrack "[Channel2]"
Debug [CachingReaderWorker 2]: SoundSourceProxy - Opening file "file:///D:/Music.noDupes/Carl Cox/F.A.C.T. [Disc 2]/2-02 Amphetamine.mp3" with provider "MAD: MPEG Audio Decoder" using mode Strict
Debug [CachingReaderWorker 2]: SoundSourceMP3 - MP3 frame header | layer: 0 mode: 0 #channels: 1 #samples: 36 bitrate: 0 samplerate: 0 flags: "0x0000"
Debug [Main]: BaseTrackPlayerImpl::slotTrackLoaded
Debug [Main]: "D:/Music.noDupes/Carl Cox - F.A.C.T. (CD1)/Carl Cox - F.A.C.T. (CD1)/10 Stone Circle _ Deep In You.mp3" fromTrackDuration = 233.273
Debug [Main]: "D:/Music.noDupes/Carl Cox/F.A.C.T. [Disc 2]/2-02 Amphetamine.mp3" toTrackDuration =  261.851
Debug [Main]: m_fadeDuration "[Channel1]" = 0
Warning [Main]: QPixmap::scaled: Pixmap is a null pixmap
Debug [AnalyzerQueue 1]: AnalyzerQueue - Analyzing "Amphetamine" "D:/Music.noDupes/Carl Cox/F.A.C.T. [Disc 2]/2-02 Amphetamine.mp3"
Debug [Main]: WSpinny::slotCoverFound WSpinny(0x1e708176d10, name = "SpinnySingletonWithCover[Channel2]")  "CoverInfoRelative(NONE,GUESSED,,0x0)" QSize(0, 0)
Debug [AnalyzerQueue 1]: SoundSourceProxy - Opening file "file:///D:/Music.noDupes/Carl Cox/F.A.C.T. [Disc 2]/2-02 Amphetamine.mp3" with provider "MAD: MPEG Audio Decoder" using mode Strict
Warning [Main]: QPixmap::scaled: Pixmap is a null pixmap
Debug [Main]: WSpinny::slotCoverFound WSpinny(0x1e708177a80, name = "SpinnySingletonNoCover[Channel2]")  "CoverInfoRelative(NONE,GUESSED,,0x0)" QSize(0, 0)
Warning [Main]: QPixmap::scaled: Pixmap is a null pixmap
Debug [Main]: WCoverArt::slotCoverFound WCoverArt(0x1e72b758c50, name = "DeckCoverArt")  "CoverInfoRelative(NONE,GUESSED,,0x0)" QSize(0, 0)
Debug [AnalyzerQueue 1]: SoundSourceMP3 - MP3 frame header | layer: 0 mode: 0 #channels: 1 #samples: 36 bitrate: 0 samplerate: 0 flags: "0x0000"
Debug [Main]: TrackDAO: Saving track 9911 "D:/Music.noDupes/sort/chaos2/Carl Cox/F.A.C.T. [Disc 1]/1-02 Late Night (Mills Mix).mp3"
Debug [Main]: TrackDAO: Updating track in database 9911 "D:/Music.noDupes/sort/chaos2/Carl Cox/F.A.C.T. [Disc 1]/1-02 Late Night (Mills Mix).mp3"
Debug [Main]: BaseTrackCache(0x1e70dd66660) updateIndexWithQuery took 0 ms
Debug [AnalyzerQueue 1]: AnalysisDAO fetched 2 analyses, 1895826 bytes for track 2640 in 58 ms
Debug [AnalyzerQueue 1]: Reading waveform from byte array: allSignalSize 230954 visualSampleRate 441 audioVisualRatio 100
Debug [AnalyzerQueue 1]: Reading waveform from byte array: allSignalSize 3842 visualSampleRate 7.3324 audioVisualRatio 6014.4
Debug [AnalyzerQueue 1]: AnalyzerWaveform - loadStored - Stored waveform loaded
Debug [AnalyzerQueue 1]: Beat calculation will not start
Debug [AnalyzerQueue 1]: Keys version/sub-version unchanged since previous analysis. Not analyzing.
Debug [AnalyzerQueue 1]: Key calculation will not start.
Debug [AnalyzerQueue 1]: AnalyzerQueue - Skipping track analysis because no analyzer initialized.
Debug [Main]: Committing transaction on "MIXXX-1" result: true
Debug [Main]: screensaver uninhibited
Debug [Main]: Destroying MixxxMainWindow
Debug [Main]: 0 ms saving configuration
Debug [Main]: 6 ms deleting skin
Debug [Main]: ~DlgAutoDJ()
Debug [Main]: 284 ms deleting menubar
Debug [Main]: 287 ms deleting SoundManager
Debug [Main]: 347 ms deleting ControllerManager
Debug [Controller]: Controller polling stopped.
Debug [Controller]: Deleting PortMIDI devices...
Debug [Controller]: ControllerEngine shutting down...
Debug [Controller]: Deleting HSS1394 devices...
Debug [Controller]: Deleting HID devices...
Debug [Main]: 1321 ms deleting VinylControlManager
Debug [Main]: ~CoverArtCache()
Debug [Main]: 1322 ms deleting PlayerManager
Debug [AnalyzerQueue 1]: AnalyzerQueue - Exiting thread
Debug [Main]: AnalyzerWaveform - ~AnalyzerWaveform():
Debug [Main]: 1354811100 ns deactivating GlobalTrackCache
Debug [Main]: TrackDAO: Saving track 2670 "D:/Music.noDupes/Carl Cox - F.A.C.T. (CD1)/Carl Cox - F.A.C.T. (CD1)/10 Stone Circle _ Deep In You.mp3"
Debug [Main]: TrackDAO: Updating track in database 2670 "D:/Music.noDupes/Carl Cox - F.A.C.T. (CD1)/Carl Cox - F.A.C.T. (CD1)/10 Stone Circle _ Deep In You.mp3"
Debug [Main]: BaseTrackCache(0x1e70dd66660) updateIndexWithQuery took 0 ms
Debug [Main]: TrackDAO: Saving track 10572 "D:/Music.noDupes/demoscene/landev/Achievement unlocked - Genocide2600-10225329753497779.mp3"
Debug [Main]: TrackDAO: Updating track in database 10572 "D:/Music.noDupes/demoscene/landev/Achievement unlocked - Genocide2600-10225329753497779.mp3"
Debug [Main]: BaseTrackCache(0x1e70dd66660) updateIndexWithQuery took 0 ms
Debug [Main]: 1381 ms deleting Library
Debug [Main]: Wait to finish browser background thread
Debug [Main]: Browser background thread terminated!
Info [Main]: Library - Disconnecting database
Debug [Main]: TrackDAO::finish()
Debug [Main]: Clearing played information for this session
Debug [Main]: Cleaning LibraryHashes/track_locations tables.
Debug [Main]: ~TrackDAO()
Debug [LibraryScanner 1]: LibraryScanner - Event loop stopped
Warning [LibraryScanner 1]: QSqlDatabasePrivate::removeDatabase: connection 'MIXXX-2' is still in use, all queries will cease to work.
Debug [LibraryScanner 1]: LibraryScanner - Exiting thread
Debug [Main]: ~TrackDAO()
Debug [Main]: 1535 ms closing database connection(s)
Debug [Main]: 1535 ms deleting RecordingManager
Debug [Main]: Delete RecordingManager
Debug [Main]: 1535 ms deleting BroadcastManager
Debug [Main]: DlgPrefBroadcast - broadcastEnabledChanged() 0
Debug [Main]: 1536 ms deleting EngineMaster
Debug [Main]: in ~EngineMaster()
Debug [Main]: 3350 ms deleting DlgPreferences
Debug [Main]: 3382 ms deleting EffectsManager
Debug [Main]: 3421 ms deleting SettingsManager
Debug [Main]: Mixxx shutdown complete with code 0
