Info [Main]: SoundSourceProxy - Loading SoundSource plugins "C:/Program Files/Mixxx/plugins/soundsource"
Info [Main]: SoundSourcePluginLibrary - Dynamically loaded plugin library "C:/Program Files/Mixxx/plugins/soundsource/soundsourcemediafoundation.dll"
Warning [Main]: SoundSourcePluginLibrary - Failed to dynamically load plugin library "C:/Program Files/Mixxx/plugins/soundsource/soundsourcemediafoundation.exp" : "Cannot load library C:\\Program Files\\Mixxx\\plugins\\soundsource\\soundsourcemediafoundation.exp: Unknown error 0x000000c1."
Warning [Main]: SoundSourceProxy - Failed to load SoundSource plugin "C:/Program Files/Mixxx/plugins/soundsource/soundsourcemediafoundation.exp"
Warning [Main]: SoundSourcePluginLibrary - Failed to dynamically load plugin library "C:/Program Files/Mixxx/plugins/soundsource/soundsourcemediafoundation.lib" : "Cannot load library C:\\Program Files\\Mixxx\\plugins\\soundsource\\soundsourcemediafoundation.lib: Unknown error 0x000000c1."
Warning [Main]: SoundSourceProxy - Failed to load SoundSource plugin "C:/Program Files/Mixxx/plugins/soundsource/soundsourcemediafoundation.lib"
Warning [Main]: SoundSourcePluginLibrary - Failed to dynamically load plugin library "C:/Program Files/Mixxx/plugins/soundsource/soundsourcemediafoundation.pdb" : "Cannot load library C:\\Program Files\\Mixxx\\plugins\\soundsource\\soundsourcemediafoundation.pdb: Unknown error 0x000000c1."
Warning [Main]: SoundSourceProxy - Failed to load SoundSource plugin "C:/Program Files/Mixxx/plugins/soundsource/soundsourcemediafoundation.pdb"
Debug [Main]: "Mixxx" "2.2.4" "(git 2.2 r6798; built on: Jun 25 2020 @ 17:03:13; flags: asan=0 asmlib=0 battery=1 buildtime=1 bulk=0 color=0 coreaudio=0 faad=0 ffmpeg=0 hid=1 hss1394=1 ipod=0 lilv=0 localecompare=1 macappstore=0 mad=1 mediafoundation=1 modplug=0 opengles=0 optimize=portable opus=1 perftools=0 perftools_profiler=0 profiling=0 qt_sqlite_plugin=0 qtkeychain=0 shoutcast=1 test=1 tsan=0 ubsan=0 vamp=1 verbose=0 vinylcontrol=1 wv=0)" is starting...
Debug [Main]: Compile time library versions:
Debug [Main]: Qt: 5.11.1
Debug [Main]: libshout: 2.4.1
Debug [Main]: PortAudio: 1246720 PortAudio V19.6.0-devel, revision 396fe4b6699ae929d3a685b3ef8a7e97396139a4
Debug [Main]: RubberBand: 1.8.1
Debug [Main]: SoundTouch: 2.0.0
Debug [Main]: TagLib: 1.11.1
Debug [Main]: ChromaPrint: 1.3.1
Debug [Main]: Vorbis: Xiph.Org libVorbis 1.3.5
Debug [Main]: libsndfile: libsndfile-1.0.26
Debug [Main]: FLAC: 1.3.1
Debug [Main]: QDesktopServices::storageLocation(HomeLocation): "C:/Users/marc"
Debug [Main]: QDesktopServices::storageLocation(DataLocation): "C:/Users/marc/AppData/Local/Mixxx"
Debug [Main]: QCoreApplication::applicationDirPath() "C:/Program Files/Mixxx"
Debug [Main]: Loading resources from  "C:/Program Files/Mixxx/"
Debug [Main]: Configuration file is at the current version 2.2.4
Info [Main]: BroadcastSettings - Found 1 profile(s)
Debug [Main]: Loading resources from  "C:/Program Files/Mixxx/"
Debug [Main]: Loading resources from  "C:/Program Files/Mixxx/"
Debug [Main]: Loading translations for locale "de_CH" from translations folder "C:/Program Files/Mixxx/translations/" : success
Debug [Main]: "Error: Unable to import console: no such extension"
Debug [Main]: "Error: Unable to import svg: no such extension"
Debug [Main]: Loading resources from  "C:/Program Files/Mixxx/"
Debug [Main]: Compressor attack per frame:  0.000408163 decay per frame:  4.08163e-05
Debug [Main]: EngineNetworkStream - addWorker: worker added
Debug [Main]: EngineNetworkStream - worker slots used: "1 out of 16"
Debug [Main]: BroadcastManager - addConnection: created connection for profile "Connection 1"
Debug [Main]: WARNING: AudioInput already registered!
Debug [Main]: WARNING: AudioInput already registered!
Debug [Main]: WARNING: AudioInput already registered!
Debug [Main]: WARNING: AudioInput already registered!
Info [Main]: DbConnection - Available drivers for database connections: ("QSQLITE")
Info [Main]: DbConnectionPool - Cloned thread-local database connection "MIXXX-1" QSqlDatabase(driver="QSQLITE", database="C:/Users/marc/AppData/Local/Mixxx/mixxxdb.sqlite", host="localhost", port=-1, user="mixxx", open=true)
Info [Main]: MixxxMainWindow - Connecting to database
Info [Main]: MixxxMainWindow - Initializing or upgrading database schema
Info [Main]: SchemaManager - Database schema is up-to-date at version 28
Debug [Main]: LibraryScanner - Starting thread
Info [Main]: Library - Connecting database
Debug [LibraryScanner 1]: LibraryScanner - Entering thread
Info [LibraryScanner 1]: DbConnectionPool - Cloned thread-local database connection "MIXXX-2" QSqlDatabase(driver="QSQLITE", database="C:/Users/marc/AppData/Local/Mixxx/mixxxdb.sqlite", host="localhost", port=-1, user="mixxx", open=true)
Info [LibraryScanner 1]: LibraryScanner - Cleaning up database...
Debug [Main]: Committing transaction on "MIXXX-1" result: true
Info [LibraryScanner 1]: LibraryScanner - Finished database cleanup: 121 ms
Debug [LibraryScanner 1]: LibraryScanner - Event loop starting
Debug [Main]: CrateFeature::rebuildChildModel() -1
Debug [Main]: Default quick links: ("D:/Music.noDupes/", "C:/Users/marc/Music/", "C:/Users/marc/Downloads/", "C:/Users/marc/Desktop/", "C:/Users/marc/Documents/")
Debug [Main]: Appending Quick Link:  "Music.noDupes" --- "D:/Music.noDupes/"
Debug [Main]: Appending Quick Link:  "Music" --- "C:/Users/marc/Music/"
Debug [Main]: Appending Quick Link:  "Downloads" --- "C:/Users/marc/Downloads/"
Debug [Main]: Appending Quick Link:  "Desktop" --- "C:/Users/marc/Desktop/"
Debug [Main]: Appending Quick Link:  "Documents" --- "C:/Users/marc/Documents/"
Debug [Main]: Committing transaction on "MIXXX-1" result: true
Debug [Main]: Traktor Library Location=[ "C:/Users/marc/collection.nml" ]
Debug [Main]: Checking for access to user's library directories:
Debug [Main]: Checking for access to "D:/Music.noDupes" : true
Debug [AnalyzerQueue 1]: AnalyzerQueue - Entering thread
Info [AnalyzerQueue 1]: DbConnectionPool - Cloned thread-local database connection "MIXXX-3" QSqlDatabase(driver="QSQLITE", database="C:/Users/marc/AppData/Local/Mixxx/mixxxdb.sqlite", host="localhost", port=-1, user="mixxx", open=true)
Debug [Main]: Creating ControllerManager
Debug [Controller]: ControllerManager:slotInitialize
Debug [Main]: Set root GL Context widget valid: QGLWidget(0x19972af7240) true
Debug [Main]: Created root GL Context valid: 0x19972c12290 true
Debug [Main]: Root GL Context format:
Debug [Main]: Double Buffering: true
Debug [Main]: Swap interval: 1
Debug [Main]: Depth buffer: true
Debug [Main]: Direct rendering: true
Debug [Main]: Has overlay: false
Debug [Main]: RGBA: true
Debug [Main]: Sample buffers: false
Debug [Main]: Samples: -1
Debug [Main]: Stencil buffers: true
Debug [Main]: Stereo: false
Debug [Main]: "openGLVersionFlags 0xff07f" "4.6.0 NVIDIA 456.71" "NVIDIA Corporation" "GeForce GTX 1060 6GB/PCIe/SSE2"
Debug [Main]: screensaver inhibited
Debug [Main]: ControllerManager::getControllerList
Info [Main]: VampPluginAdapter - Current VAMP_PATH is: ""
Info [Main]: VampPluginAdapter - Setting VAMP_PATH to: "C:\\Program Files\\Mixxx\\plugins\\vamp"
Debug [Main]: VampPluginLoader::listPlugins() returned 4 plugins
Debug [Main]: Plugin output displayname: "mixxxbpmdetection:0" "SoundTouch BPM Detector (Legacy)"
Debug [Main]: Plugin output displayname: "qm-barbeattracker:0" "Bar and Beat Tracker"
Debug [Main]: Plugin output displayname: "qm-barbeattracker:1" "Bar and Beat Tracker"
Debug [Main]: Plugin output displayname: "qm-barbeattracker:2" "Bar and Beat Tracker"
Debug [Main]: Plugin output displayname: "qm-barbeattracker:3" "Bar and Beat Tracker"
Debug [Main]: Plugin output displayname: "qm-keydetector:0" "Key Detector"
Debug [Main]: Plugin output displayname: "qm-keydetector:1" "Key Detector"
Debug [Main]: Plugin output displayname: "qm-keydetector:2" "Key Detector"
Debug [Main]: Plugin output displayname: "qm-keydetector:3" "Key Detector"
Debug [Main]: Plugin output displayname: "qm-tempotracker:0" "Tempo and Beat Tracker"
Debug [Main]: Plugin output displayname: "qm-tempotracker:1" "Tempo and Beat Tracker"
Debug [Main]: Plugin output displayname: "qm-tempotracker:2" "Tempo and Beat Tracker"
Debug [Main]: VampPluginLoader::listPlugins() returned 4 plugins
Debug [Main]: Plugin output displayname: "mixxxbpmdetection:0" "SoundTouch BPM Detector (Legacy)"
Debug [Main]: Plugin output displayname: "qm-barbeattracker:0" "Bar and Beat Tracker"
Debug [Main]: Plugin output displayname: "qm-barbeattracker:1" "Bar and Beat Tracker"
Debug [Main]: Plugin output displayname: "qm-barbeattracker:2" "Bar and Beat Tracker"
Debug [Main]: Plugin output displayname: "qm-barbeattracker:3" "Bar and Beat Tracker"
Debug [Main]: Plugin output displayname: "qm-keydetector:0" "Key Detector"
Debug [Main]: Plugin output displayname: "qm-keydetector:1" "Key Detector"
Debug [Main]: Plugin output displayname: "qm-keydetector:2" "Key Detector"
Debug [Main]: Plugin output displayname: "qm-keydetector:3" "Key Detector"
Debug [Main]: Plugin output displayname: "qm-tempotracker:0" "Tempo and Beat Tracker"
Debug [Main]: Plugin output displayname: "qm-tempotracker:1" "Tempo and Beat Tracker"
Debug [Main]: Plugin output displayname: "qm-tempotracker:2" "Tempo and Beat Tracker"
Debug [Main]: DlgPrefKey::loadSettings
Debug [Main]: Key plugin ID: "qm-keydetector:2"
Debug [Main]: LegacySkinParser loading skin: "C:/Program Files/Mixxx/skins/Deere"
Debug [Main]: "Error: Unable to import console: no such extension"
Debug [Main]: "Error: Unable to import svg: no such extension"
Debug [Main]: Skin is a >=1.12.0 style skin.
Debug [Main]: WSpinny(): Created QGLWidget, Context Valid: true Sharing: true
Debug [Main]: WSpinny(): Created QGLWidget, Context Valid: true Sharing: true
Debug [Main]: Created QGLWidget. Context Valid: true Sharing: true
Debug [Main]: GLWaveformRendererSignalShader::loadShaders
Debug [Main]: WaveformWidgetFactory::setWaveformWidget - waveform widget added in factory, index 0
Debug [Main]: WSpinny(): Created QGLWidget, Context Valid: true Sharing: true
Debug [Main]: WSpinny(): Created QGLWidget, Context Valid: true Sharing: true
Debug [Main]: Created QGLWidget. Context Valid: true Sharing: true
Debug [Main]: GLWaveformRendererSignalShader::loadShaders
Debug [Main]: WaveformWidgetFactory::setWaveformWidget - waveform widget added in factory, index 1
Debug [Main]: WSpinny(): Created QGLWidget, Context Valid: true Sharing: true
Debug [Main]: WSpinny(): Created QGLWidget, Context Valid: true Sharing: true
Debug [Main]: Created QGLWidget. Context Valid: true Sharing: true
Debug [Main]: GLWaveformRendererSignalShader::loadShaders
Debug [Main]: WaveformWidgetFactory::setWaveformWidget - waveform widget added in factory, index 2
Debug [Main]: WSpinny(): Created QGLWidget, Context Valid: true Sharing: true
Debug [Main]: WSpinny(): Created QGLWidget, Context Valid: true Sharing: true
Debug [Main]: Created QGLWidget. Context Valid: true Sharing: true
Debug [Main]: GLWaveformRendererSignalShader::loadShaders
Debug [Main]: WaveformWidgetFactory::setWaveformWidget - waveform widget added in factory, index 3
Debug [Main]: WSearchLineEdit - Background color: QColor(ARGB 1, 1, 1, 1)
Debug [Main]: WSearchLineEdit - Foreground color: QColor(ARGB 1, 0, 0, 0)
Debug [Main]: WTrackTableView::loadTrackModel() HiddenTableModel(0x19905b0b690)
Debug [Main]: WTrackTableView::loadTrackModel() MissingTableModel(0x19905b0b850)
Debug [Main]: WTrackTableView::loadTrackModel() PlaylistTableModel(0x19968b6a090)
Debug [Main]: Recordings folder set to "C:/Program Files/Mixxx"
Debug [Main]: WTrackTableView::loadTrackModel() QSortFilterProxyModel(0x1990a33e088)
Debug [BrowseThread]: Append last  0
Debug [Main]: WTrackTableView::loadTrackModel() AnalysisLibraryTableModel(0x19905b0ba10)
Debug [Main]: BaseTrackCache(0x1996b333930) updateIndexWithQuery took 81 ms
Debug [Main]: AnalysisLibraryTableModel(0x19905b0ba10) select() took 138 ms 0
Debug [Main]: AnalysisLibraryTableModel(0x19905b0ba10) select() took 40 ms 0
Debug [Main]: DlgAnalysis(0x1990a84e520, name="DlgAnalysis") analysisActive false
Debug [Controller]: Extension .midi.xml total 120 presets
Debug [Controller]: Extension .hid.xml total 32 presets
Debug [Controller]: Extension .bulk.xml total 1 presets
Warning [Main]: src\skin\legacyskinparser.cpp:2110 SKIN ERROR at skin:tool_bar.xml:344 <Connection>: LegacySkinParser::setupConnections(): EmitOnPressAndRelease must not set false
Warning [Main]: src\skin\legacyskinparser.cpp:2110 SKIN ERROR at skin:skin_settings.xml:40 <Connection>: LegacySkinParser::setupConnections(): EmitOnPressAndRelease must not set false
Debug [Main]: MixxxLibraryFeature::activate()
Debug [Main]: WTrackTableView::loadTrackModel() LibraryTableModel(0x19970edf8c0)
Debug [Main]: LibraryTableModel(0x19970edf8c0) select() took 66 ms 10574
Debug [Main]: trying to restore position
Debug [Controller]: ControllerManager: Setting up devices
Debug [Controller]: Scanning PortMIDI devices:
Debug [Controller]:  Found output device # 0 Microsoft MIDI Mapper
Debug [Controller]:  Found output device # 6 Microsoft GS Wavetable Synth
Debug [Controller]:  Found output device # 7 APC MINI
Debug [Controller]:  Found output device # 8 APC MINI
Debug [Controller]:  Found output device # 9 X-TOUCH MINI
Debug [Controller]:  Found output device # 10 Arturia BeatStep
Debug [Controller]:  Found output device # 11 APC Key 25
Debug [Controller]:  Found input device # 1 APC MINI
Debug [Controller]:     Linking to output device # 7 "APC MINI"
Debug [Controller]:  Found input device # 2 APC MINI
Debug [Controller]:     Linking to output device # 8 "APC MINI"
Debug [Controller]:  Found input device # 3 X-TOUCH MINI
Debug [Controller]:     Linking to output device # 9 "X-TOUCH MINI"
Debug [Controller]:  Found input device # 4 Arturia BeatStep
Debug [Controller]:     Linking to output device # 10 "Arturia BeatStep"
Debug [Controller]:  Found input device # 5 APC Key 25
Debug [Controller]:     Linking to output device # 11 "APC Key 25"
Debug [Controller]: Scanning HSS1394 devices:
Debug [Controller]:    Nodes detected: 0
Debug [Controller]: Scanning HID devices:
Debug [Main]: BaseTrackPlayerImpl::slotLoadTrack "[Sampler1]"
Debug [Main]: BaseTrackPlayerImpl::slotLoadTrack "[Sampler2]"
Debug [Main]: BaseTrackPlayerImpl::slotLoadTrack "[Sampler3]"
Debug [Main]: BaseTrackPlayerImpl::slotLoadTrack "[Sampler4]"
Debug [Main]: BaseTrackPlayerImpl::slotLoadTrack "[Sampler5]"
Debug [Main]: BaseTrackPlayerImpl::slotLoadTrack "[Sampler6]"
Debug [Main]: BaseTrackPlayerImpl::slotLoadTrack "[Sampler7]"
Debug [Main]: BaseTrackPlayerImpl::slotLoadTrack "[Sampler8]"
Debug [Main]: BaseTrackPlayerImpl::slotLoadTrack "[Sampler9]"
Debug [Main]: BaseTrackPlayerImpl::slotLoadTrack "[Sampler10]"
Debug [Main]: BaseTrackPlayerImpl::slotLoadTrack "[Sampler11]"
Debug [Main]: BaseTrackPlayerImpl::slotLoadTrack "[Sampler12]"
Debug [Main]: BaseTrackPlayerImpl::slotLoadTrack "[Sampler13]"
Debug [Main]: BaseTrackPlayerImpl::slotLoadTrack "[Sampler14]"
Debug [Main]: BaseTrackPlayerImpl::slotLoadTrack "[Sampler15]"
Debug [Main]: BaseTrackPlayerImpl::slotLoadTrack "[Sampler16]"
Debug [Main]: BaseTrackPlayerImpl::slotLoadTrack "[Sampler17]"
Debug [Main]: BaseTrackPlayerImpl::slotLoadTrack "[Sampler18]"
Debug [Main]: BaseTrackPlayerImpl::slotLoadTrack "[Sampler19]"
Debug [Controller]: Found "RODE Microphones" "RODE NT-USB" "r256" S/N "" "Interface 3"
Debug [Controller]: Found "Logitech" "USB Receiver" "r4617" S/N "" "Interface 1"
Debug [Controller]: Found "Logitech" "USB Receiver" "r4617" S/N "" "Interface 1"
Debug [Controller]: Found "Logitech" "USB Receiver" "r4617" S/N "" "Interface 2"
Debug [Controller]: Found "Logitech" "USB Receiver" "r4617" S/N "" "Interface 1"
Debug [Controller]: Found "Logitech" "USB Receiver" "r4617" S/N "" "Interface 1"
Debug [Controller]: Found "Logitech" "USB Receiver" "r4625" S/N "" "Interface 1"
Debug [Controller]: Found "Logitech" "USB Optical Mouse" "r29184" S/N "" "Usage Page 1 Usage 2"
Debug [Controller]: Found "" "USB PnP Audio Device" "r256" S/N "" "Interface 3"
Debug [Controller]: Found "Logitech" "USB Receiver" "r4625" S/N "" "Interface 1"
Debug [Controller]: Found "Wacom Co.,Ltd." "Intuos BT M" "r273" S/N "8CH00U2016855" "Usage Page 65293 Usage 1"
Debug [Controller]: Found "Logitech" "USB Receiver" "r4625" S/N "" "Interface 1"
Debug [Controller]: Found "Logitech" "USB Receiver" "r4625" S/N "" "Interface 2"
Debug [Controller]: Found "Logitech" "USB Receiver" "r4625" S/N "" "Interface 2"
Debug [Controller]: Found "Logitech" "USB Receiver" "r4625" S/N "" "Interface 2"
Debug [Controller]: Found "Logitech" "USB Receiver" "r4617" S/N "" "Interface 0"
Debug [Controller]: Found "Logitech" "USB Receiver" "r4617" S/N "" "Interface 2"
Debug [Controller]: Found "Logitech" "USB Receiver" "r4625" S/N "" "Interface 0"
Debug [Controller]: Found "RODE Microphones" "RODE NT-USB" "r256" S/N "" "Interface 3"
Debug [Controller]: Found "Logitech" "USB Receiver" "r4625" S/N "" "Interface 1"
Debug [Controller]: Found "Logitech" "USB Receiver" "r4617" S/N "" "Interface 2"
Debug [Controller]: ControllerManager::getControllerList
Debug [Controller]: Searching for controller preset "APC_MINI.midi.xml" in paths: "C:/Users/marc/AppData/Local/Mixxx/controllers/,C:/Program Files/Mixxx/controllers/"
Debug [Controller]: Loading controller preset from "C:/Users/marc/AppData/Local/Mixxx/controllers/APC_MINI.midi.xml"
Debug [Controller]: MidiControllerPresetFileHandler: Input mapping parsing complete.
Debug [Controller]: MidiPresetFileHandler: Output mapping parsing complete.
Debug [Controller]: Searching for controller preset "APC_MINI--2.midi.xml" in paths: "C:/Users/marc/AppData/Local/Mixxx/controllers/,C:/Program Files/Mixxx/controllers/"
Debug [Controller]: Loading controller preset from "C:/Users/marc/AppData/Local/Mixxx/controllers/APC_MINI--2.midi.xml"
Debug [Controller]: MidiControllerPresetFileHandler: Input mapping parsing complete.
Debug [Controller]: MidiPresetFileHandler: Output mapping parsing complete.
Debug [Controller]: Searching for controller preset "X-TOUCH_MINI.midi.xml" in paths: "C:/Users/marc/AppData/Local/Mixxx/controllers/,C:/Program Files/Mixxx/controllers/"
Debug [Controller]: Loading controller preset from "C:/Users/marc/AppData/Local/Mixxx/controllers/X-TOUCH_MINI.midi.xml"
Debug [Controller]: MidiControllerPresetFileHandler: Input mapping parsing complete.
Debug [Controller]: MidiPresetFileHandler: Output mapping parsing complete.
Debug [Controller]: Opening controller: "X-TOUCH MINI"
Warning [Controller]: PortMidi error: PortMidi: `Host error'
Warning [Controller]: There was a problem opening "X-TOUCH MINI"
Debug [Controller]: Searching for controller preset "Arturia_BeatStep.midi.xml" in paths: "C:/Users/marc/AppData/Local/Mixxx/controllers/,C:/Program Files/Mixxx/controllers/"
Debug [Controller]: Loading controller preset from "C:/Users/marc/AppData/Local/Mixxx/controllers/Arturia_BeatStep.midi.xml"
Debug [Controller]: MidiControllerPresetFileHandler: Input mapping parsing complete.
Debug [Controller]: MidiPresetFileHandler: Output mapping parsing complete.
Debug [Controller]: Searching for controller preset "APC_Key_25.midi.xml" in paths: "C:/Users/marc/AppData/Local/Mixxx/controllers/,C:/Program Files/Mixxx/controllers/"
Debug [Controller]: Loading controller preset from "C:/Users/marc/AppData/Local/Mixxx/controllers/APC_Key_25.midi.xml"
Debug [Controller]: MidiControllerPresetFileHandler: Input mapping parsing complete.
Debug [Controller]: MidiPresetFileHandler: Output mapping parsing complete.
Debug [Controller]: Searching for controller preset "RODE_NT-USB__3.hid.xml" in paths: "C:/Users/marc/AppData/Local/Mixxx/controllers/,C:/Program Files/Mixxx/controllers/"
Debug [Controller]: Loading controller preset from "C:/Users/marc/AppData/Local/Mixxx/controllers/RODE_NT-USB__3.hid.xml"
Debug [Controller]: Searching for controller preset "USB_Receiver__1.hid.xml" in paths: "C:/Users/marc/AppData/Local/Mixxx/controllers/,C:/Program Files/Mixxx/controllers/"
Debug [Controller]: Loading controller preset from "C:/Users/marc/AppData/Local/Mixxx/controllers/USB_Receiver__1.hid.xml"
Debug [Controller]: Searching for controller preset "USB_Receiver__1--2.hid.xml" in paths: "C:/Users/marc/AppData/Local/Mixxx/controllers/,C:/Program Files/Mixxx/controllers/"
Debug [Controller]: Loading controller preset from "C:/Users/marc/AppData/Local/Mixxx/controllers/USB_Receiver__1--2.hid.xml"
Debug [Controller]: Searching for controller preset "USB_Receiver__2.hid.xml" in paths: "C:/Users/marc/AppData/Local/Mixxx/controllers/,C:/Program Files/Mixxx/controllers/"
Debug [Controller]: Loading controller preset from "C:/Users/marc/AppData/Local/Mixxx/controllers/USB_Receiver__2.hid.xml"
Debug [Controller]: Searching for controller preset "USB_Receiver__1--3.hid.xml" in paths: "C:/Users/marc/AppData/Local/Mixxx/controllers/,C:/Program Files/Mixxx/controllers/"
Debug [Controller]: Loading controller preset from "C:/Users/marc/AppData/Local/Mixxx/controllers/USB_Receiver__1--3.hid.xml"
Debug [Controller]: Searching for controller preset "USB_Receiver__1--4.hid.xml" in paths: "C:/Users/marc/AppData/Local/Mixxx/controllers/,C:/Program Files/Mixxx/controllers/"
Debug [Controller]: Loading controller preset from "C:/Users/marc/AppData/Local/Mixxx/controllers/USB_Receiver__1--4.hid.xml"
Debug [Controller]: Searching for controller preset "USB_Receiver__1--5.hid.xml" in paths: "C:/Users/marc/AppData/Local/Mixxx/controllers/,C:/Program Files/Mixxx/controllers/"
Debug [Controller]: Loading controller preset from "C:/Users/marc/AppData/Local/Mixxx/controllers/USB_Receiver__1--5.hid.xml"
Debug [Controller]: Searching for controller preset "USB_Optical_Mouse_.hid.xml" in paths: "C:/Users/marc/AppData/Local/Mixxx/controllers/,C:/Program Files/Mixxx/controllers/"
Debug [Controller]: Loading controller preset from "C:/Users/marc/AppData/Local/Mixxx/controllers/USB_Optical_Mouse_.hid.xml"
Debug [Controller]: Searching for controller preset "USB_PnP_Audio_Device__3.hid.xml" in paths: "C:/Users/marc/AppData/Local/Mixxx/controllers/,C:/Program Files/Mixxx/controllers/"
Debug [Controller]: Loading controller preset from "C:/Users/marc/AppData/Local/Mixxx/controllers/USB_PnP_Audio_Device__3.hid.xml"
Debug [Controller]: Searching for controller preset "USB_Receiver__1--6.hid.xml" in paths: "C:/Users/marc/AppData/Local/Mixxx/controllers/,C:/Program Files/Mixxx/controllers/"
Debug [Main]: BaseTrackPlayerImpl::slotLoadTrack "[Sampler20]"
Debug [Controller]: Loading controller preset from "C:/Users/marc/AppData/Local/Mixxx/controllers/USB_Receiver__1--6.hid.xml"
Debug [Controller]: Searching for controller preset "Intuos_BT_M_6855.hid.xml" in paths: "C:/Users/marc/AppData/Local/Mixxx/controllers/,C:/Program Files/Mixxx/controllers/"
Debug [Controller]: Loading controller preset from "C:/Users/marc/AppData/Local/Mixxx/controllers/Intuos_BT_M_6855.hid.xml"
Debug [Controller]: Searching for controller preset "USB_Receiver__1--7.hid.xml" in paths: "C:/Users/marc/AppData/Local/Mixxx/controllers/,C:/Program Files/Mixxx/controllers/"
Debug [Controller]: Loading controller preset from "C:/Users/marc/AppData/Local/Mixxx/controllers/USB_Receiver__1--7.hid.xml"
Debug [Controller]: Searching for controller preset "USB_Receiver__2--2.hid.xml" in paths: "C:/Users/marc/AppData/Local/Mixxx/controllers/,C:/Program Files/Mixxx/controllers/"
Debug [Controller]: Loading controller preset from "C:/Users/marc/AppData/Local/Mixxx/controllers/USB_Receiver__2--2.hid.xml"
Debug [Controller]: Searching for controller preset "USB_Receiver__2--3.hid.xml" in paths: "C:/Users/marc/AppData/Local/Mixxx/controllers/,C:/Program Files/Mixxx/controllers/"
Debug [Controller]: Loading controller preset from "C:/Users/marc/AppData/Local/Mixxx/controllers/USB_Receiver__2--3.hid.xml"
Debug [Controller]: Searching for controller preset "USB_Receiver__2--4.hid.xml" in paths: "C:/Users/marc/AppData/Local/Mixxx/controllers/,C:/Program Files/Mixxx/controllers/"
Debug [Controller]: Loading controller preset from "C:/Users/marc/AppData/Local/Mixxx/controllers/USB_Receiver__2--4.hid.xml"
Debug [Controller]: Searching for controller preset "USB_Receiver__0.hid.xml" in paths: "C:/Users/marc/AppData/Local/Mixxx/controllers/,C:/Program Files/Mixxx/controllers/"
Debug [Controller]: Loading controller preset from "C:/Users/marc/AppData/Local/Mixxx/controllers/USB_Receiver__0.hid.xml"
Debug [Controller]: Searching for controller preset "USB_Receiver__2--5.hid.xml" in paths: "C:/Users/marc/AppData/Local/Mixxx/controllers/,C:/Program Files/Mixxx/controllers/"
Debug [Controller]: Loading controller preset from "C:/Users/marc/AppData/Local/Mixxx/controllers/USB_Receiver__2--5.hid.xml"
Debug [Controller]: Searching for controller preset "USB_Receiver__0--2.hid.xml" in paths: "C:/Users/marc/AppData/Local/Mixxx/controllers/,C:/Program Files/Mixxx/controllers/"
Debug [Controller]: Loading controller preset from "C:/Users/marc/AppData/Local/Mixxx/controllers/USB_Receiver__0--2.hid.xml"
Debug [Controller]: Searching for controller preset "RODE_NT-USB__3--2.hid.xml" in paths: "C:/Users/marc/AppData/Local/Mixxx/controllers/,C:/Program Files/Mixxx/controllers/"
Debug [Controller]: Loading controller preset from "C:/Users/marc/AppData/Local/Mixxx/controllers/RODE_NT-USB__3--2.hid.xml"
Debug [Controller]: Searching for controller preset "USB_Receiver__1--8.hid.xml" in paths: "C:/Users/marc/AppData/Local/Mixxx/controllers/,C:/Program Files/Mixxx/controllers/"
Debug [Controller]: Loading controller preset from "C:/Users/marc/AppData/Local/Mixxx/controllers/USB_Receiver__1--8.hid.xml"
Debug [Controller]: Searching for controller preset "USB_Receiver__2--6.hid.xml" in paths: "C:/Users/marc/AppData/Local/Mixxx/controllers/,C:/Program Files/Mixxx/controllers/"
Debug [Controller]: Loading controller preset from "C:/Users/marc/AppData/Local/Mixxx/controllers/USB_Receiver__2--6.hid.xml"
Debug [Controller]: Controller polling stopped.
Debug [Main]: BaseTrackPlayerImpl::slotLoadTrack "[Sampler21]"
Debug [Main]: BaseTrackPlayerImpl::slotLoadTrack "[Sampler22]"
Debug [Main]: BaseTrackPlayerImpl::slotLoadTrack "[Sampler23]"
Debug [Main]: BaseTrackPlayerImpl::slotLoadTrack "[Sampler24]"
Debug [Main]: BaseTrackPlayerImpl::slotLoadTrack "[Sampler25]"
Debug [Main]: BaseTrackPlayerImpl::slotLoadTrack "[Sampler26]"
Debug [Main]: BaseTrackPlayerImpl::slotLoadTrack "[Sampler27]"
Debug [Main]: BaseTrackPlayerImpl::slotLoadTrack "[Sampler28]"
Debug [Main]: BaseTrackPlayerImpl::slotLoadTrack "[Sampler29]"
Debug [Main]: BaseTrackPlayerImpl::slotLoadTrack "[Sampler30]"
Debug [Main]: BaseTrackPlayerImpl::slotLoadTrack "[Sampler31]"
Debug [Main]: BaseTrackPlayerImpl::slotLoadTrack "[Sampler32]"
Debug [Main]: BaseTrackPlayerImpl::slotLoadTrack "[Sampler33]"
Debug [Main]: BaseTrackPlayerImpl::slotLoadTrack "[Sampler34]"
Debug [Main]: BaseTrackPlayerImpl::slotLoadTrack "[Sampler35]"
Debug [Main]: BaseTrackPlayerImpl::slotLoadTrack "[Sampler36]"
Debug [Main]: BaseTrackPlayerImpl::slotLoadTrack "[Sampler37]"
Debug [Main]: BaseTrackPlayerImpl::slotLoadTrack "[Sampler38]"
Debug [Main]: BaseTrackPlayerImpl::slotLoadTrack "[Sampler39]"
Debug [Main]: BaseTrackPlayerImpl::slotLoadTrack "[Sampler40]"
Debug [Main]: BaseTrackPlayerImpl::slotLoadTrack "[Sampler41]"
Debug [Main]: BaseTrackPlayerImpl::slotLoadTrack "[Sampler42]"
Debug [Main]: BaseTrackPlayerImpl::slotLoadTrack "[Sampler43]"
Debug [Main]: BaseTrackPlayerImpl::slotLoadTrack "[Sampler44]"
Debug [Main]: BaseTrackPlayerImpl::slotLoadTrack "[Sampler45]"
Debug [Main]: BaseTrackPlayerImpl::slotLoadTrack "[Sampler46]"
Debug [Main]: BaseTrackPlayerImpl::slotLoadTrack "[Sampler47]"
Debug [Main]: BaseTrackPlayerImpl::slotLoadTrack "[Sampler48]"
Debug [Main]: BaseTrackPlayerImpl::slotLoadTrack "[Sampler49]"
Debug [Main]: BaseTrackPlayerImpl::slotLoadTrack "[Sampler50]"
Debug [Main]: BaseTrackPlayerImpl::slotLoadTrack "[Sampler51]"
Debug [Main]: BaseTrackPlayerImpl::slotLoadTrack "[Sampler52]"
Debug [Main]: BaseTrackPlayerImpl::slotLoadTrack "[Sampler53]"
Debug [Main]: BaseTrackPlayerImpl::slotLoadTrack "[Sampler54]"
Debug [Main]: BaseTrackPlayerImpl::slotLoadTrack "[Sampler55]"
Debug [Main]: BaseTrackPlayerImpl::slotLoadTrack "[Sampler56]"
Debug [Main]: BaseTrackPlayerImpl::slotLoadTrack "[Sampler57]"
Debug [Main]: BaseTrackPlayerImpl::slotLoadTrack "[Sampler58]"
Debug [Main]: BaseTrackPlayerImpl::slotLoadTrack "[Sampler59]"
Debug [Main]: BaseTrackPlayerImpl::slotLoadTrack "[Sampler60]"
Debug [Main]: BaseTrackPlayerImpl::slotLoadTrack "[Sampler61]"
Debug [Main]: BaseTrackPlayerImpl::slotLoadTrack "[Sampler62]"
Debug [Main]: BaseTrackPlayerImpl::slotLoadTrack "[Sampler63]"
Debug [Main]: BaseTrackPlayerImpl::slotLoadTrack "[Sampler64]"
Debug [Main]: SoundManager::setupDevices()
Debug [Main]: SoundDevicePortAudio::open() "SoundDeviceId(CABLE-B Input (VB-Audio Cable B, \u0019)"
Debug [Main]: framesPerBuffer: 2048
Debug [Main]: Requested sample rate:  48000 Hz, latency: 42.6667 ms
Debug [Main]: Output channels: 2 | Input channels: 0
Debug [Main]: Opening stream with id 25
Debug [Main]: Opened PortAudio stream successfully... starting
Debug [Main]: PortAudio: Started stream successfully
Debug [Main]:    Actual sample rate:  48000 Hz, latency: 42.6667 ms
Debug [Main]: Compressor attack per frame:  0.000375 decay per frame:  3.75e-05
Debug [Main]: SoundDeviceNetwork - open: "Network stream"
Debug [Main]: framesPerBuffer: 2048
Debug [Main]: Requested sample rate:  48000 Hz, latency: 42666666 ns
Debug [Main]: Using "CABLE-B Input (VB-Audio Cable B" as output sound device clock reference
Debug [Main]: 2 output sound devices opened
Debug [Main]: 0 input sound devices opened
Debug [Main]: Displaying main window
Debug [Main]: Running Mixxx
Debug [Main]: ControllerManager::getControllerList
Debug [Main]: Setting input delegate for column 0 QStyledItemDelegate(0x19933e02c50)
Debug [Main]: Setting input delegate for column 1 QStyledItemDelegate(0x19933e027d0)
Debug [Main]: Setting input delegate for column 2 QStyledItemDelegate(0x19933e03270)
Debug [Main]: Setting input delegate for column 3 MidiOptionsDelegate(0x19933e03490)
Debug []: SSE: Enabling denormals to zero mode
Debug []: SSE: Enabling flush to zero mode
Debug []: Denormals to zero mode is working
Debug [Main]: Setting input delegate for column 4 ControlDelegate(0x19933790690)
Debug [Main]: Setting output delegate for column 0 QStyledItemDelegate(0x199372a8040)
Debug [Main]: Setting output delegate for column 1 QStyledItemDelegate(0x199372a8060)
Debug [Main]: Setting output delegate for column 2 QStyledItemDelegate(0x199372a7e00)
Debug [Main]: Setting output delegate for column 3 QStyledItemDelegate(0x199372a80e0)
Debug [Main]: Setting output delegate for column 4 QStyledItemDelegate(0x199372a79c0)
Debug [Main]: Setting output delegate for column 5 ControlDelegate(0x199373b6bc0)
Debug [Main]: Setting input delegate for column 0 QStyledItemDelegate(0x19939d070f0)
Debug [Main]: Setting input delegate for column 1 QStyledItemDelegate(0x19939d073b0)
Debug [Main]: Setting input delegate for column 2 QStyledItemDelegate(0x19939d06fd0)
Debug [Main]: Setting input delegate for column 3 MidiOptionsDelegate(0x19939d06cd0)
Debug [Main]: Setting input delegate for column 4 ControlDelegate(0x19939d1c390)
Debug [Main]: Setting output delegate for column 0 QStyledItemDelegate(0x1993c615db0)
Debug [Main]: Setting output delegate for column 1 QStyledItemDelegate(0x1993c6159d0)
Debug [Main]: Setting output delegate for column 2 QStyledItemDelegate(0x1993c616110)
Debug [Main]: Setting output delegate for column 3 QStyledItemDelegate(0x1993c615e90)
Debug [Main]: Setting output delegate for column 4 QStyledItemDelegate(0x1993c615a10)
Debug [Main]: Setting output delegate for column 5 ControlDelegate(0x1993c6ffe00)
Debug [Main]: Setting input delegate for column 0 QStyledItemDelegate(0x1993f0c74a0)
Debug [Main]: Setting input delegate for column 1 QStyledItemDelegate(0x1993f0c78e0)
Debug [Main]: Setting input delegate for column 2 QStyledItemDelegate(0x1993f0c74c0)
Debug [Main]: Setting input delegate for column 3 MidiOptionsDelegate(0x1993f0c7760)
Debug [Main]: Setting input delegate for column 4 ControlDelegate(0x1993f065c50)
Debug [Main]: Setting output delegate for column 0 QStyledItemDelegate(0x199419ac290)
Debug [Main]: Setting output delegate for column 1 QStyledItemDelegate(0x199419ac4b0)
Debug [Main]: Setting output delegate for column 2 QStyledItemDelegate(0x199419ac7b0)
Debug [Main]: Setting output delegate for column 3 QStyledItemDelegate(0x199419ac2d0)
Debug [Main]: Setting output delegate for column 4 QStyledItemDelegate(0x199419ac710)
Debug [Main]: Setting output delegate for column 5 ControlDelegate(0x1994157ada0)
Debug [Main]: Setting input delegate for column 0 QStyledItemDelegate(0x19944431fa0)
Debug [Main]: Setting input delegate for column 1 QStyledItemDelegate(0x19944431ea0)
Debug [Main]: Setting input delegate for column 2 QStyledItemDelegate(0x19944432120)
Debug [Main]: Setting input delegate for column 3 MidiOptionsDelegate(0x19944432140)
Debug [Main]: Setting input delegate for column 4 ControlDelegate(0x19944409da0)
Debug [Main]: Setting output delegate for column 0 QStyledItemDelegate(0x19946ccb140)
Debug [Main]: Setting output delegate for column 1 QStyledItemDelegate(0x19946ccae80)
Debug [Main]: Setting output delegate for column 2 QStyledItemDelegate(0x19946ccb020)
Debug [Main]: Setting output delegate for column 3 QStyledItemDelegate(0x19946ccaa60)
Debug [Main]: Setting output delegate for column 4 QStyledItemDelegate(0x19946ccab40)
Debug [Main]: Setting output delegate for column 5 ControlDelegate(0x19946cdc860)
Debug [Main]: Setting input delegate for column 0 QStyledItemDelegate(0x1990f7f5b90)
Debug [Main]: Setting input delegate for column 1 QStyledItemDelegate(0x1990f7f5e30)
Debug [Main]: Setting input delegate for column 2 QStyledItemDelegate(0x1990f7f5b30)
Debug [Main]: Setting input delegate for column 3 MidiOptionsDelegate(0x1990f7f60d0)
Debug [Main]: Setting input delegate for column 4 ControlDelegate(0x1990f807350)
Debug [Main]: Setting output delegate for column 0 QStyledItemDelegate(0x1994c536220)
Debug [Main]: Setting output delegate for column 1 QStyledItemDelegate(0x1994c536540)
Debug [Main]: Setting output delegate for column 2 QStyledItemDelegate(0x1994c536420)
Debug [Main]: Setting output delegate for column 3 QStyledItemDelegate(0x1994c536880)
Debug [Main]: Setting output delegate for column 4 QStyledItemDelegate(0x1994c5364e0)
Debug [Main]: Setting output delegate for column 5 ControlDelegate(0x1994c52ab70)
Debug [Main]: QGLFramebufferObject: Framebuffer incomplete attachment.
Debug [Main]: QGLFramebufferObject: Framebuffer incomplete attachment.
Warning [Main]: GLSLWaveformRendererSignal::createFrameBuffer - frame buffer not valid
Debug [Main]: PlaylistTableModel(0x19968b6a090) select() took 31 ms 4398
Debug [Main]: MixxxLibraryFeature::activate()
Debug [Main]: WTrackTableView::loadTrackModel() LibraryTableModel(0x19970edf8c0)
Debug [Main]: LibraryTableModel(0x19970edf8c0) select() took 65 ms 10574
Debug [Main]: trying to restore position
Debug [Main]: LibraryTableModel(0x19970edf8c0) select() took 86 ms 5022
Debug [Main]: LibraryTableModel(0x19970edf8c0) select() took 87 ms 124
Debug [Main]: LibraryTableModel(0x19970edf8c0) select() took 85 ms 82
Debug [Main]: Successfully deserialized BeatGrid
Debug [Main]: Successfully deserialized KeyMap
Debug [Main]: BaseTrackCache(0x1996b333930) updateIndexWithQuery took 0 ms
Debug [Main]: WCoverArt::slotCoverFound WCoverArt(0x19975e37ba0, name = "LibraryCoverArt")  "CoverInfoRelative(NONE,GUESSED,,0x0)" QSize(0, 0)
Debug [Main]: BaseTrackCache(0x1996b333930) updateIndexWithQuery took 0 ms
Debug [Main]: Committing transaction on "MIXXX-1" result: true
Debug [Main]: PlaylistTableModel(0x19968b6a090) select() took 1 ms 0
Debug [Main]: Committing transaction on "MIXXX-1" result: true
Debug [Main]: PlaylistTableModel(0x19968b6a090) select() took 1 ms 82
Debug [Main]: PlaylistTableModel(0x19968b6a090) select() took 1 ms 82
Debug [Main]: Shuffling Tracks
Debug [Main]: *** Search Distance:  20
Debug [Main]: Committing transaction on "MIXXX-1" result: true
Debug [Main]: PlaylistTableModel(0x19968b6a090) select() took 0 ms 82
Debug [Main]: Shuffling Tracks
Debug [Main]: *** Search Distance:  20
Debug [Main]: Committing transaction on "MIXXX-1" result: true
Debug [Main]: PlaylistTableModel(0x19968b6a090) select() took 0 ms 82
Debug [Main]: Shuffling Tracks
Debug [Main]: *** Search Distance:  20
Debug [Main]: Committing transaction on "MIXXX-1" result: true
Debug [Main]: PlaylistTableModel(0x19968b6a090) select() took 0 ms 82
Debug [Main]: Shuffling Tracks
Debug [Main]: *** Search Distance:  20
Debug [Main]: Committing transaction on "MIXXX-1" result: true
Debug [Main]: PlaylistTableModel(0x19968b6a090) select() took 0 ms 82
Debug [Main]: Shuffling Tracks
Debug [Main]: *** Search Distance:  20
Debug [Main]: Committing transaction on "MIXXX-1" result: true
Debug [Main]: PlaylistTableModel(0x19968b6a090) select() took 0 ms 82
Debug [Main]: Shuffling Tracks
Debug [Main]: *** Search Distance:  20
Debug [Main]: Committing transaction on "MIXXX-1" result: true
Debug [Main]: PlaylistTableModel(0x19968b6a090) select() took 1 ms 82
Debug [Main]: Shuffling Tracks
Debug [Main]: *** Search Distance:  20
Debug [Main]: Committing transaction on "MIXXX-1" result: true
Debug [Main]: PlaylistTableModel(0x19968b6a090) select() took 0 ms 82
Debug [Main]: Shuffling Tracks
Debug [Main]: *** Search Distance:  20
Debug [Main]: Committing transaction on "MIXXX-1" result: true
Debug [Main]: PlaylistTableModel(0x19968b6a090) select() took 1 ms 82
Debug [Main]: Successfully deserialized BeatGrid
Debug [Main]: Successfully deserialized KeyMap
Debug [Main]: BaseTrackCache(0x1996b333930) updateIndexWithQuery took 0 ms
Debug [Main]: Auto DJ enabled
Debug [Main]: BaseTrackPlayerImpl::slotLoadTrack "[Channel1]"
Debug [CachingReaderWorker 1]: SoundSourceProxy - Opening file "file:///D:/Music.noDupes/Carl Cox - F.A.C.T. (CD1)/Carl Cox - F.A.C.T. (CD1)/06 DJ Hell _ Hot On The Heels Of Love (Dave Clarke Remix).mp3" with provider "MAD: MPEG Audio Decoder" using mode Strict
Debug [CachingReaderWorker 1]: SoundSourceMP3 - MP3 frame header | layer: 0 mode: 0 #channels: 1 #samples: 36 bitrate: 0 samplerate: 0 flags: "0x0000"
Debug [Main]: BaseTrackPlayerImpl::slotTrackLoaded
Warning [Main]: QPixmap::scaled: Pixmap is a null pixmap
Debug [Main]: WSpinny::slotCoverFound WSpinny(0x199768f4db0, name = "SpinnySingletonWithCover[Channel1]")  "CoverInfoRelative(NONE,GUESSED,,0x0)" QSize(0, 0)
Warning [Main]: QPixmap::scaled: Pixmap is a null pixmap
Debug [AnalyzerQueue 1]: AnalyzerQueue - Analyzing "DJ Hell / Hot On The Heels Of Love (Dave Clarke Remix)" "D:/Music.noDupes/Carl Cox - F.A.C.T. (CD1)/Carl Cox - F.A.C.T. (CD1)/06 DJ Hell _ Hot On The Heels Of Love (Dave Clarke Remix).mp3"
Debug [Main]: WSpinny::slotCoverFound WSpinny(0x199768f42f0, name = "SpinnySingletonNoCover[Channel1]")  "CoverInfoRelative(NONE,GUESSED,,0x0)" QSize(0, 0)
Debug [AnalyzerQueue 1]: SoundSourceProxy - Opening file "file:///D:/Music.noDupes/Carl Cox - F.A.C.T. (CD1)/Carl Cox - F.A.C.T. (CD1)/06 DJ Hell _ Hot On The Heels Of Love (Dave Clarke Remix).mp3" with provider "MAD: MPEG Audio Decoder" using mode Strict
Warning [Main]: QPixmap::scaled: Pixmap is a null pixmap
Debug [AnalyzerQueue 1]: SoundSourceMP3 - MP3 frame header | layer: 0 mode: 0 #channels: 1 #samples: 36 bitrate: 0 samplerate: 0 flags: "0x0000"
Debug [Main]: WCoverArt::slotCoverFound WCoverArt(0x1990d91fdf0, name = "DeckCoverArt")  "CoverInfoRelative(NONE,GUESSED,,0x0)" QSize(0, 0)
Debug [AnalyzerQueue 1]: AnalysisDAO fetched 2 analyses, 644405 bytes for track 2666 in 28 ms
Debug [AnalyzerQueue 1]: Reading waveform from byte array: allSignalSize 74282 visualSampleRate 441 audioVisualRatio 100
Debug [AnalyzerQueue 1]: Reading waveform from byte array: allSignalSize 3842 visualSampleRate 22.7978 audioVisualRatio 1934.4
Debug [AnalyzerQueue 1]: AnalyzerWaveform - loadStored - Stored waveform loaded
Debug [AnalyzerQueue 1]: Beat calculation will not start
Debug [AnalyzerQueue 1]: Keys version/sub-version unchanged since previous analysis. Not analyzing.
Debug [AnalyzerQueue 1]: Key calculation will not start.
Debug [AnalyzerQueue 1]: AnalyzerQueue - Skipping track analysis because no analyzer initialized.
Debug [Main]: Committing transaction on "MIXXX-1" result: true
Debug [Main]: PlaylistTableModel(0x19968b6a090) select() took 0 ms 81
Debug [Main]: Successfully deserialized BeatGrid
Debug [Main]: Successfully deserialized KeyMap
Debug [Main]: BaseTrackCache(0x1996b333930) updateIndexWithQuery took 0 ms
Debug [Main]: BaseTrackPlayerImpl::slotLoadTrack "[Channel2]"
Debug [Main]: "D:/Music.noDupes/Carl Cox - F.A.C.T. (CD1)/Carl Cox - F.A.C.T. (CD1)/06 DJ Hell _ Hot On The Heels Of Love (Dave Clarke Remix).mp3" fromTrackDuration = 84.2188
Debug [Main]: "D:/Music.noDupes/sort/chaos2/Carl Cox/F.A.C.T. [Disc 1]/1-07 Sacred Cycles.mp3" toTrackDuration =  624.771
Debug [Main]: m_fadeDuration "[Channel1]" = 0
Debug [CachingReaderWorker 2]: SoundSourceProxy - Opening file "file:///D:/Music.noDupes/sort/chaos2/Carl Cox/F.A.C.T. [Disc 1]/1-07 Sacred Cycles.mp3" with provider "MAD: MPEG Audio Decoder" using mode Strict
Debug [CachingReaderWorker 2]: SoundSourceMP3 - MP3 frame header | layer: 0 mode: 0 #channels: 1 #samples: 36 bitrate: 0 samplerate: 0 flags: "0x0000"
Debug [Main]: BaseTrackPlayerImpl::slotTrackLoaded
Debug [Main]: "D:/Music.noDupes/Carl Cox - F.A.C.T. (CD1)/Carl Cox - F.A.C.T. (CD1)/06 DJ Hell _ Hot On The Heels Of Love (Dave Clarke Remix).mp3" fromTrackDuration = 84.2188
Debug [Main]: "D:/Music.noDupes/sort/chaos2/Carl Cox/F.A.C.T. [Disc 1]/1-07 Sacred Cycles.mp3" toTrackDuration =  624.771
Debug [Main]: m_fadeDuration "[Channel1]" = 0
Warning [Main]: QPixmap::scaled: Pixmap is a null pixmap
Debug [AnalyzerQueue 1]: AnalyzerQueue - Analyzing "Sacred Cycles" "D:/Music.noDupes/sort/chaos2/Carl Cox/F.A.C.T. [Disc 1]/1-07 Sacred Cycles.mp3"
Debug [Main]: WSpinny::slotCoverFound WSpinny(0x199768f45a0, name = "SpinnySingletonWithCover[Channel2]")  "CoverInfoRelative(NONE,GUESSED,,0x0)" QSize(0, 0)
Warning [Main]: QPixmap::scaled: Pixmap is a null pixmap
Debug [Main]: WSpinny::slotCoverFound WSpinny(0x199768f4850, name = "SpinnySingletonNoCover[Channel2]")  "CoverInfoRelative(NONE,GUESSED,,0x0)" QSize(0, 0)
Debug [AnalyzerQueue 1]: SoundSourceProxy - Opening file "file:///D:/Music.noDupes/sort/chaos2/Carl Cox/F.A.C.T. [Disc 1]/1-07 Sacred Cycles.mp3" with provider "MAD: MPEG Audio Decoder" using mode Strict
Debug [AnalyzerQueue 1]: SoundSourceMP3 - MP3 frame header | layer: 0 mode: 0 #channels: 1 #samples: 36 bitrate: 0 samplerate: 0 flags: "0x0000"
Warning [Main]: QPixmap::scaled: Pixmap is a null pixmap
Debug [Main]: WCoverArt::slotCoverFound WCoverArt(0x1990dc51220, name = "DeckCoverArt")  "CoverInfoRelative(NONE,GUESSED,,0x0)" QSize(0, 0)
Debug [AnalyzerQueue 1]: AnalysisDAO fetched 2 analyses, 4520142 bytes for track 9916 in 86 ms
Debug [AnalyzerQueue 1]: Reading waveform from byte array: allSignalSize 551048 visualSampleRate 441 audioVisualRatio 100
Debug [AnalyzerQueue 1]: Reading waveform from byte array: allSignalSize 3842 visualSampleRate 3.07313 audioVisualRatio 14350.2
Debug [AnalyzerQueue 1]: AnalyzerWaveform - loadStored - Stored waveform loaded
Debug [AnalyzerQueue 1]: Beat calculation will not start
Debug [AnalyzerQueue 1]: Keys version/sub-version unchanged since previous analysis. Not analyzing.
Debug [AnalyzerQueue 1]: Key calculation will not start.
Debug [AnalyzerQueue 1]: AnalyzerQueue - Skipping track analysis because no analyzer initialized.
Debug [Main]: Committing transaction on "MIXXX-1" result: true
Debug [Main]: "D:/Music.noDupes/sort/chaos2/Carl Cox/F.A.C.T. [Disc 1]/1-07 Sacred Cycles.mp3" fromTrackDuration = 624.771
Debug [Main]: "D:/Music.noDupes/Carl Cox - F.A.C.T. (CD1)/Carl Cox - F.A.C.T. (CD1)/06 DJ Hell _ Hot On The Heels Of Love (Dave Clarke Remix).mp3" toTrackDuration =  84.2188
Debug [Main]: m_fadeDuration "[Channel2]" = 0
Debug [Main]: "D:/Music.noDupes/sort/chaos2/Carl Cox/F.A.C.T. [Disc 1]/1-07 Sacred Cycles.mp3" fromTrackDuration = 624.771
Debug [Main]: "D:/Music.noDupes/Carl Cox - F.A.C.T. (CD1)/Carl Cox - F.A.C.T. (CD1)/06 DJ Hell _ Hot On The Heels Of Love (Dave Clarke Remix).mp3" toTrackDuration =  84.2188
Debug [Main]: m_fadeDuration "[Channel2]" = 0
Debug [Main]: Committing transaction on "MIXXX-1" result: true
Debug [Main]: PlaylistTableModel(0x19968b6a090) select() took 0 ms 80
Debug [Main]: Successfully deserialized BeatGrid
Debug [Main]: Successfully deserialized KeyMap
Debug [Main]: BaseTrackCache(0x1996b333930) updateIndexWithQuery took 0 ms
Debug [Main]: BaseTrackPlayerImpl::slotLoadTrack "[Channel1]"
Debug [CachingReaderWorker 1]: SoundSourceProxy - Opening file "file:///D:/Music.noDupes/sort/chaos2/Carl Cox/F.A.C.T. [Disc 1]/1-08 First Question.mp3" with provider "MAD: MPEG Audio Decoder" using mode Strict
Debug [Main]: Committing transaction on "MIXXX-1" result: true
Debug [CachingReaderWorker 1]: SoundSourceMP3 - MP3 frame header | layer: 0 mode: 0 #channels: 1 #samples: 36 bitrate: 0 samplerate: 0 flags: "0x0000"
Debug [Main]: BaseTrackPlayerImpl::slotTrackLoaded
Debug [Main]: "D:/Music.noDupes/sort/chaos2/Carl Cox/F.A.C.T. [Disc 1]/1-07 Sacred Cycles.mp3" fromTrackDuration = 624.771
Debug [Main]: "D:/Music.noDupes/sort/chaos2/Carl Cox/F.A.C.T. [Disc 1]/1-08 First Question.mp3" toTrackDuration =  560.118
Debug [Main]: m_fadeDuration "[Channel2]" = 0
Warning [Main]: QPixmap::scaled: Pixmap is a null pixmap
Debug [Main]: WSpinny::slotCoverFound WSpinny(0x199768f4db0, name = "SpinnySingletonWithCover[Channel1]")  "CoverInfoRelative(NONE,GUESSED,,0x0)" QSize(0, 0)
Warning [Main]: QPixmap::scaled: Pixmap is a null pixmap
Debug [AnalyzerQueue 1]: AnalyzerQueue - Analyzing "First Question" "D:/Music.noDupes/sort/chaos2/Carl Cox/F.A.C.T. [Disc 1]/1-08 First Question.mp3"
Debug [Main]: WSpinny::slotCoverFound WSpinny(0x199768f42f0, name = "SpinnySingletonNoCover[Channel1]")  "CoverInfoRelative(NONE,GUESSED,,0x0)" QSize(0, 0)
Debug [AnalyzerQueue 1]: SoundSourceProxy - Opening file "file:///D:/Music.noDupes/sort/chaos2/Carl Cox/F.A.C.T. [Disc 1]/1-08 First Question.mp3" with provider "MAD: MPEG Audio Decoder" using mode Strict
Warning [Main]: QPixmap::scaled: Pixmap is a null pixmap
Debug [Main]: WCoverArt::slotCoverFound WCoverArt(0x1990d91fdf0, name = "DeckCoverArt")  "CoverInfoRelative(NONE,GUESSED,,0x0)" QSize(0, 0)
Debug [AnalyzerQueue 1]: SoundSourceMP3 - MP3 frame header | layer: 0 mode: 0 #channels: 1 #samples: 36 bitrate: 0 samplerate: 0 flags: "0x0000"
Debug [Main]: TrackDAO: Saving track 2666 "D:/Music.noDupes/Carl Cox - F.A.C.T. (CD1)/Carl Cox - F.A.C.T. (CD1)/06 DJ Hell _ Hot On The Heels Of Love (Dave Clarke Remix).mp3"
Debug [Main]: TrackDAO: Updating track in database 2666 "D:/Music.noDupes/Carl Cox - F.A.C.T. (CD1)/Carl Cox - F.A.C.T. (CD1)/06 DJ Hell _ Hot On The Heels Of Love (Dave Clarke Remix).mp3"
Debug [Main]: BaseTrackCache(0x1996b333930) updateIndexWithQuery took 0 ms
Debug [AnalyzerQueue 1]: AnalysisDAO fetched 2 analyses, 4069019 bytes for track 9917 in 77 ms
Debug [AnalyzerQueue 1]: Reading waveform from byte array: allSignalSize 494024 visualSampleRate 441 audioVisualRatio 100
Debug [AnalyzerQueue 1]: Reading waveform from byte array: allSignalSize 3842 visualSampleRate 3.42785 audioVisualRatio 12865.2
Debug [AnalyzerQueue 1]: AnalyzerWaveform - loadStored - Stored waveform loaded
Debug [AnalyzerQueue 1]: Beat calculation will not start
Debug [AnalyzerQueue 1]: Keys version/sub-version unchanged since previous analysis. Not analyzing.
Debug [AnalyzerQueue 1]: Key calculation will not start.
Debug [AnalyzerQueue 1]: AnalyzerQueue - Skipping track analysis because no analyzer initialized.
Debug [Main]: "D:/Music.noDupes/sort/chaos2/Carl Cox/F.A.C.T. [Disc 1]/1-08 First Question.mp3" fromTrackDuration = 560.118
Debug [Main]: "D:/Music.noDupes/sort/chaos2/Carl Cox/F.A.C.T. [Disc 1]/1-07 Sacred Cycles.mp3" toTrackDuration =  624.771
Debug [Main]: m_fadeDuration "[Channel1]" = 0
Debug [Main]: "D:/Music.noDupes/sort/chaos2/Carl Cox/F.A.C.T. [Disc 1]/1-08 First Question.mp3" fromTrackDuration = 560.118
Debug [Main]: "D:/Music.noDupes/sort/chaos2/Carl Cox/F.A.C.T. [Disc 1]/1-07 Sacred Cycles.mp3" toTrackDuration =  624.771
Debug [Main]: m_fadeDuration "[Channel1]" = 0
Debug [Main]: Committing transaction on "MIXXX-1" result: true
Debug [Main]: PlaylistTableModel(0x19968b6a090) select() took 0 ms 79
Debug [Main]: Successfully deserialized BeatGrid
Debug [Main]: Successfully deserialized KeyMap
Debug [Main]: BaseTrackCache(0x1996b333930) updateIndexWithQuery took 0 ms
Debug [Main]: BaseTrackPlayerImpl::slotLoadTrack "[Channel2]"
Debug [Main]: Committing transaction on "MIXXX-1" result: true
Debug [CachingReaderWorker 2]: SoundSourceProxy - Opening file "file:///D:/Music.noDupes/Carl Cox/F.A.C.T. [Disc 2]/2-03 Psychotrip (Richie's Remix).mp3" with provider "MAD: MPEG Audio Decoder" using mode Strict
Debug [CachingReaderWorker 2]: SoundSourceMP3 - MP3 frame header | layer: 0 mode: 0 #channels: 1 #samples: 36 bitrate: 0 samplerate: 0 flags: "0x0000"
Debug [Main]: BaseTrackPlayerImpl::slotTrackLoaded
Debug [Main]: "D:/Music.noDupes/sort/chaos2/Carl Cox/F.A.C.T. [Disc 1]/1-08 First Question.mp3" fromTrackDuration = 560.118
Debug [Main]: "D:/Music.noDupes/Carl Cox/F.A.C.T. [Disc 2]/2-03 Psychotrip (Richie's Remix).mp3" toTrackDuration =  654.994
Debug [Main]: m_fadeDuration "[Channel1]" = 0
Warning [Main]: QPixmap::scaled: Pixmap is a null pixmap
Debug [Main]: WSpinny::slotCoverFound WSpinny(0x199768f45a0, name = "SpinnySingletonWithCover[Channel2]")  "CoverInfoRelative(NONE,GUESSED,,0x0)" QSize(0, 0)
Warning [Main]: QPixmap::scaled: Pixmap is a null pixmap
Debug [Main]: WSpinny::slotCoverFound WSpinny(0x199768f4850, name = "SpinnySingletonNoCover[Channel2]")  "CoverInfoRelative(NONE,GUESSED,,0x0)" QSize(0, 0)
Debug [AnalyzerQueue 1]: AnalyzerQueue - Analyzing "Psychotrip (Richie's Remix)" "D:/Music.noDupes/Carl Cox/F.A.C.T. [Disc 2]/2-03 Psychotrip (Richie's Remix).mp3"
Debug [AnalyzerQueue 1]: SoundSourceProxy - Opening file "file:///D:/Music.noDupes/Carl Cox/F.A.C.T. [Disc 2]/2-03 Psychotrip (Richie's Remix).mp3" with provider "MAD: MPEG Audio Decoder" using mode Strict
Warning [Main]: QPixmap::scaled: Pixmap is a null pixmap
Debug [Main]: WCoverArt::slotCoverFound WCoverArt(0x1990dc51220, name = "DeckCoverArt")  "CoverInfoRelative(NONE,GUESSED,,0x0)" QSize(0, 0)
Debug [AnalyzerQueue 1]: SoundSourceMP3 - MP3 frame header | layer: 0 mode: 0 #channels: 1 #samples: 36 bitrate: 0 samplerate: 0 flags: "0x0000"
Debug [Main]: TrackDAO: Saving track 9916 "D:/Music.noDupes/sort/chaos2/Carl Cox/F.A.C.T. [Disc 1]/1-07 Sacred Cycles.mp3"
Debug [Main]: TrackDAO: Updating track in database 9916 "D:/Music.noDupes/sort/chaos2/Carl Cox/F.A.C.T. [Disc 1]/1-07 Sacred Cycles.mp3"
Debug [Main]: BaseTrackCache(0x1996b333930) updateIndexWithQuery took 0 ms
Debug [AnalyzerQueue 1]: AnalysisDAO fetched 2 analyses, 4778889 bytes for track 2641 in 107 ms
Debug [AnalyzerQueue 1]: Reading waveform from byte array: allSignalSize 577706 visualSampleRate 441 audioVisualRatio 100
Debug [AnalyzerQueue 1]: Reading waveform from byte array: allSignalSize 3842 visualSampleRate 2.93132 audioVisualRatio 15044.4
Debug [AnalyzerQueue 1]: AnalyzerWaveform - loadStored - Stored waveform loaded
Debug [AnalyzerQueue 1]: Beat calculation will not start
Debug [AnalyzerQueue 1]: Keys version/sub-version unchanged since previous analysis. Not analyzing.
Debug [AnalyzerQueue 1]: Key calculation will not start.
Debug [AnalyzerQueue 1]: AnalyzerQueue - Skipping track analysis because no analyzer initialized.
Debug [Main]: screensaver uninhibited
Debug [Main]: Destroying MixxxMainWindow
Debug [Main]: 0 ms saving configuration
Debug [Main]: 7 ms deleting skin
Debug [Main]: ~DlgAutoDJ()
Debug [Main]: 261 ms deleting menubar
Debug [Main]: 263 ms deleting SoundManager
Debug [Main]: 320 ms deleting ControllerManager
Debug [Controller]: Controller polling stopped.
Debug [Controller]: Deleting PortMIDI devices...
Debug [Controller]: Deleting HSS1394 devices...
Debug [Controller]: Deleting HID devices...
Debug [Main]: 1511 ms deleting VinylControlManager
Debug [Main]: ~CoverArtCache()
Debug [Main]: 1511 ms deleting PlayerManager
Debug [AnalyzerQueue 1]: AnalyzerQueue - Exiting thread
Debug [Main]: AnalyzerWaveform - ~AnalyzerWaveform():
Debug [Main]: 1519324900 ns deactivating GlobalTrackCache
Debug [Main]: TrackDAO: Saving track 9917 "D:/Music.noDupes/sort/chaos2/Carl Cox/F.A.C.T. [Disc 1]/1-08 First Question.mp3"
Debug [Main]: TrackDAO: Updating track in database 9917 "D:/Music.noDupes/sort/chaos2/Carl Cox/F.A.C.T. [Disc 1]/1-08 First Question.mp3"
Debug [Main]: BaseTrackCache(0x1996b333930) updateIndexWithQuery took 0 ms
Debug [Main]: 1532 ms deleting Library
Debug [Main]: Wait to finish browser background thread
Debug [Main]: Browser background thread terminated!
Info [Main]: Library - Disconnecting database
Debug [Main]: TrackDAO::finish()
Debug [Main]: Clearing played information for this session
Debug [Main]: Cleaning LibraryHashes/track_locations tables.
Debug [Main]: ~TrackDAO()
Debug [LibraryScanner 1]: LibraryScanner - Event loop stopped
Warning [LibraryScanner 1]: QSqlDatabasePrivate::removeDatabase: connection 'MIXXX-2' is still in use, all queries will cease to work.
Debug [LibraryScanner 1]: LibraryScanner - Exiting thread
Debug [Main]: ~TrackDAO()
Debug [Main]: 1568 ms closing database connection(s)
Debug [Main]: 1569 ms deleting RecordingManager
Debug [Main]: Delete RecordingManager
Debug [Main]: 1569 ms deleting BroadcastManager
Debug [Main]: DlgPrefBroadcast - broadcastEnabledChanged() 0
Debug [Main]: 1569 ms deleting EngineMaster
Debug [Main]: in ~EngineMaster()
Debug [Main]: 1690 ms deleting DlgPreferences
Debug [Main]: 1708 ms deleting EffectsManager
Debug [Main]: 1750 ms deleting SettingsManager
Debug [Main]: Mixxx shutdown complete with code 0
